Wall time,Step,Value
1704967057.671944,950,43.82728958129883
1704967505.7518,2400,43.740623474121094
1704967738.940624,3150,43.71006774902344
1704967753.966551,3200,43.703521728515625
1704967897.900036,3600,43.695556640625
1704968161.09873,4500,43.76157760620117
1704968303.370264,5200,43.80782699584961
1704968327.180303,5400,43.77274703979492
1704968466.773194,6450,43.78699493408203
1704968931.353756,8050,43.80303192138672
1704968986.769674,8250,43.82341766357422
1704969125.402285,8650,43.824485778808594
1704969327.56325,9600,43.82438659667969
1704969404.647181,10200,43.83297348022461
1704969583.173613,11500,43.839691162109375
1704969824.40743,12250,43.838653564453125
1704969900.258004,13000,43.86081314086914
1704970174.557293,14150,43.8783073425293
1704970186.439392,14300,43.889404296875
1704970438.821073,15850,43.893375396728516
1704970472.979094,16000,43.89452362060547
1704970707.34032,17350,43.90615463256836
1704970798.080758,17950,43.880008697509766
1704970838.406163,18350,43.88639831542969
1704970912.519888,19350,43.8920783996582
1704970982.969397,20150,43.8990364074707
1704971003.76784,20800,43.895362854003906
1704971071.07224,21850,43.87598419189453
1704971075.467991,21900,43.877769470214844
1704971122.700395,22350,43.89079284667969
1704971205.494748,23100,43.90468215942383
1704971228.73987,23300,43.91170883178711
1704971284.721494,23800,43.90668869018555
1704971304.394353,24100,43.89490509033203
1704971355.29426,25550,43.93482971191406
1704971459.034804,26700,43.92323684692383
1704971491.016087,26950,43.929019927978516
1704971501.083143,27050,43.93181228637695
1704971554.125462,27850,43.93218994140625
1704971577.011721,28150,43.93334197998047
1704971674.485074,29750,43.92594528198242
1704971678.953924,29850,43.92975997924805
1704971769.609273,31900,43.920963287353516
1704971787.589565,32200,43.918312072753906
1704971788.703638,32250,43.92151641845703
1704971830.222028,32950,43.91767883300781
1704971852.892113,33400,43.91831588745117
1704971881.951488,33800,43.933841705322266
1704971993.538054,36100,43.94144058227539
1704972093.920964,38250,43.93218231201172
1704972128.63911,38800,43.919158935546875
1704972149.282484,39150,43.92329406738281
1704972175.085425,39450,43.921321868896484
1704972227.318057,40250,43.921531677246094
1704972360.837884,42900,43.926090240478516
1704972421.751763,43350,43.93045425415039
1704972483.565245,44350,43.93217849731445
1704972665.652427,47150,43.93534851074219
1704972789.498536,50000,43.935508728027344
1704972804.579802,50250,43.934207916259766
1704972825.709695,50800,43.93234634399414
1704972853.022988,51150,43.9339485168457
1704972874.811261,51350,43.93611145019531
1704972880.573794,51450,43.9365348815918
1704972922.813397,51900,43.935367584228516
1704972958.438435,52850,43.94580841064453
1704972987.009318,53600,43.94041061401367
1704973006.685316,53900,43.94038772583008
1704973082.523013,54950,43.92694854736328
1704973099.095268,55500,43.933082580566406
1704973104.498286,55600,43.93417739868164
1704973127.83092,56300,43.94174575805664
1704973148.029801,56650,43.94536590576172
1704973195.187558,57600,43.942195892333984
1704973197.684672,57650,43.9401741027832
1704973215.750859,58250,43.9371337890625
1704973244.449097,58750,43.931488037109375
1704973248.367066,58850,43.930809020996094
1704973257.570023,59250,43.93178176879883
1704973308.285199,60950,43.91893005371094
1704973337.324853,61300,43.92243957519531
1704973417.932298,62350,43.92308807373047
1704973442.853876,62650,43.918785095214844
1704973447.809007,62750,43.92062759399414
1704973457.677352,62900,43.91994857788086
1704973462.829614,63100,43.9196662902832
1704973470.036045,63400,43.92041015625
1704973475.576452,63600,43.920448303222656
1704973530.955168,64950,43.92951583862305
1704973602.304599,66300,43.92068862915039
1704973650.422447,67300,43.91989517211914
1704973726.106573,68800,43.915096282958984
1704973729.223866,68850,43.915321350097656
1704973882.705073,70900,43.92228698730469
1704973935.436282,72000,43.922122955322266
1704973982.4009,72900,43.92685317993164
1704973983.62496,72950,43.92722702026367
1704974132.164064,74750,43.91844940185547
1704974153.511471,75150,43.91830062866211
1704974192.734272,75550,43.91767501831055
1704974205.219488,75700,43.91611862182617
1704974346.466304,77450,43.92022705078125
1704974356.895534,77600,43.9210205078125
1704974415.413509,78300,43.92429733276367
1704974432.489777,78450,43.92461395263672
1704974471.28796,78700,43.92267990112305
1704974540.319395,79300,43.92549514770508
1704974562.099281,79850,43.92251205444336
1704974707.667074,81400,43.92036819458008
1704974726.771973,81800,43.92207336425781
1704974891.77402,83550,43.93067169189453
1704974951.477901,84300,43.92947769165039
1704975008.252296,85150,43.929954528808594
1704975024.953787,85250,43.9295539855957
1704975043.638016,85400,43.9292106628418
1704975061.40724,85600,43.929508209228516
1704978846.251247,88800,43.73445129394531
1704978848.747906,88900,43.80356979370117
1704978863.590096,89500,43.946632385253906
1704978935.119743,92400,43.73659133911133
1704978951.047366,93050,43.7657585144043
1704978959.629856,93400,43.780311584472656
1704978999.071386,95000,43.75460433959961
1704979002.692693,95150,43.75141143798828
1704979010.030574,95450,43.74519348144531
1704979011.232569,95500,43.740257263183594
1704979044.281656,96850,43.751068115234375
1704979049.24307,97050,43.7577018737793
1704979055.250218,97300,43.73883056640625
1704979073.728601,98050,43.753841400146484
1704979074.925258,98100,43.743038177490234
1704979096.941022,99000,43.74470520019531
1704979207.904327,103550,43.74987030029297
1704979218.864305,104000,43.75908279418945
1704979231.093839,104500,43.757652282714844
1704979244.41871,105050,43.77305603027344
1704979262.819869,105800,43.77815628051758
1704979267.655454,106000,43.77075958251953
1704979292.020303,107000,43.77986145019531
1704979359.203602,109750,43.793216705322266
1704979377.380517,110500,43.80031967163086
1704979384.705378,110800,43.81040573120117
1704979414.334956,112000,43.810302734375
1704979420.442646,112250,43.80940246582031
1704979511.95076,116000,43.8432731628418
1704979560.357862,118000,43.83705139160156
1704979603.286978,119750,43.830318450927734
1704979654.505873,121850,43.819400787353516
1704979660.595775,122100,43.828617095947266
1704979676.445247,122750,43.839271545410156
1704979686.226249,123150,43.84006118774414
1704979689.878313,123300,43.838436126708984
1704979714.392409,124300,43.830718994140625
1704979736.102904,125200,43.82734680175781
1704979753.348479,125900,43.826175689697266
1704979755.847669,126000,43.82704544067383
1704979769.357242,126550,43.8179931640625
1704979826.584194,128900,43.827579498291016
1704979827.806524,128950,43.82596206665039
1704979853.651347,130000,43.821258544921875
1704979887.723331,131400,43.83311462402344
1704979897.570816,131800,43.83605194091797
1704979907.178678,132200,43.83709716796875
1704979939.880158,133550,43.831024169921875
1704979944.760184,133750,43.83485412597656
1704979953.399475,134100,43.83872604370117
1704979957.092433,134250,43.83728790283203
1704979968.302361,134700,43.840003967285156
1704979986.694548,135450,43.848209381103516
1704979992.8095,135700,43.84970474243164
1704979997.706466,135900,43.852272033691406
1704980018.344004,136750,43.858394622802734
1704980024.339942,137000,43.85371780395508
1704980025.556942,137050,43.85454559326172
1704980041.469534,137700,43.85660934448242
1704980042.667341,137750,43.85806655883789
1704980043.925777,137800,43.857398986816406
1704980055.880544,138300,43.85422897338867
1704980059.542043,138450,43.850772857666016
1704980080.25846,139300,43.85490036010742
1704980113.204218,140650,43.857173919677734
1704980139.958792,141750,43.86332321166992
1704980152.108379,142250,43.85918426513672
1704980172.866078,143100,43.85261917114258
1704980174.057078,143150,43.851375579833984
1704980246.310433,146100,43.85212326049805
1704980284.307786,147650,43.84810256958008
1704980287.90987,147800,43.847808837890625
1704980296.494164,148150,43.84501266479492
1704980300.134431,148300,43.845497131347656
1704980309.732578,148700,43.84365463256836
1704980365.635289,151000,43.83906173706055
1704980383.727333,151750,43.83921813964844
1704980399.797983,152400,43.83998107910156
1704980443.62993,154200,43.83839797973633
1704980444.881226,154250,43.838680267333984
1704980467.817314,155200,43.83744812011719
1704980469.027148,155250,43.837799072265625
1704980470.292499,155300,43.83871078491211
1704980487.641838,156000,43.83755111694336
1704980488.895101,156050,43.838584899902344
1704980490.116547,156100,43.83815383911133
1704980498.50718,156450,43.83650588989258
1704980519.176474,157300,43.842803955078125
1704980553.508338,158700,43.84986114501953
1704980576.695761,159650,43.8492431640625
1704980585.256497,160000,43.84810256958008
1704980591.454142,160250,43.85041046142578
1704980607.434176,160900,43.85093688964844
1704980611.053847,161050,43.8521728515625
1704980636.596305,162100,43.843570709228516
1704980665.88538,163300,43.844974517822266
1704980669.484317,163450,43.84345626831055
1704980715.96133,165350,43.84492874145508
1704980757.467954,167050,43.85337448120117
1704980776.944169,167850,43.85306167602539
1704980798.812201,168750,43.855167388916016
1704980812.368145,169300,43.852699279785156
1704980835.530809,170250,43.85570526123047
1704980852.603238,170950,43.8537483215332
1704980905.101392,173100,43.85834503173828
1704980932.316514,174200,43.85633850097656
1704980933.50543,174250,43.8561897277832
1704980941.875688,174600,43.85466766357422
1704980944.286818,174700,43.85524368286133
1704980952.854063,175050,43.85629653930664
1704982738.180616,176350,43.398807525634766
1704982787.325147,178350,43.688812255859375
1704982790.968999,178500,43.70755386352539
1704982799.385004,178850,43.74628448486328
1704982814.088345,179450,43.64335632324219
1704982829.281832,180050,43.6014289855957
1704982846.546988,180700,43.65452575683594
1704982848.109615,180750,43.66329574584961
1704982851.00125,180850,43.66823959350586
1704982903.898146,182750,43.70058059692383
1704982908.257032,182900,43.697818756103516
1704982910.6813,183000,43.694740295410156
1704982913.054142,183100,43.70136260986328
1704982916.698862,183250,43.69985580444336
1704982921.778435,183450,43.7003173828125
1704982925.573482,183600,43.69597625732422
1704982948.713902,184550,43.711463928222656
1704982975.603441,185650,43.68943786621094
1704982981.732838,185900,43.69957733154297
1704983021.362046,187450,43.71377182006836
1704983028.675552,187750,43.69826126098633
1704983037.186696,188100,43.68670654296875
1704983039.594026,188200,43.6964111328125
1704983062.710223,189150,43.72101593017578
1704983149.014036,192450,43.77816390991211
1704983151.482355,192550,43.769840240478516
1704983174.642606,193500,43.78737258911133
1704983214.754285,195150,43.78697204589844
1704983225.729115,195600,43.7829475402832
1704983230.558679,195800,43.78600311279297
1704983237.878882,196100,43.79351806640625
1704983252.349804,196700,43.79413986206055
1704983255.998103,196850,43.791786193847656
1704983292.432068,198350,43.78740310668945
1704983303.406518,198800,43.797584533691406
1704983310.67004,199100,43.79850769042969
1704983348.393401,200650,43.78731155395508
1704983350.797298,200750,43.7852783203125
1704983361.763162,201200,43.79839324951172
1704983374.995073,201750,43.812278747558594
1704983382.430667,202050,43.81756591796875
1704983391.030029,202400,43.81610107421875
1704983436.082084,204250,43.803775787353516
1704983466.779489,205500,43.80417251586914
1704983474.077976,205800,43.792205810546875
1704983481.313512,206100,43.79581832885742
1704983484.916077,206250,43.793556213378906
1704983511.761938,207350,43.78678894042969
1704983554.409808,209100,43.777462005615234
1704983567.877248,209650,43.78542709350586
1704983610.616036,211400,43.815250396728516
1704983637.386879,212500,43.809078216552734
1704983647.095457,212900,43.80847930908203
1704983721.43296,215950,43.791168212890625
1704983733.631231,216450,43.78779220581055
1704983741.019732,216750,43.788944244384766
1704983814.873331,219800,43.792301177978516
1704983863.488922,221800,43.784523010253906
1704983873.240987,222200,43.786983489990234
1704983886.809228,222750,43.79308319091797
1704983901.449274,223350,43.79606246948242
1704983973.788731,226300,43.80195236206055
1704983986.186216,226800,43.802978515625
1704983991.153208,227000,43.80350875854492
1704984021.335166,228250,43.80225372314453
1704984026.110099,228450,43.804443359375
1704984033.462566,228750,43.80655288696289
1704984076.214528,230500,43.798587799072266
1704984079.873901,230650,43.7980842590332
1704984124.787398,232500,43.799747467041016
1704984136.921271,233000,43.8005256652832
1704984159.867464,233950,43.79398727416992
1704984169.577338,234350,43.78881072998047
1704984174.489534,234550,43.789241790771484
1704984176.951928,234650,43.78691101074219
1704984184.284665,234950,43.787689208984375
1704984195.23229,235400,43.7890739440918
1704984223.172779,236550,43.78181457519531
1704984231.776183,236900,43.77956008911133
1704984258.309782,238000,43.774314880371094
1704984274.091237,238650,43.77467346191406
1704984278.928396,238850,43.7718620300293
1704984280.124949,238900,43.771541595458984
1704984317.064895,240400,43.776084899902344
1704984345.036225,241550,43.77539825439453
1704984347.564013,241650,43.77452850341797
1704984351.315913,241800,43.77427673339844
1704984352.522076,241850,43.775211334228516
1704984362.188867,242250,43.772178649902344
1704984408.479914,244150,43.76766586303711
1704984424.338262,244800,43.76789474487305
1704984442.456012,245550,43.772804260253906
1704984465.419107,246500,43.77378463745117
1704984478.880236,247050,43.776493072509766
1704984489.781828,247500,43.77178192138672
1704984527.007343,249050,43.77837371826172
1704984540.240687,249600,43.77622985839844
1704984579.39698,251200,43.7759895324707
1704984608.759379,252400,43.776493072509766
1704984631.984251,253350,43.77823257446289
1704984647.750554,254000,43.77699279785156
1704984648.954151,254050,43.77688980102539
1704984658.922508,254450,43.7818717956543
1704984661.376205,254550,43.78279495239258
1704984712.739794,256650,43.783287048339844
1704984717.531627,256850,43.781105041503906
1704984722.33069,257050,43.77988052368164
1704984735.684657,257600,43.780296325683594
1704984739.320983,257750,43.78219223022461
1704984740.505985,257800,43.7821159362793
1704984779.559832,259400,43.781517028808594
1704984792.864298,259950,43.7864990234375
1704984795.355207,260050,43.7862548828125
1704984801.510958,260300,43.78472137451172
1704984803.904681,260400,43.78281021118164
1704984817.298689,260950,43.78053283691406
1704984825.749283,261300,43.781551361083984
1704984841.851654,261950,43.7824592590332
1704984860.053432,262700,43.780540466308594
1704984870.996936,263150,43.78097915649414
1704984874.680832,263300,43.78007888793945
1704987212.422024,264800,43.210453033447266
1704987241.913573,265950,43.511329650878906
1704987243.140801,266000,43.481258392333984
1704987250.525917,266150,43.45210266113281
1704987252.985485,266250,43.387184143066406
1704987257.797996,266450,43.40807342529297
1704987267.043551,266750,43.506954193115234
1704987313.838833,268150,43.545589447021484
1704987323.181646,268550,43.62044143676758
1704987366.266833,269700,43.63638687133789
1704987378.434854,270200,43.5925178527832
1704987445.059287,272300,43.58879470825195
1704987455.837475,272750,43.6204719543457
1704987461.880362,273000,43.60769271850586
1704987523.089763,275250,43.64004898071289
1704987529.209483,275500,43.642024993896484
1704987544.008244,276100,43.62816619873047
1704987608.623261,278400,43.638248443603516
1704987660.269316,280250,43.66587829589844
1704987742.029709,283400,43.68600845336914
1704987835.062879,286550,43.68232727050781
1704987870.827268,287950,43.700279235839844
1704987908.004503,289100,43.698970794677734
1704987983.418333,291650,43.7271614074707
1704988026.427799,293350,43.71893310546875
1704988042.016462,294000,43.701969146728516
1704988045.557971,294150,43.709354400634766
1704988142.887538,297450,43.70398712158203
1704988152.445857,297850,43.70924377441406
1704988165.258037,298250,43.721622467041016
1704988188.411332,299100,43.734519958496094
1704988199.101958,299550,43.72948455810547
1704988222.660601,299900,43.726383209228516
1704988229.983181,300200,43.72422790527344
1704988237.262457,300500,43.727210998535156
1704988284.112716,302300,43.717979431152344
1704988295.49134,302700,43.71567153930664
1704988325.240355,303950,43.70484161376953
1704988326.364097,304000,43.703636169433594
1704988379.029445,305600,43.70772171020508
1704988381.418872,305700,43.70682144165039
1704988420.863578,306700,43.714088439941406
1704988426.788609,306950,43.71737289428711
1704988429.15086,307050,43.71766662597656
1704988431.511282,307150,43.71694564819336
1704988461.867135,308450,43.71554946899414
1704988537.678942,311300,43.7167854309082
1704988572.425097,312200,43.717586517333984
1704988646.068369,314000,43.72647476196289
1704988648.419666,314100,43.72660827636719
1704988685.390194,315050,43.725093841552734
1704988733.299793,316650,43.73405456542969
1704988735.697356,316750,43.73349380493164
1704988756.855421,317400,43.74116516113281
1704988770.794412,317950,43.740787506103516
1704988771.999703,318000,43.74018096923828
1704988777.958091,318250,43.74024200439453
1704988783.807515,318500,43.737648010253906
1704988837.779439,320350,43.74177169799805
1704988867.227334,321250,43.7427978515625
1704988889.80526,322200,43.74300765991211
1704988916.968989,323000,43.7366943359375
1704988940.639633,323700,43.73946762084961
1704988962.723059,324600,43.732933044433594
1704988967.54207,324750,43.73109817504883
1704989016.015548,326450,43.72734832763672
1704989027.979298,326600,43.7281379699707
1704989046.396887,327350,43.724727630615234
1704989054.561221,327600,43.72433090209961
1704989072.20946,328250,43.72657775878906
1704989078.124303,328500,43.727420806884766
1704989097.169909,329300,43.72922897338867
1704989103.234158,329550,43.725467681884766
1704989111.398384,329800,43.72099685668945
1704989119.584864,330000,43.72134017944336
1704989138.753492,330800,43.71657943725586
1704989190.202759,332500,43.71584701538086
1704989219.11821,333700,43.72293472290039
1704989286.303663,335800,43.723392486572266
1704989292.180234,336050,43.722633361816406
1704989315.522025,336550,43.7249641418457
1704989320.394088,336750,43.72481918334961
1704989339.337464,337550,43.72541046142578
1704989352.252702,338100,43.721343994140625
1704989395.368656,339300,43.71809387207031
1704989421.054351,340150,43.71778869628906
1704989449.479114,341100,43.716827392578125
1704989478.892423,342150,43.71752166748047
1704989489.742401,342550,43.721866607666016
1704989500.491663,343000,43.725223541259766
1704989521.305305,343800,43.72465133666992
1704989583.185081,345850,43.728004455566406
1704989586.734705,346000,43.728614807128906
1704989608.708705,346550,43.72857666015625
1704989622.720129,346900,43.729942321777344
1704989678.616151,348800,43.73264694213867
1704989708.123253,349600,43.734352111816406
1704989714.091856,349850,43.733665466308594
1704989716.461231,349950,43.732852935791016
1704989757.192221,350950,43.73369598388672
1704989770.39254,351500,43.73457336425781
1704989789.584653,352250,43.73518371582031
1704991870.429634,352750,43.22446060180664
1704991947.875654,355900,43.47477722167969
1704991951.532115,356050,43.466487884521484
1704991958.960876,356350,43.42608642578125
1704992005.042576,358250,43.56563949584961
1704992020.864033,358900,43.52698516845703
1704992022.056287,358950,43.51914596557617
1704992024.474544,359050,43.53418731689453
1704992057.391469,360400,43.540550231933594
1704992079.259256,361300,43.558265686035156
1704992113.427077,362700,43.56719207763672
1704992139.173883,363750,43.59733963012695
1704992181.119321,365450,43.60817337036133
1704992213.273923,366750,43.61433029174805
1704992218.136493,366950,43.6339225769043
1704992236.44048,367700,43.6290397644043
1704992242.708224,367950,43.62854766845703
1704992253.715859,368400,43.6242561340332
1704992275.662809,369300,43.6491813659668
1704992323.333131,371250,43.638023376464844
1704992336.796716,371800,43.65150833129883
1704992338.05635,371850,43.64741897583008
1704992372.249576,373250,43.64497375488281
1704992377.107746,373450,43.64665985107422
1704992379.483003,373550,43.638893127441406
1704992394.095365,374150,43.641029357910156
1704992423.317978,375350,43.665382385253906
1704992437.933537,375950,43.66614532470703
1704992447.655513,376350,43.656494140625
1704992454.982942,376650,43.65093231201172
1704992468.308597,377200,43.65555953979492
1704992478.076959,377600,43.66843795776367
1704992480.479644,377700,43.674072265625
1704992487.732975,378000,43.67778778076172
1704992529.100301,379700,43.66656494140625
1704992540.038397,380150,43.668548583984375
1704992542.495128,380250,43.67182922363281
1704992546.142059,380400,43.668582916259766
1704992583.787757,381950,43.65149688720703
1704992591.039653,382250,43.65180969238281
1704992610.565056,383050,43.65154266357422
1704992692.128342,386400,43.65821075439453
1704992695.846187,386550,43.66337203979492
1704992727.46542,387850,43.66240310668945
1704992733.627638,388100,43.65705871582031
1704992773.780878,389750,43.657283782958984
1704992774.995853,389800,43.655982971191406
1704992806.648353,391100,43.63963317871094
1704992827.334298,391950,43.64009475708008
1704992832.235943,392150,43.639320373535156
1704992842.163535,392550,43.643287658691406
1704992848.296867,392800,43.64439392089844
1704992849.486685,392850,43.64524841308594
1704992856.932938,393150,43.64469909667969
1704992881.310416,394150,43.6331672668457
1704992897.296478,394800,43.64151382446289
1704992904.650735,395100,43.64729309082031
1704992935.200828,396350,43.65214920043945
1704992938.913342,396500,43.65304946899414
1704993008.06594,399350,43.66350173950195
1704993064.290418,401650,43.67121887207031
1704993081.180448,402350,43.67295455932617
1704993090.88392,402750,43.67015075683594
1704993119.36013,403900,43.67200469970703
1704993120.612717,403950,43.67182922363281
1704993142.551114,404850,43.67150115966797
1704993173.809031,406150,43.68061447143555
1704993200.568578,407250,43.66853332519531
1704993224.018253,408200,43.6744499206543
1704993225.217035,408250,43.6754264831543
1704993259.010562,409650,43.67898178100586
1704993268.914375,410050,43.67632293701172
1704993288.958827,410850,43.67576599121094
1704993304.963705,411500,43.67265701293945
1704993337.006619,412800,43.669677734375
1704993363.759406,413900,43.66439437866211
1704993371.019483,414200,43.66202926635742
1704993380.592122,414600,43.66162109375
1704993386.773216,414850,43.66367721557617
1704993450.93812,417500,43.664363861083984
1704993454.642877,417650,43.662418365478516
1704993467.97277,418200,43.661800384521484
1704993485.116346,418900,43.65823745727539
1704993509.445711,419900,43.65436553955078
1704993526.358923,420600,43.64976119995117
1704993532.578247,420850,43.64963912963867
1704993582.792488,422900,43.65562057495117
1704993624.299517,424600,43.65702438354492
1704993640.038488,425250,43.659095764160156
1704993660.54737,426100,43.656856536865234
1704993671.648244,426550,43.65205764770508
1704993693.556418,427450,43.654541015625
1704993700.824539,427750,43.65542984008789
1704993711.833626,428200,43.65530776977539
1704993764.306129,430350,43.656578063964844
1704993778.921986,430950,43.66325759887695
1704993781.341192,431050,43.664329528808594
1704993789.727393,431400,43.6666145324707
1704993828.584852,433000,43.67051696777344
1704993833.453779,433200,43.66823196411133
1704993871.070629,434750,43.66721725463867
1704993878.307855,435050,43.66818618774414
1704993900.300337,435950,43.670555114746094
1704993907.702396,436250,43.67215347290039
1704993941.471519,437650,43.66766357421875
1704993943.896098,437750,43.66825485229492
1704993970.551435,438850,43.664695739746094
1704993972.938413,438950,43.6650505065918
1704993985.24152,439450,43.664451599121094
1704993998.499143,440000,43.66550827026367
1704995757.386597,441200,43.73447799682617
1704995769.73309,441700,43.70773696899414
1704995809.235003,443300,43.544071197509766
1704995815.288866,443550,43.5223388671875
1704995823.87101,443900,43.4918098449707
1704995837.299594,444450,43.4370002746582
1704995846.184333,444750,43.53523254394531
1704995878.103899,445900,43.56877136230469
1704995882.937189,446100,43.55939865112305
1704995961.430569,449300,43.568965911865234
1704995967.466499,449550,43.58317184448242
1704995987.271745,450350,43.57484436035156
1704996019.971503,451700,43.57855224609375
1704996039.701747,452500,43.56691360473633
1704996050.629686,452950,43.56471633911133
1704996065.265712,453550,43.595703125
1704996122.611347,455900,43.600894927978516
1704996127.584786,456100,43.59807586669922
1704996165.610685,457650,43.61586380004883
1704996211.496121,459550,43.62050247192383
1704996215.149004,459700,43.62590408325195
1704996227.384921,460200,43.62725830078125
1704996238.324435,460650,43.636104583740234
1704996250.578159,461150,43.63072204589844
1704996255.384251,461350,43.629722595214844
1704996286.961649,462650,43.617977142333984
1704996334.59666,464600,43.628726959228516
1704996349.196657,465200,43.62741470336914
1704996351.634959,465300,43.62697219848633
1704996360.13996,465650,43.6378173828125
1704996373.575132,466200,43.6541748046875
1704996378.633563,466400,43.65772247314453
1704996386.063553,466700,43.6588020324707
1704996389.675226,466850,43.662109375
1704996400.763183,467300,43.652503967285156
1704996409.30215,467650,43.650794982910156
1704996417.891224,468000,43.65825271606445
1704996425.149425,468300,43.65787887573242
1704996426.398147,468350,43.66211700439453
1704996433.704118,468650,43.65431213378906
1704996439.839732,468900,43.659339904785156
1704996451.96173,469400,43.6596794128418
1704996489.793491,470950,43.632606506347656
1704996517.810217,472100,43.64076614379883
1704996520.24284,472200,43.638301849365234
1704996536.010844,472850,43.63856887817383
1704996555.468018,473650,43.64015579223633
1704996575.088172,474450,43.6456413269043
1704996576.290456,474500,43.64680099487305
1704996577.505234,474550,43.6475715637207
1704996636.485182,476950,43.65180969238281
1704996647.466336,477400,43.64829635620117
1704996658.594479,477850,43.64480972290039
1704996670.678301,478350,43.64255905151367
1704996703.736411,479700,43.62606430053711
1704996713.369887,480100,43.625335693359375
1704996720.584308,480400,43.63013458251953
1704996736.516317,481050,43.63085174560547
1704996798.57642,483600,43.62131118774414
1704996799.78497,483650,43.622703552246094
1704996803.421436,483800,43.6246452331543
1704996824.026347,484650,43.625553131103516
1704996838.847764,485250,43.62760925292969
1704996840.089596,485300,43.63081741333008
1704996848.54464,485650,43.6296501159668
1704996877.869163,486850,43.63318634033203
1704996880.273038,486950,43.63465881347656
1704996898.582357,487700,43.6401252746582
1704996899.774736,487750,43.63825225830078
1704996921.562444,488650,43.64580535888672
1704996941.26483,489450,43.64833068847656
1704996953.5324,489950,43.647186279296875
1704996971.884428,490700,43.64454650878906
1704996985.16541,491250,43.64168167114258
1704997001.048775,491900,43.640785217285156
1704997017.195277,492550,43.64151382446289
1704997037.814691,493400,43.648590087890625
1704997046.162948,493750,43.6493034362793
1704997070.688803,494750,43.64483642578125
1704997082.919321,495250,43.640933990478516
1704997097.758624,495850,43.63584899902344
1704997098.999579,495900,43.63768005371094
1704997136.648636,497450,43.648250579833984
1704997137.848596,497500,43.64792251586914
1704997139.054528,497550,43.647647857666016
1704997150.95632,498050,43.64689636230469
1704997166.672515,498700,43.645225524902344
1704997173.956913,499000,43.64458084106445
1704997183.798391,499400,43.64128875732422
1704997191.019851,499700,43.64291000366211
1704997276.221009,503200,43.629146575927734
1704997309.059089,504550,43.62777328491211
1704997346.943985,506100,43.626976013183594
1704997353.12467,506350,43.62738800048828
1704997367.709539,506950,43.624794006347656
1704997429.820161,509500,43.62240982055664
1704997432.207708,509600,43.624061584472656
1704997452.997902,510450,43.62734603881836
1704997461.656748,510800,43.62617492675781
1704997473.781019,511300,43.626407623291016
1704997527.634985,513500,43.631690979003906
1704997541.073147,514050,43.63105392456055
1704997560.700364,514850,43.624019622802734
1704997616.875337,517150,43.62946701049805
1704997620.495256,517300,43.62961959838867
1704997621.711064,517350,43.62945556640625
1704997681.792543,519800,43.6361083984375
1704997742.474689,522300,43.636695861816406
1704997749.782086,522600,43.637298583984375
1704997751.02104,522650,43.63771438598633
1704997758.49143,522950,43.63768768310547
1704997810.456911,525100,43.64043045043945
1704997830.990764,525950,43.6399040222168
1704997871.026092,527600,43.63623809814453
1704997883.29014,528100,43.63936233520508
1704997897.806548,528700,43.639286041259766
1704999572.81391,529100,42.86260223388672
1704999591.09339,529850,43.453094482421875
1704999612.929561,530750,43.289512634277344
1704999636.415535,531700,43.34783172607422
1704999648.665222,532200,43.29572677612305
1704999651.101742,532300,43.281272888183594
1704999727.262105,535400,43.35969924926758
1704999739.44396,535900,43.37972640991211
1704999747.82895,536250,43.374305725097656
1704999753.997186,536500,43.36136245727539
1704999773.412903,537300,43.402870178222656
1704999781.948646,537650,43.40312957763672
1704999798.001219,538300,43.391815185546875
1704999805.367528,538600,43.417640686035156
1704999851.920709,540500,43.445213317871094
1704999892.685007,542150,43.471778869628906
1704999960.619324,544900,43.47228240966797
1704999965.470417,545100,43.47843551635742
1705000058.004206,548850,43.5166015625
1705000114.264416,551150,43.50139617919922
1705000115.483608,551200,43.500038146972656
1705000121.661279,551450,43.51203536987305
1705000131.514473,551850,43.51810836791992
1705000153.565402,552750,43.51036071777344
1705000202.77341,554750,43.537078857421875
1705000232.552807,555950,43.52629470825195
1705000239.846094,556250,43.525325775146484
1705000241.078032,556300,43.52733612060547
1705000250.885106,556700,43.53003692626953
1705000282.492136,558000,43.5372428894043
1705000295.95806,558550,43.530181884765625
1705000342.611233,560450,43.523563385009766
1705000347.62414,560650,43.51978302001953
1705000354.962247,560950,43.52162170410156
1705000363.435047,561300,43.51963424682617
1705000364.642012,561350,43.521053314208984
1705000379.186039,561950,43.52349853515625
1705000401.086157,562850,43.54172897338867
1705000435.304435,564250,43.544490814208984
1705000448.853713,564800,43.543067932128906
1705000491.357583,566550,43.537715911865234
1705000492.613466,566600,43.535709381103516
1705000502.375022,567000,43.53144454956055
1705000517.054171,567600,43.52328109741211
1705000532.445657,568250,43.52519989013672
1705000568.88499,569750,43.535953521728516
1705000581.257815,570250,43.5361442565918
1705000587.426882,570500,43.534278869628906
1705000628.713617,572200,43.540740966796875
1705000634.928542,572450,43.54621887207031
1705000637.328588,572550,43.54293441772461
1705000647.201214,572950,43.54444122314453
1705000651.779239,573100,43.542083740234375
1705000654.235579,573200,43.54256057739258
1705000684.566636,574450,43.54167175292969
1705000686.976466,574550,43.541744232177734
1705000702.861236,575200,43.54905319213867
1705000731.231485,576350,43.54811096191406
1705000732.432267,576400,43.54722213745117
1705000767.774007,577850,43.55023193359375
1705000784.706051,578550,43.55410385131836
1705000794.460073,578950,43.54833984375
1705000834.538825,580600,43.54982376098633
1705000873.470741,582200,43.55685043334961
1705000937.839095,584850,43.561092376708984
1705000958.487934,585700,43.56422424316406
1705000986.713461,586850,43.56294250488281
1705001003.666478,587550,43.558204650878906
1705001010.929294,587850,43.558509826660156
1705001021.738651,588300,43.561363220214844
1705001045.251471,589250,43.55796813964844
1705001047.659291,589350,43.55796813964844
1705001085.536271,590900,43.5513916015625
1705001087.999105,591000,43.551082611083984
1705001092.946398,591200,43.55218505859375
1705001109.018752,591850,43.54949188232422
1705001118.847488,592250,43.54867172241211
1705001122.478421,592400,43.55018615722656
1705001127.304638,592600,43.54966354370117
1705001146.752992,593400,43.54761505126953
1705001157.672166,593850,43.54905700683594
1705001164.923205,594150,43.54592514038086
1705001210.12052,596000,43.54201126098633
1705001216.253741,596250,43.54447937011719
1705001237.177986,597100,43.540794372558594
1705001254.36086,597800,43.54282760620117
1705001255.578548,597850,43.543487548828125
1705001272.877553,598550,43.5478630065918
1705001275.374802,598650,43.54788589477539
1705001281.518145,598900,43.547828674316406
1705001303.778039,599800,43.54704284667969
1705001324.429763,600650,43.54347229003906
1705001342.88081,601400,43.545875549316406
1705001379.287758,602900,43.53986358642578
1705001386.686918,603200,43.5431022644043
1705001392.85171,603450,43.5440559387207
1705001402.75942,603850,43.54518508911133
1705001474.640251,606800,43.549312591552734
1705001500.358276,607850,43.555728912353516
1705001515.114998,608450,43.55795669555664
1705001523.606417,608800,43.55565643310547
1705001528.462137,609000,43.55662155151367
1705001566.225429,610550,43.55625534057617
1705001596.853255,611800,43.558563232421875
1705001600.471695,611950,43.55825424194336
1705001610.193698,612350,43.55946350097656
1705001629.387653,613150,43.556968688964844
1705001640.438078,613600,43.55832290649414
1705001678.29894,615150,43.55828094482422
1705001680.696912,615250,43.55842590332031
1705001685.538854,615450,43.557579040527344
1705001695.191171,615850,43.558040618896484
1705001696.379665,615900,43.55808639526367
1705003462.465775,617300,43.584938049316406
1705003473.511491,617750,43.304656982421875
1705003479.530648,618000,43.34959411621094
1705003488.0612,618350,43.311988830566406
1705003492.981176,618550,43.28539276123047
1705003522.104325,619750,43.390567779541016
1705003526.953723,619950,43.34762191772461
1705003529.277277,620050,43.31760787963867
1705003554.974054,621100,43.33296203613281
1705003556.247013,621150,43.326324462890625
1705003557.506372,621200,43.31316375732422
1705003574.652729,621900,43.39714050292969
1705003582.222543,622200,43.4152717590332
1705003589.640513,622500,43.407108306884766
1705003622.682978,623850,43.38971710205078
1705003625.163004,623950,43.39798355102539
1705003627.60718,624050,43.38904571533203
1705003679.246682,626150,43.376644134521484
1705003718.261913,627750,43.42304229736328
1705003775.560184,630100,43.43824005126953
1705003825.679063,632150,43.444522857666016
1705003833.114981,632450,43.44772720336914
1705003839.328564,632700,43.440250396728516
1705003871.238841,634000,43.45793151855469
1705003906.690507,635450,43.46335983276367
1705003930.041616,636400,43.47842788696289
1705003997.463772,639150,43.486698150634766
1705004008.410979,639600,43.49900817871094
1705004077.082696,642400,43.5167350769043
1705004090.613202,642950,43.522125244140625
1705004143.303344,645100,43.515342712402344
1705004148.164556,645300,43.5092658996582
1705004168.947468,646150,43.5139274597168
1705004196.140253,647250,43.507965087890625
1705004230.442536,648650,43.523719787597656
1705004235.380923,648850,43.513023376464844
1705004237.799063,648950,43.51044464111328
1705004243.258264,649100,43.50819778442383
1705004263.083028,649900,43.500633239746094
1705004278.856739,650550,43.507423400878906
1705004288.597647,650950,43.52084732055664
1705004295.886267,651250,43.52815246582031
1705004300.747235,651450,43.530181884765625
1705004310.465726,651850,43.53565216064453
1705004311.677301,651900,43.53462600708008
1705004316.488873,652100,43.532657623291016
1705004324.805866,652400,43.52817153930664
1705004326.024027,652450,43.52587127685547
1705004374.631778,654450,43.51171875
1705004379.471333,654650,43.516780853271484
1705004496.155775,659450,43.51952362060547
1705004508.402858,659950,43.5208740234375
1705004523.162179,660550,43.52627944946289
1705004543.70091,661400,43.51926040649414
1705004552.130144,661750,43.521575927734375
1705004562.983869,662200,43.51716613769531
1705004571.523657,662550,43.516197204589844
1705004584.919001,663100,43.52274703979492
1705004626.357839,664800,43.524715423583984
1705004637.377598,665250,43.52663040161133
1705004692.270186,667500,43.52142333984375
1705004739.644785,669450,43.527862548828125
1705004756.727214,670150,43.53421401977539
1705004776.183594,670950,43.532737731933594
1705004821.788654,672800,43.533077239990234
1705004867.006911,674650,43.53559875488281
1705004903.451027,676150,43.53133773803711
1705004914.350975,676600,43.526702880859375
1705004915.600251,676650,43.52531433105469
1705004937.713397,677550,43.51788330078125
1705004947.610301,677950,43.51457977294922
1705004969.453398,678850,43.51776885986328
1705004983.986865,679450,43.51633071899414
1705004988.862934,679650,43.51581954956055
1705005026.493804,681200,43.51840591430664
1705005049.969418,682150,43.52113723754883
1705005052.383633,682250,43.52056121826172
1705005054.839489,682350,43.5189323425293
1705005056.117048,682400,43.51930618286133
1705005072.168434,683050,43.51605987548828
1705005123.435556,685150,43.51201248168945
1705005140.338395,685850,43.5140495300293
1705005164.735943,686850,43.51641845703125
1705005192.744456,688000,43.51803207397461
1705005219.730647,689100,43.5193977355957
1705005245.254049,690150,43.52193832397461
1705005280.493673,691600,43.52240753173828
1705005302.697725,692500,43.520896911621094
1705005324.773876,693400,43.5213623046875
1705005333.285039,693750,43.521175384521484
1705005352.879889,694550,43.523372650146484
1705005371.166432,695300,43.52559280395508
1705005384.439571,695850,43.527976989746094
1705005401.58192,696550,43.532230377197266
1705005451.24236,698600,43.53303146362305
1705005462.06482,699050,43.5346794128418
1705005493.558396,700350,43.536373138427734
1705005528.88087,701800,43.5308952331543
1705005542.146949,702350,43.53179168701172
1705005587.215447,704200,43.53042984008789
1705005610.340433,705150,43.52935791015625
1705007264.744182,705700,43.482147216796875
1705007268.381457,705850,43.467987060546875
1705007281.925402,706400,43.61500930786133
1705007289.240943,706700,43.42485809326172
1705007296.609175,707000,43.357521057128906
1705007297.824147,707050,43.35115432739258
1705007319.867612,707950,43.44285202026367
1705007343.27904,708900,43.36400604248047
1705007348.169974,709100,43.39455795288086
1705007356.731432,709450,43.389984130859375
1705007364.161323,709750,43.398799896240234
1705007379.074709,710350,43.4248046875
1705007382.779792,710500,43.393619537353516
1705007392.512101,710900,43.39266586303711
1705007399.837469,711200,43.39854049682617
1705007401.078849,711250,43.3958625793457
1705007442.405232,712950,43.346431732177734
1705007450.927197,713300,43.36768341064453
1705007494.995061,715100,43.42144012451172
1705007544.091277,717100,43.408653259277344
1705007553.831679,717500,43.403106689453125
1705007559.916124,717750,43.41450119018555
1705007568.341052,718100,43.42189025878906
1705007574.442157,718350,43.42920684814453
1705007575.700861,718400,43.431644439697266
1705007585.487712,718800,43.440494537353516
1705007601.187005,719450,43.454654693603516
1705007614.647007,720000,43.45424270629883
1705007615.907571,720050,43.45261001586914
1705007622.073899,720300,43.45512771606445
1705007639.227304,721000,43.449241638183594
1705007648.998874,721400,43.45891571044922
1705007650.213316,721450,43.45863342285156
1705007660.223337,721850,43.468849182128906
1705007731.009164,724750,43.48407745361328
1705007733.431186,724850,43.48703384399414
1705007780.993215,726800,43.46981430053711
1705007782.167446,726850,43.466190338134766
1705007796.884098,727450,43.481300354003906
1705007831.841586,728900,43.487422943115234
1705007888.089038,731200,43.510433197021484
1705007915.052655,732300,43.50199890136719
1705008008.243411,736150,43.48984146118164
1705008025.462859,736850,43.48942184448242
1705008036.566181,737300,43.481056213378906
1705008054.730399,738050,43.470951080322266
1705008075.752029,738900,43.48844909667969
1705008085.55113,739300,43.49681854248047
1705008116.072989,740550,43.49327087402344
1705008127.123433,741000,43.48899459838867
1705008152.705545,742050,43.477230072021484
1705008166.097572,742600,43.47248458862305
1705008182.224311,743250,43.47525405883789
1705008187.080005,743450,43.47077941894531
1705008224.767891,745000,43.4631462097168
1705008230.76973,745250,43.46563720703125
1705008238.00908,745550,43.46590805053711
1705008251.560049,746100,43.465240478515625
1705008256.462486,746300,43.46184539794922
1705008274.884584,747050,43.464813232421875
1705008292.058167,747750,43.4777946472168
1705008327.321397,749200,43.47529602050781
1705008371.218436,751000,43.47428894042969
1705008427.392008,753300,43.48428726196289
1705008428.614791,753350,43.48556900024414
1705008433.503399,753550,43.48817825317383
1705008467.471338,754950,43.48540496826172
1705008482.16162,755550,43.48082733154297
1705008494.26992,756050,43.48149108886719
1705008499.107615,756250,43.480960845947266
1705008516.402121,756950,43.48230743408203
1705008534.695253,757700,43.493247985839844
1705008562.752544,758850,43.49638748168945
1705008573.720579,759300,43.493465423583984
1705008590.928097,760000,43.48682403564453
1705008600.878686,760400,43.48685073852539
1705008736.845235,765950,43.47676086425781
1705008756.122709,766750,43.47744369506836
1705008773.157537,767450,43.48125076293945
1705008790.750799,768150,43.48130416870117
1705008801.767045,768600,43.47992706298828
1705008837.438167,770050,43.48252487182617
1705008849.756775,770550,43.47822952270508
1705008860.698058,771000,43.477352142333984
1705008880.254739,771800,43.47818374633789
1705008887.643192,772100,43.47731018066406
1705008906.140412,772850,43.479129791259766
1705008913.732917,773150,43.477684020996094
1705008914.992275,773200,43.47711181640625
1705008947.761643,774550,43.48128128051758
1705008950.237646,774650,43.48079299926758
1705008959.905012,775050,43.48019790649414
1705008995.238805,776500,43.480308532714844
1705009094.725864,780550,43.47357940673828
1705009122.623601,781700,43.471744537353516
1705009128.803845,781950,43.47244644165039
1705009165.194235,783450,43.47864532470703
1705009204.324179,785050,43.4810676574707
1705009219.082036,785650,43.48314666748047
1705009231.299143,786150,43.47962951660156
1705009264.230642,787500,43.48379898071289
1705009277.877803,788050,43.4830322265625
1705009305.833162,789200,43.48493576049805
1705009314.41984,789550,43.481414794921875
1705009318.080836,789700,43.48122787475586
1705009327.857101,790100,43.480712890625
1705009333.914631,790350,43.48258590698242
1705009343.65713,790750,43.482059478759766
1705009350.845897,791050,43.4820671081543
1705009364.274449,791600,43.48176193237305
1705009405.514314,793300,43.4826545715332
