%!PS-Adobe-3.0 EPSF-3.0
%%LanguageLevel: 3
%%Title: training_history.eps
%%Creator: Matplotlib v3.8.0, https://matplotlib.org/
%%CreationDate: Tue Jan 16 18:15:24 2024
%%Orientation: portrait
%%BoundingBox: 0 0 720 360
%%HiResBoundingBox: 0.000000 0.000000 720.000000 360.000000
%%EndComments
%%BeginProlog
/mpldict 10 dict def
mpldict begin
/_d { bind def } bind def
/m { moveto } _d
/l { lineto } _d
/r { rlineto } _d
/c { curveto } _d
/cl { closepath } _d
/ce { closepath eofill } _d
/sc { setcachedevice } _d
%!PS-Adobe-3.0 Resource-Font
%%Creator: Converted from TrueType to Type 3 by Matplotlib.
10 dict begin
/FontName /DejaVuSans def
/PaintType 0 def
/FontMatrix [0.00048828125 0 0 0.00048828125 0 0] def
/FontBBox [-2090 -948 3673 2524] def
/FontType 3 def
/Encoding [/space /slash /zero /one /two /three /four /five /six /eight /A /E /M /T /bracketleft /bracketright /a /c /d /e /g /h /i /l /m /n /o /p /r /s /t /x] def
/CharStrings 33 dict dup begin
/.notdef 0 def
/space{651 0 0 0 0 0 sc
ce} _d
/slash{690 0 0 -190 690 1493 sc
520 1493 m
690 1493 l
170 -190 l
0 -190 l
520 1493 l

ce} _d
/zero{1303 0 135 -29 1167 1520 sc
651 1360 m
547 1360 469 1309 416 1206 c
364 1104 338 950 338 745 c
338 540 364 387 416 284 c
469 182 547 131 651 131 c
756 131 834 182 886 284 c
939 387 965 540 965 745 c
965 950 939 1104 886 1206 c
834 1309 756 1360 651 1360 c

651 1520 m
818 1520 946 1454 1034 1321 c
1123 1189 1167 997 1167 745 c
1167 494 1123 302 1034 169 c
946 37 818 -29 651 -29 c
484 -29 356 37 267 169 c
179 302 135 494 135 745 c
135 997 179 1189 267 1321 c
356 1454 484 1520 651 1520 c

ce} _d
/one{1303 0 225 0 1114 1493 sc
254 170 m
584 170 l
584 1309 l
225 1237 l
225 1421 l
582 1493 l
784 1493 l
784 170 l
1114 170 l
1114 0 l
254 0 l
254 170 l

ce} _d
/two{1303 0 150 0 1098 1520 sc
393 170 m
1098 170 l
1098 0 l
150 0 l
150 170 l
227 249 331 356 463 489 c
596 623 679 709 713 748 c
778 821 823 882 848 932 c
874 983 887 1032 887 1081 c
887 1160 859 1225 803 1275 c
748 1325 675 1350 586 1350 c
523 1350 456 1339 385 1317 c
315 1295 240 1262 160 1217 c
160 1421 l
241 1454 317 1478 388 1495 c
459 1512 523 1520 582 1520 c
737 1520 860 1481 952 1404 c
1044 1327 1090 1223 1090 1094 c
1090 1033 1078 974 1055 919 c
1032 864 991 800 930 725 c
913 706 860 650 771 557 c
682 465 556 336 393 170 c

ce} _d
/three{1303 0 156 -29 1139 1520 sc
831 805 m
928 784 1003 741 1057 676 c
1112 611 1139 530 1139 434 c
1139 287 1088 173 987 92 c
886 11 742 -29 555 -29 c
492 -29 428 -23 361 -10 c
295 2 227 20 156 45 c
156 240 l
212 207 273 183 340 166 c
407 149 476 141 549 141 c
676 141 772 166 838 216 c
905 266 938 339 938 434 c
938 522 907 591 845 640 c
784 690 698 715 588 715 c
414 715 l
414 881 l
596 881 l
695 881 771 901 824 940 c
877 980 903 1037 903 1112 c
903 1189 876 1247 821 1288 c
767 1329 689 1350 588 1350 c
533 1350 473 1344 410 1332 c
347 1320 277 1301 201 1276 c
201 1456 l
278 1477 349 1493 416 1504 c
483 1515 547 1520 606 1520 c
759 1520 881 1485 970 1415 c
1059 1346 1104 1252 1104 1133 c
1104 1050 1080 980 1033 923 c
986 866 918 827 831 805 c

ce} _d
/four{1303 0 100 0 1188 1493 sc
774 1317 m
264 520 l
774 520 l
774 1317 l

721 1493 m
975 1493 l
975 520 l
1188 520 l
1188 352 l
975 352 l
975 0 l
774 0 l
774 352 l
100 352 l
100 547 l
721 1493 l

ce} _d
/five{1303 0 158 -29 1124 1493 sc
221 1493 m
1014 1493 l
1014 1323 l
406 1323 l
406 957 l
435 967 465 974 494 979 c
523 984 553 987 582 987 c
749 987 881 941 978 850 c
1075 759 1124 635 1124 479 c
1124 318 1074 193 974 104 c
874 15 733 -29 551 -29 c
488 -29 424 -24 359 -13 c
294 -2 227 14 158 35 c
158 238 l
218 205 280 181 344 165 c
408 149 476 141 547 141 c
662 141 754 171 821 232 c
888 293 922 375 922 479 c
922 583 888 665 821 726 c
754 787 662 817 547 817 c
493 817 439 811 385 799 c
332 787 277 768 221 743 c
221 1493 l

ce} _d
/six{1303 0 143 -29 1174 1520 sc
676 827 m
585 827 513 796 460 734 c
407 672 381 587 381 479 c
381 372 407 287 460 224 c
513 162 585 131 676 131 c
767 131 838 162 891 224 c
944 287 971 372 971 479 c
971 587 944 672 891 734 c
838 796 767 827 676 827 c

1077 1460 m
1077 1276 l
1026 1300 975 1318 923 1331 c
872 1344 821 1350 770 1350 c
637 1350 535 1305 464 1215 c
394 1125 354 989 344 807 c
383 865 433 909 492 940 c
551 971 617 987 688 987 c
838 987 956 941 1043 850 c
1130 759 1174 636 1174 479 c
1174 326 1129 203 1038 110 c
947 17 827 -29 676 -29 c
503 -29 371 37 280 169 c
189 302 143 494 143 745 c
143 981 199 1169 311 1309 c
423 1450 573 1520 762 1520 c
813 1520 864 1515 915 1505 c
967 1495 1021 1480 1077 1460 c

ce} _d
/eight{1303 0 139 -29 1163 1520 sc
651 709 m
555 709 479 683 424 632 c
369 581 342 510 342 420 c
342 330 369 259 424 208 c
479 157 555 131 651 131 c
747 131 823 157 878 208 c
933 260 961 331 961 420 c
961 510 933 581 878 632 c
823 683 748 709 651 709 c

449 795 m
362 816 295 857 246 916 c
198 975 174 1048 174 1133 c
174 1252 216 1347 301 1416 c
386 1485 503 1520 651 1520 c
800 1520 916 1485 1001 1416 c
1086 1347 1128 1252 1128 1133 c
1128 1048 1104 975 1055 916 c
1007 857 940 816 854 795 c
951 772 1027 728 1081 662 c
1136 596 1163 515 1163 420 c
1163 275 1119 164 1030 87 c
942 10 816 -29 651 -29 c
486 -29 360 10 271 87 c
183 164 139 275 139 420 c
139 515 166 596 221 662 c
276 728 352 772 449 795 c

375 1114 m
375 1037 399 976 447 933 c
496 890 564 868 651 868 c
738 868 805 890 854 933 c
903 976 928 1037 928 1114 c
928 1191 903 1252 854 1295 c
805 1338 738 1360 651 1360 c
564 1360 496 1338 447 1295 c
399 1252 375 1191 375 1114 c

ce} _d
/A{1401 0 16 0 1384 1493 sc
700 1294 m
426 551 l
975 551 l
700 1294 l

586 1493 m
815 1493 l
1384 0 l
1174 0 l
1038 383 l
365 383 l
229 0 l
16 0 l
586 1493 l

ce} _d
/E{1294 0 201 0 1163 1493 sc
201 1493 m
1145 1493 l
1145 1323 l
403 1323 l
403 881 l
1114 881 l
1114 711 l
403 711 l
403 170 l
1163 170 l
1163 0 l
201 0 l
201 1493 l

ce} _d
/M{1767 0 201 0 1567 1493 sc
201 1493 m
502 1493 l
883 477 l
1266 1493 l
1567 1493 l
1567 0 l
1370 0 l
1370 1311 l
985 287 l
782 287 l
397 1311 l
397 0 l
201 0 l
201 1493 l

ce} _d
/T{1251 0 -6 0 1257 1493 sc
-6 1493 m
1257 1493 l
1257 1323 l
727 1323 l
727 0 l
524 0 l
524 1323 l
-6 1323 l
-6 1493 l

ce} _d
/bracketleft{799 0 176 -270 600 1556 sc
176 1556 m
600 1556 l
600 1413 l
360 1413 l
360 -127 l
600 -127 l
600 -270 l
176 -270 l
176 1556 l

ce} _d
/bracketright{799 0 199 -270 623 1556 sc
623 1556 m
623 -270 l
199 -270 l
199 -127 l
438 -127 l
438 1413 l
199 1413 l
199 1556 l
623 1556 l

ce} _d
/a{1255 0 123 -29 1069 1147 sc
702 563 m
553 563 450 546 393 512 c
336 478 307 420 307 338 c
307 273 328 221 371 182 c
414 144 473 125 547 125 c
649 125 731 161 792 233 c
854 306 885 402 885 522 c
885 563 l
702 563 l

1069 639 m
1069 0 l
885 0 l
885 170 l
843 102 791 52 728 19 c
665 -13 589 -29 498 -29 c
383 -29 292 3 224 67 c
157 132 123 218 123 326 c
123 452 165 547 249 611 c
334 675 460 707 627 707 c
885 707 l
885 725 l
885 810 857 875 801 921 c
746 968 668 991 567 991 c
503 991 441 983 380 968 c
319 953 261 930 205 899 c
205 1069 l
272 1095 338 1114 401 1127 c
464 1140 526 1147 586 1147 c
748 1147 869 1105 949 1021 c
1029 937 1069 810 1069 639 c

ce} _d
/c{1126 0 113 -29 999 1147 sc
999 1077 m
999 905 l
947 934 895 955 842 969 c
790 984 737 991 684 991 c
565 991 472 953 406 877 c
340 802 307 696 307 559 c
307 422 340 316 406 240 c
472 165 565 127 684 127 c
737 127 790 134 842 148 c
895 163 947 184 999 213 c
999 43 l
948 19 894 1 839 -11 c
784 -23 726 -29 664 -29 c
495 -29 361 24 262 130 c
163 236 113 379 113 559 c
113 742 163 885 263 990 c
364 1095 501 1147 676 1147 c
733 1147 788 1141 842 1129 c
896 1118 948 1100 999 1077 c

ce} _d
/d{1300 0 113 -29 1114 1556 sc
930 950 m
930 1556 l
1114 1556 l
1114 0 l
930 0 l
930 168 l
891 101 842 52 783 19 c
724 -13 654 -29 571 -29 c
436 -29 325 25 240 133 c
155 241 113 383 113 559 c
113 735 155 877 240 985 c
325 1093 436 1147 571 1147 c
654 1147 724 1131 783 1098 c
842 1066 891 1017 930 950 c

303 559 m
303 424 331 317 386 240 c
442 163 519 125 616 125 c
713 125 790 163 846 240 c
902 317 930 424 930 559 c
930 694 902 800 846 877 c
790 954 713 993 616 993 c
519 993 442 954 386 877 c
331 800 303 694 303 559 c

ce} _d
/e{1260 0 113 -29 1151 1147 sc
1151 606 m
1151 516 l
305 516 l
313 389 351 293 419 226 c
488 160 583 127 705 127 c
776 127 844 136 910 153 c
977 170 1043 196 1108 231 c
1108 57 l
1042 29 974 8 905 -7 c
836 -22 765 -29 694 -29 c
515 -29 374 23 269 127 c
165 231 113 372 113 549 c
113 732 162 878 261 985 c
360 1093 494 1147 662 1147 c
813 1147 932 1098 1019 1001 c
1107 904 1151 773 1151 606 c

967 660 m
966 761 937 841 882 901 c
827 961 755 991 664 991 c
561 991 479 962 417 904 c
356 846 320 764 311 659 c
967 660 l

ce} _d
/g{1300 0 113 -426 1114 1147 sc
930 573 m
930 706 902 810 847 883 c
792 956 715 993 616 993 c
517 993 440 956 385 883 c
330 810 303 706 303 573 c
303 440 330 337 385 264 c
440 191 517 154 616 154 c
715 154 792 191 847 264 c
902 337 930 440 930 573 c

1114 139 m
1114 -52 1072 -193 987 -286 c
902 -379 773 -426 598 -426 c
533 -426 472 -421 415 -411 c
358 -402 302 -387 248 -367 c
248 -188 l
302 -217 355 -239 408 -253 c
461 -267 514 -274 569 -274 c
690 -274 780 -242 840 -179 c
900 -116 930 -21 930 106 c
930 197 l
892 131 843 82 784 49 c
725 16 654 0 571 0 c
434 0 323 52 239 157 c
155 262 113 400 113 573 c
113 746 155 885 239 990 c
323 1095 434 1147 571 1147 c
654 1147 725 1131 784 1098 c
843 1065 892 1016 930 950 c
930 1120 l
1114 1120 l
1114 139 l

ce} _d
/h{1298 0 186 0 1124 1556 sc
1124 676 m
1124 0 l
940 0 l
940 670 l
940 776 919 855 878 908 c
837 961 775 987 692 987 c
593 987 514 955 457 892 c
400 829 371 742 371 633 c
371 0 l
186 0 l
186 1556 l
371 1556 l
371 946 l
415 1013 467 1064 526 1097 c
586 1130 655 1147 733 1147 c
862 1147 959 1107 1025 1027 c
1091 948 1124 831 1124 676 c

ce} _d
/i{569 0 193 0 377 1556 sc
193 1120 m
377 1120 l
377 0 l
193 0 l
193 1120 l

193 1556 m
377 1556 l
377 1323 l
193 1323 l
193 1556 l

ce} _d
/l{569 0 193 0 377 1556 sc
193 1556 m
377 1556 l
377 0 l
193 0 l
193 1556 l

ce} _d
/m{1995 0 186 0 1821 1147 sc
1065 905 m
1111 988 1166 1049 1230 1088 c
1294 1127 1369 1147 1456 1147 c
1573 1147 1663 1106 1726 1024 c
1789 943 1821 827 1821 676 c
1821 0 l
1636 0 l
1636 670 l
1636 777 1617 857 1579 909 c
1541 961 1483 987 1405 987 c
1310 987 1234 955 1179 892 c
1124 829 1096 742 1096 633 c
1096 0 l
911 0 l
911 670 l
911 778 892 858 854 909 c
816 961 757 987 678 987 c
584 987 509 955 454 891 c
399 828 371 742 371 633 c
371 0 l
186 0 l
186 1120 l
371 1120 l
371 946 l
413 1015 463 1065 522 1098 c
581 1131 650 1147 731 1147 c
812 1147 881 1126 938 1085 c
995 1044 1038 984 1065 905 c

ce} _d
/n{1298 0 186 0 1124 1147 sc
1124 676 m
1124 0 l
940 0 l
940 670 l
940 776 919 855 878 908 c
837 961 775 987 692 987 c
593 987 514 955 457 892 c
400 829 371 742 371 633 c
371 0 l
186 0 l
186 1120 l
371 1120 l
371 946 l
415 1013 467 1064 526 1097 c
586 1130 655 1147 733 1147 c
862 1147 959 1107 1025 1027 c
1091 948 1124 831 1124 676 c

ce} _d
/o{1253 0 113 -29 1141 1147 sc
627 991 m
528 991 450 952 393 875 c
336 798 307 693 307 559 c
307 425 335 319 392 242 c
449 165 528 127 627 127 c
725 127 803 166 860 243 c
917 320 946 426 946 559 c
946 692 917 797 860 874 c
803 952 725 991 627 991 c

627 1147 m
787 1147 913 1095 1004 991 c
1095 887 1141 743 1141 559 c
1141 376 1095 232 1004 127 c
913 23 787 -29 627 -29 c
466 -29 340 23 249 127 c
158 232 113 376 113 559 c
113 743 158 887 249 991 c
340 1095 466 1147 627 1147 c

ce} _d
/p{1300 0 186 -426 1188 1147 sc
371 168 m
371 -426 l
186 -426 l
186 1120 l
371 1120 l
371 950 l
410 1017 458 1066 517 1098 c
576 1131 647 1147 729 1147 c
865 1147 975 1093 1060 985 c
1145 877 1188 735 1188 559 c
1188 383 1145 241 1060 133 c
975 25 865 -29 729 -29 c
647 -29 576 -13 517 19 c
458 52 410 101 371 168 c

997 559 m
997 694 969 800 913 877 c
858 954 781 993 684 993 c
587 993 510 954 454 877 c
399 800 371 694 371 559 c
371 424 399 317 454 240 c
510 163 587 125 684 125 c
781 125 858 163 913 240 c
969 317 997 424 997 559 c

ce} _d
/r{842 0 186 0 842 1147 sc
842 948 m
821 960 799 969 774 974 c
750 980 723 983 694 983 c
590 983 510 949 454 881 c
399 814 371 717 371 590 c
371 0 l
186 0 l
186 1120 l
371 1120 l
371 946 l
410 1014 460 1064 522 1097 c
584 1130 659 1147 748 1147 c
761 1147 775 1146 790 1144 c
805 1143 822 1140 841 1137 c
842 948 l

ce} _d
/s{1067 0 111 -29 967 1147 sc
907 1087 m
907 913 l
855 940 801 960 745 973 c
689 986 631 993 571 993 c
480 993 411 979 365 951 c
320 923 297 881 297 825 c
297 782 313 749 346 724 c
379 700 444 677 543 655 c
606 641 l
737 613 829 573 884 522 c
939 471 967 400 967 309 c
967 205 926 123 843 62 c
761 1 648 -29 504 -29 c
444 -29 381 -23 316 -11 c
251 0 183 18 111 41 c
111 231 l
179 196 246 169 312 151 c
378 134 443 125 508 125 c
595 125 661 140 708 169 c
755 199 778 241 778 295 c
778 345 761 383 727 410 c
694 437 620 462 506 487 c
442 502 l
328 526 246 563 195 612 c
144 662 119 730 119 817 c
119 922 156 1004 231 1061 c
306 1118 412 1147 549 1147 c
617 1147 681 1142 741 1132 c
801 1122 856 1107 907 1087 c

ce} _d
/t{803 0 55 0 754 1438 sc
375 1438 m
375 1120 l
754 1120 l
754 977 l
375 977 l
375 369 l
375 278 387 219 412 193 c
437 167 488 154 565 154 c
754 154 l
754 0 l
565 0 l
423 0 325 26 271 79 c
217 132 190 229 190 369 c
190 977 l
55 977 l
55 1120 l
190 1120 l
190 1438 l
375 1438 l

ce} _d
/x{1212 0 59 0 1145 1120 sc
1124 1120 m
719 575 l
1145 0 l
928 0 l
602 440 l
276 0 l
59 0 l
494 586 l
96 1120 l
313 1120 l
610 721 l
907 1120 l
1124 1120 l

ce} _d
end readonly def

/BuildGlyph {
 exch begin
 CharStrings exch
 2 copy known not {pop /.notdef} if
 true 3 1 roll get exec
 end
} _d

/BuildChar {
 1 index /Encoding get exch get
 1 index /BuildGlyph get exec
} _d

FontName currentdict end definefont pop
%!PS-Adobe-3.0 Resource-Font
%%Creator: Converted from TrueType to Type 3 by Matplotlib.
10 dict begin
/FontName /DejaVuSans-Oblique def
/PaintType 0 def
/FontMatrix [0.00048828125 0 0 0.00048828125 0 0] def
/FontBBox [-2080 -717 3398 2187] def
/FontType 3 def
/Encoding [/uni03BC] def
/CharStrings 2 dict dup begin
/.notdef 0 def
/uni03BC{1303 0 -27 -426 1212 1120 sc
-27 -426 m
274 1120 l
459 1120 l
323 423 l
320 409 318 393 316 376 c
314 359 313 341 313 324 c
313 262 332 214 371 181 c
410 148 466 131 539 131 c
638 131 717 159 778 215 c
839 271 880 355 901 467 c
1028 1120 l
1212 1120 l
1045 259 l
1042 246 1040 235 1039 226 c
1038 217 1038 208 1038 201 c
1038 180 1042 165 1050 155 c
1059 146 1072 141 1090 141 c
1097 141 1106 143 1117 146 c
1129 149 1146 155 1167 164 c
1139 16 l
1110 1 1082 -10 1055 -17 c
1028 -25 1002 -29 977 -29 c
933 -29 898 -15 873 13 c
848 41 836 80 836 129 c
799 76 754 36 702 10 c
651 -16 590 -29 520 -29 c
458 -29 404 -15 357 14 c
311 43 281 80 266 127 c
158 -426 l
-27 -426 l

ce} _d
end readonly def

/BuildGlyph {
 exch begin
 CharStrings exch
 2 copy known not {pop /.notdef} if
 true 3 1 roll get exec
 end
} _d

/BuildChar {
 1 index /Encoding get exch get
 1 index /BuildGlyph get exec
} _d

FontName currentdict end definefont pop
end
%%EndProlog
mpldict begin
0 0 translate
0 0 720 360 rectclip
gsave
0 0 m
720 0 l
720 360 l
0 360 l
cl
1 setgray
fill
grestore
gsave
83.81 65.72 m
709.2 65.72 l
709.2 325.92 l
83.81 325.92 l
cl
1 setgray
fill
grestore
1 setlinewidth
1 setlinejoin
0 setlinecap
[] 0 setdash
0.122 0.467 0.706 setrgbcolor
gsave
83.81 65.72 625.39 260.2 rectclip
/o {
gsave
newpath
translate
1.0 setlinewidth
1 setlinejoin

0 setlinecap

671.452914 101.454357 m
671.452914 101.421885 l
671.452914 101.454357 l
671.452914 101.454357 l
cl

gsave
0.122 0.467 0.706 setrgbcolor
fill
grestore
stroke
grestore
} bind def
0 0 o
grestore
0.8 setlinewidth
2 setlinecap
0.69 setgray
gsave
83.81 65.72 625.39 260.2 rectclip
112.236818 65.72 m
112.236818 325.92 l
stroke
grestore
0 setlinecap
0 setgray
gsave
/o {
gsave
newpath
translate
0.8 setlinewidth
1 setlinejoin

0 setlinecap

0 0 m
0 -3.5 l

gsave
0 setgray
fill
grestore
stroke
grestore
} bind def
112.237 65.72 o
grestore
/DejaVuSans 20.000 selectfont
gsave

105.877 43.5169 translate
0 rotate
0 0 m /zero glyphshow
grestore
2 setlinecap
0.69 setgray
gsave
83.81 65.72 625.39 260.2 rectclip
205.439501 65.72 m
205.439501 325.92 l
stroke
grestore
0 setlinecap
0 setgray
gsave
/o {
gsave
newpath
translate
0.8 setlinewidth
1 setlinejoin

0 setlinecap

0 0 m
0 -3.5 l

gsave
0 setgray
fill
grestore
stroke
grestore
} bind def
205.44 65.72 o
grestore
/DejaVuSans 20.000 selectfont
gsave

192.721 43.5169 translate
0 rotate
0 0 m /one glyphshow
12.7246 0 m /zero glyphshow
grestore
2 setlinecap
0.69 setgray
gsave
83.81 65.72 625.39 260.2 rectclip
298.642183 65.72 m
298.642183 325.92 l
stroke
grestore
0 setlinecap
0 setgray
gsave
/o {
gsave
newpath
translate
0.8 setlinewidth
1 setlinejoin

0 setlinecap

0 0 m
0 -3.5 l

gsave
0 setgray
fill
grestore
stroke
grestore
} bind def
298.642 65.72 o
grestore
/DejaVuSans 20.000 selectfont
gsave

285.923 43.5169 translate
0 rotate
0 0 m /two glyphshow
12.7246 0 m /zero glyphshow
grestore
2 setlinecap
0.69 setgray
gsave
83.81 65.72 625.39 260.2 rectclip
391.844866 65.72 m
391.844866 325.92 l
stroke
grestore
0 setlinecap
0 setgray
gsave
/o {
gsave
newpath
translate
0.8 setlinewidth
1 setlinejoin

0 setlinecap

0 0 m
0 -3.5 l

gsave
0 setgray
fill
grestore
stroke
grestore
} bind def
391.845 65.72 o
grestore
/DejaVuSans 20.000 selectfont
gsave

379.126 43.5169 translate
0 rotate
0 0 m /three glyphshow
12.7246 0 m /zero glyphshow
grestore
2 setlinecap
0.69 setgray
gsave
83.81 65.72 625.39 260.2 rectclip
485.047548 65.72 m
485.047548 325.92 l
stroke
grestore
0 setlinecap
0 setgray
gsave
/o {
gsave
newpath
translate
0.8 setlinewidth
1 setlinejoin

0 setlinecap

0 0 m
0 -3.5 l

gsave
0 setgray
fill
grestore
stroke
grestore
} bind def
485.048 65.72 o
grestore
/DejaVuSans 20.000 selectfont
gsave

472.329 43.5169 translate
0 rotate
0 0 m /four glyphshow
12.7246 0 m /zero glyphshow
grestore
2 setlinecap
0.69 setgray
gsave
83.81 65.72 625.39 260.2 rectclip
578.250231 65.72 m
578.250231 325.92 l
stroke
grestore
0 setlinecap
0 setgray
gsave
/o {
gsave
newpath
translate
0.8 setlinewidth
1 setlinejoin

0 setlinecap

0 0 m
0 -3.5 l

gsave
0 setgray
fill
grestore
stroke
grestore
} bind def
578.25 65.72 o
grestore
/DejaVuSans 20.000 selectfont
gsave

565.531 43.5169 translate
0 rotate
0 0 m /five glyphshow
12.7246 0 m /zero glyphshow
grestore
2 setlinecap
0.69 setgray
gsave
83.81 65.72 625.39 260.2 rectclip
671.452914 65.72 m
671.452914 325.92 l
stroke
grestore
0 setlinecap
0 setgray
gsave
/o {
gsave
newpath
translate
0.8 setlinewidth
1 setlinejoin

0 setlinecap

0 0 m
0 -3.5 l

gsave
0 setgray
fill
grestore
stroke
grestore
} bind def
671.453 65.72 o
grestore
/DejaVuSans 20.000 selectfont
gsave

658.734 43.5169 translate
0 rotate
0 0 m /six glyphshow
12.7246 0 m /zero glyphshow
grestore
/DejaVuSans 24.000 selectfont
gsave

359.747 17.1263 translate
0 rotate
0 0 m /E glyphshow
15.1641 0 m /p glyphshow
30.3984 0 m /o glyphshow
45.082 0 m /c glyphshow
58.2773 0 m /h glyphshow
grestore
2 setlinecap
0.69 setgray
gsave
83.81 65.72 625.39 260.2 rectclip
83.81 93.74486 m
709.2 93.74486 l
stroke
grestore
0 setlinecap
0 setgray
gsave
/o {
gsave
newpath
translate
0.8 setlinewidth
1 setlinejoin

0 setlinecap

-0 0 m
-3.5 0 l

gsave
0 setgray
fill
grestore
stroke
grestore
} bind def
83.81 93.7449 o
grestore
/DejaVuSans 20.000 selectfont
gsave

51.3725 86.1433 translate
0 rotate
0 0 m /four glyphshow
12.7246 0 m /zero glyphshow
grestore
2 setlinecap
0.69 setgray
gsave
83.81 65.72 625.39 260.2 rectclip
83.81 138.018908 m
709.2 138.018908 l
stroke
grestore
0 setlinecap
0 setgray
gsave
/o {
gsave
newpath
translate
0.8 setlinewidth
1 setlinejoin

0 setlinecap

-0 0 m
-3.5 0 l

gsave
0 setgray
fill
grestore
stroke
grestore
} bind def
83.81 138.019 o
grestore
/DejaVuSans 20.000 selectfont
gsave

51.3725 130.417 translate
0 rotate
0 0 m /six glyphshow
12.7246 0 m /zero glyphshow
grestore
2 setlinecap
0.69 setgray
gsave
83.81 65.72 625.39 260.2 rectclip
83.81 182.292955 m
709.2 182.292955 l
stroke
grestore
0 setlinecap
0 setgray
gsave
/o {
gsave
newpath
translate
0.8 setlinewidth
1 setlinejoin

0 setlinecap

-0 0 m
-3.5 0 l

gsave
0 setgray
fill
grestore
stroke
grestore
} bind def
83.81 182.293 o
grestore
/DejaVuSans 20.000 selectfont
gsave

51.3725 174.691 translate
0 rotate
0 0 m /eight glyphshow
12.7246 0 m /zero glyphshow
grestore
2 setlinecap
0.69 setgray
gsave
83.81 65.72 625.39 260.2 rectclip
83.81 226.567003 m
709.2 226.567003 l
stroke
grestore
0 setlinecap
0 setgray
gsave
/o {
gsave
newpath
translate
0.8 setlinewidth
1 setlinejoin

0 setlinecap

-0 0 m
-3.5 0 l

gsave
0 setgray
fill
grestore
stroke
grestore
} bind def
83.81 226.567 o
grestore
/DejaVuSans 20.000 selectfont
gsave

38.6538 218.965 translate
0 rotate
0 0 m /one glyphshow
12.7246 0 m /zero glyphshow
25.4492 0 m /zero glyphshow
grestore
2 setlinecap
0.69 setgray
gsave
83.81 65.72 625.39 260.2 rectclip
83.81 270.841051 m
709.2 270.841051 l
stroke
grestore
0 setlinecap
0 setgray
gsave
/o {
gsave
newpath
translate
0.8 setlinewidth
1 setlinejoin

0 setlinecap

-0 0 m
-3.5 0 l

gsave
0 setgray
fill
grestore
stroke
grestore
} bind def
83.81 270.841 o
grestore
/DejaVuSans 20.000 selectfont
gsave

38.6538 263.239 translate
0 rotate
0 0 m /one glyphshow
12.7246 0 m /two glyphshow
25.4492 0 m /zero glyphshow
grestore
2 setlinecap
0.69 setgray
gsave
83.81 65.72 625.39 260.2 rectclip
83.81 315.115099 m
709.2 315.115099 l
stroke
grestore
0 setlinecap
0 setgray
gsave
/o {
gsave
newpath
translate
0.8 setlinewidth
1 setlinejoin

0 setlinecap

-0 0 m
-3.5 0 l

gsave
0 setgray
fill
grestore
stroke
grestore
} bind def
83.81 315.115 o
grestore
/DejaVuSans 20.000 selectfont
gsave

38.6538 307.514 translate
0 rotate
0 0 m /one glyphshow
12.7246 0 m /four glyphshow
25.4492 0 m /zero glyphshow
grestore
/DejaVuSans 24.000 selectfont
gsave

29.6537 128.101 translate
90 rotate
0 0 m /M glyphshow
20.707 0 m /A glyphshow
37.125 0 m /E glyphshow
52.2891 0 m /space glyphshow
59.918 0 m /bracketleft glyphshow
69.2812 0 m /p glyphshow
84.5156 0 m /i glyphshow
91.1836 0 m /x glyphshow
104.637 0 m /e glyphshow
119.402 0 m /l glyphshow
126.07 0 m /bracketright glyphshow
grestore
1.5 setlinewidth
2 setlinecap
0.122 0.467 0.706 setrgbcolor
gsave
83.81 65.72 625.39 260.2 rectclip
112.236818 314.092727 m
112.497464 223.765117 l
112.762966 204.608329 l
113.121647 193.540071 l
113.577398 185.585997 l
114.270985 178.222504 l
114.592448 175.766881 l
115.526809 175.627511 l
116.252963 171.491394 l
116.954523 168.276567 l
117.817996 165.185302 l
118.415592 163.26135 l
122.510651 145.803575 l
122.540095 147.473639 l
122.615817 146.105875 l
122.756683 145.818336 l
122.768644 145.88781 l
122.880291 145.797123 l
123.056985 145.438962 l
123.113235 145.371101 l
127.158436 137.54737 l
127.782708 136.674248 l
131.978276 127.077462 l
132.031154 129.789624 l
132.122138 128.874778 l
132.193221 128.570975 l
132.240381 128.726887 l
132.282704 128.777698 l
132.402903 128.567639 l
132.459001 128.670959 l
132.48825 128.665917 l
132.522987 128.521168 l
132.581908 128.608494 l
132.619428 128.648792 l
132.646034 128.571355 l
132.751711 128.518069 l
132.991795 128.424646 l
134.966211 126.369289 l
136.992295 123.822109 l
137.13092 123.658638 l
140.214504 117.638125 l
140.214736 117.779699 l
140.321475 115.227376 l
140.408851 109.383558 l
140.457052 112.575357 l
140.588053 112.495783 l
151.243058 112.919719 l
151.467867 112.584063 l
151.525042 112.643302 l
152.068393 112.559549 l
152.764862 112.590017 l
153.171664 112.43396 l
153.269137 112.438014 l
153.914651 112.282363 l
154.820759 112.114509 l
155.312755 111.981397 l
156.424709 111.810098 l
161.085057 110.290053 l
162.191511 110.374541 l
163.354715 110.242501 l
163.871813 110.195422 l
165.843045 109.925482 l
170.035524 108.057789 l
170.321714 108.701884 l
170.550668 108.950206 l
170.617819 108.869282 l
171.859795 109.06903 l
172.542789 108.925421 l
173.542763 108.875032 l
174.570471 108.722768 l
175.440278 108.671931 l
179.38872 107.203339 l
179.463204 107.902679 l
179.472217 107.826525 l
179.595266 107.649408 l
179.620274 107.77807 l
180.051413 107.869812 l
182.712867 107.866493 l
184.654761 107.700574 l
188.684882 105.581274 l
189.020643 106.699238 l
189.153217 106.804128 l
189.359767 106.834622 l
189.650365 106.944571 l
190.78226 107.115886 l
191.400189 107.071789 l
192.747391 106.958538 l
192.851022 106.941227 l
198.052034 106.815393 l
198.188468 106.233045 l
198.592014 106.246641 l
198.753935 106.267482 l
199.780195 106.409774 l
200.668444 106.31451 l
201.560751 106.332539 l
202.060987 106.26798 l
202.760405 106.226087 l
203.462372 106.224389 l
207.375658 105.827637 l
207.528599 105.438594 l
207.772372 105.625295 l
209.15583 105.827696 l
210.006621 105.832239 l
210.261041 105.840253 l
211.968446 105.702884 l
212.706408 105.716936 l
216.802953 105.123171 l
216.890782 105.003139 l
217.062397 105.091571 l
217.068582 105.049686 l
217.776431 105.278408 l
222.079263 105.207271 l
226.108208 104.649285 l
226.167847 104.467557 l
226.201989 104.561132 l
226.25725 104.74492 l
226.442501 104.599605 l
226.952196 104.726705 l
227.630786 104.864918 l
228.790814 104.855992 l
229.310327 104.9097 l
230.111842 104.841231 l
231.227663 104.850604 l
231.321159 104.844397 l
235.31966 103.391132 l
235.468695 104.177848 l
235.471794 104.159354 l
236.109399 104.334428 l
237.049218 104.413866 l
237.994765 104.389512 l
240.713215 104.352558 l
244.568455 104.27334 l
244.571469 103.789497 l
244.617042 104.063972 l
244.688307 103.641362 l
244.768516 103.760879 l
244.984276 103.926942 l
245.124405 103.815076 l
245.798371 104.117756 l
246.058119 104.098646 l
246.106667 104.152995 l
249.877318 104.05948 l
253.689589 106.852102 l
253.775559 103.495524 l
253.910832 103.248941 l
253.937788 103.333624 l
254.155036 103.515707 l
254.50264 103.653278 l
255.752929 103.886526 l
256.70927 103.828182 l
257.273344 103.798559 l
257.814399 103.751294 l
258.68764 103.766182 l
258.983733 103.75702 l
262.86276 103.167966 l
262.886097 103.3135 l
262.903731 103.154826 l
262.977193 103.230954 l
263.055316 103.086898 l
263.0867 103.133107 l
263.498446 103.337061 l
263.710524 103.414549 l
264.47792 103.560539 l
264.79298 103.575216 l
267.049686 103.480298 l
267.432754 103.482637 l
284.025884 102.635373 l
285.254643 102.682266 l
285.367373 102.664921 l
288.387227 103.019924 l
288.748507 102.966833 l
295.478999 103.159631 l
304.940446 103.184416 l
309.940529 103.160906 l
319.017483 103.159978 l
335.159028 103.166742 l
381.122901 103.197607 l
381.550866 102.519395 l
382.756072 102.744537 l
387.114868 102.896278 l
415.353478 103.070887 l
421.402494 103.020422 l
439.318254 103.03846 l
505.898309 102.603571 l
506.384919 102.655953 l
507.63867 102.69289 l
515.227385 102.75266 l
516.854031 102.772007 l
518.695577 102.801741 l
559.933164 102.813935 l
561.886679 102.671001 l
561.930142 102.210872 l
562.137003 102.408154 l
562.1818 102.35329 l
562.228017 102.445539 l
562.39879 102.638169 l
562.410158 102.625274 l
562.627503 102.649239 l
564.457331 102.642864 l
568.110832 102.22467 l
568.112568 101.509066 l
568.121044 103.125557 l
568.214078 102.308457 l
568.247691 102.479309 l
568.323059 102.401407 l
568.473221 102.338292 l
568.496213 102.369715 l
568.623049 102.451509 l
568.655795 102.427467 l
568.739076 102.594915 l
568.753106 102.534857 l
568.851814 102.57084 l
569.069646 102.639317 l
569.192244 100.870206 l
569.210782 102.12966 l
569.300743 102.543074 l
569.217738 102.103541 l
569.318253 102.45525 l
569.365018 102.458358 l
569.365941 102.452708 l
577.78619 102.21734 l
577.838011 101.925723 l
577.90175 102.163641 l
578.011285 102.391924 l
578.028284 102.376166 l
578.033718 102.325136 l
578.090611 102.470036 l
578.120834 102.449533 l
578.247685 102.434738 l
578.249028 102.428134 l
579.394623 102.443622 l
588.31614 102.011824 l
588.352357 102.48153 l
588.501764 102.016561 l
588.552959 102.113345 l
588.839767 102.034523 l
589.425534 102.157637 l
589.515479 102.177743 l
589.897395 102.224045 l
590.420342 102.203989 l
590.893666 102.278462 l
592.055714 102.253382 l
592.716296 102.281553 l
596.445387 101.268808 l
596.573228 102.038019 l
596.603939 101.810167 l
596.635675 101.717352 l
596.681041 101.865251 l
596.885138 101.960937 l
597.132949 101.934623 l
600.401822 102.192572 l
601.814221 102.124669 l
602.446902 102.1757 l
604.478311 102.148213 l
607.116484 102.111681 l
609.177059 102.094463 l
611.860281 102.116089 l
612.251075 102.11283 l
630.921564 100.851848 l
631.1571 101.517899 l
631.225883 101.386788 l
631.245527 101.243078 l
631.283962 101.28932 l
631.357802 101.508213 l
631.731535 101.59374 l
631.806152 101.75944 l
632.247434 101.697625 l
632.913876 101.731218 l
635.149689 101.977471 l
635.187138 101.939918 l
635.195646 101.956267 l
636.638287 101.994166 l
638.334793 101.982808 l
639.385421 102.013445 l
644.397903 100.882856 l
644.726202 101.638125 l
644.767696 101.535202 l
644.853872 101.582585 l
645.30583 101.777385 l
645.502461 101.798361 l
645.633609 101.81748 l
645.639402 101.800286 l
646.603994 101.838118 l
646.902266 101.806088 l
647.003763 101.831624 l
647.974648 101.868434 l
648.713694 101.845009 l
649.587922 101.859204 l
653.888853 101.952686 l
654.050805 101.353356 l
654.072101 101.570813 l
654.14861 101.645058 l
654.160195 101.624309 l
656.770319 101.812801 l
657.499791 101.77871 l
658.989685 101.801156 l
663.025789 100.081809 l
663.070671 101.388984 l
663.124285 101.026862 l
663.181951 101.155963 l
663.21801 101.008622 l
663.811171 101.430345 l
664.451713 101.515754 l
664.768268 101.575263 l
665.005682 101.544837 l
665.176737 101.588158 l
665.959785 101.604017 l
666.583347 101.628658 l
667.518871 101.592845 l
668.239799 101.621404 l
671.452914 101.438326 l
671.452914 101.438326 l
stroke
grestore
1 0.498 0.055 setrgbcolor
gsave
83.81 65.72 625.39 260.2 rectclip
121.557086 126.721944 m
130.877355 109.029966 l
140.197623 96.390496 l
149.517891 90.805015 l
158.838159 88.666326 l
168.158428 86.049199 l
177.478696 85.045338 l
186.798964 83.85068 l
196.119232 82.468197 l
205.439501 82.551697 l
214.759769 82.541386 l
224.080037 83.103611 l
233.400306 81.609727 l
242.720574 81.210829 l
252.040842 82.2806 l
261.36111 80.767048 l
270.681379 80.934606 l
280.001647 79.929994 l
419.805671 80.043692 l
568.929963 78.932264 l
578.250231 78.199534 l
587.570499 80.979912 l
596.890768 79.380216 l
606.211036 77.547273 l
643.492109 79.771387 l
652.812377 78.470454 l
662.132645 79.091377 l
671.452914 79.129673 l
680.773182 78.939822 l
stroke
grestore
0.8 setlinewidth
0 setlinejoin
0 setgray
gsave
83.81 65.72 m
83.81 325.92 l
stroke
grestore
gsave
709.2 65.72 m
709.2 325.92 l
stroke
grestore
gsave
83.81 65.72 m
709.2 65.72 l
stroke
grestore
gsave
83.81 325.92 m
709.2 325.92 l
stroke
grestore
gsave
296.005 331.92 translate
0 rotate
/DejaVuSans 20.0 selectfont
0 0.796875 moveto
/one glyphshow
12.7246 0.796875 moveto
/zero glyphshow
25.4492 0.796875 moveto
/zero glyphshow
38.1738 0.796875 moveto
/space glyphshow
/DejaVuSans-Oblique 20.0 selectfont
44.5312 0.796875 moveto
/uni03BC glyphshow
/DejaVuSans 20.0 selectfont
57.2559 0.796875 moveto
/m glyphshow
76.7383 0.796875 moveto
/slash glyphshow
83.4766 0.796875 moveto
/p glyphshow
96.1719 0.796875 moveto
/i glyphshow
101.729 0.796875 moveto
/x glyphshow
113.564 0.796875 moveto
/e glyphshow
125.869 0.796875 moveto
/l glyphshow
131.426 0.796875 moveto
/space glyphshow
137.783 0.796875 moveto
/m glyphshow
157.266 0.796875 moveto
/o glyphshow
169.502 0.796875 moveto
/d glyphshow
182.197 0.796875 moveto
/e glyphshow
194.502 0.796875 moveto
/l glyphshow
grestore
1 setlinewidth
0 setlinecap
0.8 setgray
gsave
507.340625 251.20125 m
695.2 251.20125 l
697.866667 251.20125 699.2 252.534583 699.2 255.20125 c
699.2 311.92 l
699.2 314.586667 697.866667 315.92 695.2 315.92 c
507.340625 315.92 l
504.673958 315.92 503.340625 314.586667 503.340625 311.92 c
503.340625 255.20125 l
503.340625 252.534583 504.673958 251.20125 507.340625 251.20125 c
cl
gsave
1 setgray
fill
grestore
stroke
grestore
1.5 setlinewidth
1 setlinejoin
2 setlinecap
0.122 0.467 0.706 setrgbcolor
gsave
511.340625 299.716875 m
531.340625 299.716875 l
551.340625 299.716875 l
stroke
grestore
0 setgray
/DejaVuSans 20.000 selectfont
gsave

567.341 292.717 translate
0 rotate
0 0 m /T glyphshow
9.2168 0 m /r glyphshow
17.4395 0 m /a glyphshow
29.6953 0 m /i glyphshow
35.252 0 m /n glyphshow
47.9277 0 m /i glyphshow
53.4844 0 m /n glyphshow
66.1602 0 m /g glyphshow
78.8555 0 m /space glyphshow
85.2129 0 m /l glyphshow
90.7695 0 m /o glyphshow
103.006 0 m /s glyphshow
113.426 0 m /s glyphshow
grestore
1 0.498 0.055 setrgbcolor
gsave
511.340625 270.3575 m
531.340625 270.3575 l
551.340625 270.3575 l
stroke
grestore
0 setgray
/DejaVuSans 20.000 selectfont
gsave

567.341 263.358 translate
0 rotate
0 0 m /T glyphshow
8.8418 0 m /e glyphshow
21.1465 0 m /s glyphshow
31.5664 0 m /t glyphshow
39.4082 0 m /space glyphshow
45.7656 0 m /l glyphshow
51.3223 0 m /o glyphshow
63.5586 0 m /s glyphshow
73.9785 0 m /s glyphshow
grestore

end
showpage
