Wall time,Step,Value
1704980482.773285,950,12.38526439666748
1704980522.503698,2400,12.25500202178955
1704980542.745144,3150,12.339111328125
1704980544.113265,3200,12.341719627380371
1704980579.343841,4500,12.396466255187988
1704980598.708991,5200,12.433963775634766
1704980604.676635,5400,12.45136547088623
1704980633.834673,6450,12.464740753173828
1704980682.733537,8250,12.512048721313477
1704980693.713231,8650,12.513285636901855
1704980720.135626,9600,12.518587112426758
1704980736.56916,10200,12.510343551635742
1704980772.445382,11500,12.51962947845459
1704980792.977759,12250,12.517889022827148
1704980813.274701,13000,12.512545585632324
1704980846.029259,14150,12.510673522949219
1704980850.009723,14300,12.512304306030273
1704980892.387674,15850,12.500273704528809
1704980896.483847,16000,12.499611854553223
1704980960.967987,18350,12.495147705078125
1704980988.611035,19350,12.491972923278809
1704981010.303542,20150,12.503037452697754
1704981027.917296,20800,12.493544578552246
1704981057.619661,21900,12.487689971923828
1704981070.063185,22350,12.48731803894043
1704981096.072766,23300,12.489625930786133
1704981109.765121,23800,12.49094009399414
1704981118.392478,24100,12.490569114685059
1704981158.159051,25550,12.483817100524902
1704981190.539396,26700,12.4795503616333
1704981197.531179,26950,12.477205276489258
1704981200.25674,27050,12.476380348205566
1704981221.50947,27850,12.474332809448242
1704981229.733254,28150,12.468733787536621
1704981274.774244,29750,12.4633150100708
1704981277.413534,29850,12.464463233947754
1704981335.048389,31900,12.472203254699707
1704981343.171257,32200,12.472274780273438
1704981344.551148,32250,12.47188663482666
1704981364.513115,32950,12.467267036437988
1704981388.167288,33800,12.473155975341797
1704981453.631255,36100,12.47453498840332
1704981513.221015,38250,12.47651195526123
1704981527.97376,38800,12.477982521057129
1704981570.659341,40250,12.480650901794434
1704981644.297064,42900,12.484465599060059
1704981657.221494,43350,12.485494613647461
1704981685.687461,44350,12.482890129089355
1704981763.636628,47150,12.486124992370605
1704981844.484415,50000,12.48960018157959
1704981866.234423,50800,12.49097728729248
1704981875.957983,51150,12.491135597229004
1704981881.274392,51350,12.492552757263184
1704981896.412677,51900,12.490164756774902
1704981922.916205,52850,12.490939140319824
1704981943.299264,53600,12.497954368591309
1704981951.395218,53900,12.497861862182617
1704981995.236664,55500,12.497970581054688
1704981997.947486,55600,12.497397422790527
1704982017.232652,56300,12.493982315063477
1704982027.908217,56650,12.493717193603516
1704982054.372849,57600,12.49217700958252
1704982055.702724,57650,12.49224853515625
1704982072.396932,58250,12.492125511169434
1704982086.553281,58750,12.492671012878418
1704982089.447342,58850,12.49269962310791
1704982100.559648,59250,12.491035461425781
1704982147.610114,60950,12.490974426269531
1704982194.544591,62650,12.491036415100098
1704982197.413659,62750,12.490479469299316
1704982201.610704,62900,12.491965293884277
1704982207.428366,63100,12.49146842956543
1704982216.93218,63400,12.49053955078125
1704982232.57247,63600,12.489570617675781
1704982308.450532,66300,12.4876127243042
1704982334.709104,67300,12.48935604095459
1704982374.275632,68800,12.48630428314209
1704982375.523654,68850,12.486265182495117
1704982430.082976,70900,12.480045318603516
1704982483.373758,72900,12.478863716125488
1704982484.62153,72950,12.47923755645752
1704982533.351262,74750,12.475446701049805
1704982544.115265,75150,12.474993705749512
1704982554.636502,75550,12.475300788879395
1704982558.551003,75700,12.475419044494629
1704982605.398404,77450,12.472251892089844
1704982609.53954,77600,12.473057746887207
1704982629.575197,78300,12.471817970275879
1704982633.785973,78450,12.472793579101562
1704982658.000326,79300,12.471078872680664
1704982673.49765,79850,12.469767570495605
1704982721.790726,81400,12.463607788085938
1704982733.38455,81800,12.46313190460205
1704982783.068899,83550,12.458888053894043
1704982804.908688,84300,12.458930969238281
1704982836.370506,85150,12.45656967163086
1704982839.58159,85250,12.456894874572754
1704982852.116359,85600,12.45663833618164
1704982973.702003,88900,12.458963394165039
1704983097.460713,92400,12.455632209777832
1704983114.613077,93050,12.456965446472168
1704983125.627585,93400,12.456722259521484
1704983178.746574,95000,12.454463005065918
1704983183.747866,95150,12.454362869262695
1704983198.375982,95500,12.455123901367188
1704983244.518174,97050,12.4561767578125
1704983272.13556,98050,12.457056045532227
1704983273.561032,98100,12.45706558227539
1704983297.954972,99000,12.458160400390625
1704983423.016686,103550,12.458545684814453
1704983435.437257,104000,12.45808219909668
1704983449.223958,104500,12.459023475646973
1704983464.035335,105050,12.458684921264648
1704983617.222619,110500,12.463305473327637
1704983659.044626,112000,12.463558197021484
1704983771.516276,116000,12.456256866455078
1704983828.049595,118000,12.45660400390625
1704983877.439202,119750,12.455974578857422
1704983935.933456,121850,12.454594612121582
1704983942.692883,122100,12.4540433883667
1704983960.521621,122750,12.453079223632812
1704983971.275776,123150,12.454011917114258
1704983975.513135,123300,12.453624725341797
1704984003.374051,124300,12.452753067016602
1704984028.41951,125200,12.453088760375977
1704984048.381225,125900,12.454558372497559
1704984051.323298,126000,12.454424858093262
1704984067.051625,126550,12.454360008239746
1704984132.512535,128900,12.451565742492676
1704984133.955209,128950,12.45191764831543
1704984162.71887,130000,12.452102661132812
1704984202.225954,131400,12.450425148010254
1704984213.638213,131800,12.449501037597656
1704984225.474099,132200,12.448558807373047
1704984283.751332,134250,12.445109367370605
1704984296.619253,134700,12.443635940551758
1704984317.51396,135450,12.442658424377441
1704984329.90579,135900,12.44268798828125
1704984354.037787,136750,12.442696571350098
1704984362.596404,137050,12.44235897064209
1704984381.190894,137700,12.44172477722168
1704984382.589228,137750,12.44149398803711
1704984383.991485,137800,12.441081047058105
1704984397.85296,138300,12.440842628479004
1704984401.946935,138450,12.441415786743164
1704984426.004715,139300,12.441686630249023
1704984463.064164,140650,12.442418098449707
1704984493.476202,141750,12.441563606262207
1704984507.598196,142250,12.44166374206543
1704984530.791324,143100,12.442776679992676
1704984614.176168,146100,12.441117286682129
1704984657.201186,147650,12.441859245300293
1704984661.175051,147800,12.441597938537598
1704984670.884691,148150,12.44147777557373
1704984686.048964,148700,12.441889762878418
1704984769.724424,151750,12.439207077026367
1704984835.51228,154200,12.440176010131836
1704984836.967225,154250,12.439857482910156
1704984863.098279,155200,12.438748359680176
1704984864.547448,155250,12.438496589660645
1704984866.021283,155300,12.438376426696777
1704984885.44925,156000,12.439210891723633
1704984886.781023,156050,12.439289093017578
1704984888.111511,156100,12.43904972076416
1704984920.452131,157300,12.440048217773438
1704984958.956159,158700,12.439737319946289
1704984985.195701,159650,12.439653396606445
1704984994.716667,160000,12.439596176147461
1704985018.854906,160900,12.438982963562012
1704985022.947573,161050,12.439423561096191
1704985051.676988,162100,12.438773155212402
1704985084.745495,163300,12.438971519470215
1704985088.785004,163450,12.439034461975098
1704985141.707115,165350,12.438823699951172
1704985189.914264,167050,12.439225196838379
1704985212.924291,167850,12.440515518188477
1704985254.384205,169300,12.43840503692627
1704985281.697687,170250,12.439007759094238
1704985362.83326,173100,12.440670013427734
1704985394.744487,174200,12.441596031188965
1704985396.19465,174250,12.441494941711426
1704985406.053536,174600,12.441311836242676
1704985418.685769,175050,12.441600799560547
1704985455.856822,176350,12.440080642700195
1704985512.720862,178350,12.439064025878906
1704985517.040957,178500,12.43899154663086
1704985560.592023,180050,12.4384126663208
1704985579.72078,180700,12.438488960266113
1704985583.693555,180850,12.438374519348145
1704985637.960798,182750,12.438544273376465
1704985642.066838,182900,12.438314437866211
1704985644.987211,183000,12.438751220703125
1704985647.912797,183100,12.439226150512695
1704985652.145561,183250,12.439458847045898
1704985658.108593,183450,12.440083503723145
1704985662.420035,183600,12.440071105957031
1704985690.087158,184550,12.438652038574219
1704985721.493139,185650,12.439125061035156
1704985728.627879,185900,12.439558982849121
1704985789.995951,188100,12.437750816345215
1704985819.188179,189150,12.438673973083496
1704985914.139754,192450,12.438042640686035
1704985916.989497,192550,12.438068389892578
1704985979.032257,193500,12.437783241271973
1704986072.517306,195150,12.43578052520752
1704986094.711772,195600,12.435977935791016
1704986112.418886,195800,12.43600082397461
1704986129.739705,196100,12.43545913696289
1704986152.701022,196700,12.435009956359863
1704986157.137508,196850,12.434640884399414
1704986232.254606,198800,12.4332914352417
1704986303.091129,200650,12.433277130126953
1704986305.757578,200750,12.433111190795898
1704986324.266199,201200,12.43353271484375
1704986350.133922,201750,12.43379020690918
1704986358.727591,202050,12.433417320251465
1704986368.907061,202400,12.433712005615234
1704986456.352527,204250,12.432334899902344
1704986501.206977,205500,12.432076454162598
1704986515.12939,205800,12.432613372802734
1704986538.92909,206100,12.432222366333008
1704986546.400992,206250,12.432348251342773
1704986594.191607,207350,12.432915687561035
1704986668.28958,209100,12.43151569366455
1704986689.094788,209650,12.431595802307129
1704986757.036359,211400,12.430727005004883
1704986808.519202,212900,12.431087493896484
1704986915.970978,215950,12.430842399597168
1704986930.265401,216450,12.430903434753418
1704987070.820689,219800,12.430769920349121
1704987157.26615,222200,12.429468154907227
1704987174.05883,222750,12.430217742919922
1704987309.446896,226300,12.430506706237793
1704987324.429025,226800,12.430110931396484
1704987337.070844,227000,12.4298095703125
1704987388.327963,228250,12.429608345031738
1704987467.771296,230500,12.429333686828613
1704987472.054141,230650,12.429581642150879
1704995429.736122,232500,12.278511047363281
1704995443.836344,233000,12.37085247039795
1704995481.571597,234350,12.155790328979492
1704995487.010726,234550,12.21346664428711
1704995489.831169,234650,12.244906425476074
1704995497.980939,234950,12.260663986206055
1704995510.313028,235400,12.298384666442871
1704995542.216631,236550,12.321833610534668
1704995552.083146,236900,12.337526321411133
1704995605.924487,238850,12.407772064208984
1704995607.221149,238900,12.411519050598145
1704995648.143652,240400,12.44703197479248
1704995680.198229,241550,12.445716857910156
1704995683.060614,241650,12.448748588562012
1704995687.22902,241800,12.449176788330078
1704995688.688817,241850,12.450879096984863
1704995699.58304,242250,12.438237190246582
1704995751.223836,244150,12.451361656188965
1704995789.313234,245550,12.454689979553223
1704995815.875714,246500,12.439568519592285
1704995830.93542,247050,12.4302396774292
1704995843.541108,247500,12.431017875671387
1704995887.781853,249050,12.422014236450195
1704995902.98964,249600,12.428230285644531
1704995980.404534,252400,12.427642822265625
1704996006.504004,253350,12.422221183776855
1704996024.325699,254000,12.419513702392578
1704996036.703723,254450,12.419177055358887
1704996039.568579,254550,12.420426368713379
1704996099.505425,256650,12.421503067016602
1704996105.033487,256850,12.420753479003906
1704996110.795513,257050,12.420053482055664
1704996126.08791,257600,12.416654586791992
1704996130.249902,257750,12.416518211364746
1704996131.740124,257800,12.416247367858887
1704996176.733718,259400,12.411462783813477
1704996194.712308,260050,12.402276992797852
1704996220.513243,260950,12.402436256408691
1704996230.706796,261300,12.399702072143555
1704996249.309552,261950,12.398529052734375
1704996270.576454,262700,12.402315139770508
1704996283.307527,263150,12.404948234558105
1704996287.59065,263300,12.40540599822998
1704996328.480514,264800,12.406119346618652
1704996361.579691,266000,12.409467697143555
1704996365.830466,266150,12.407319068908691
1704996368.563706,266250,12.408828735351562
1704996374.247297,266450,12.40930461883545
1704996422.310839,268150,12.408917427062988
1704996433.451304,268550,12.411338806152344
1704996479.426671,270200,12.410675048828125
1704996537.627022,272300,12.413663864135742
1704996549.728479,272750,12.414763450622559
1704996556.806379,273000,12.413812637329102
1704996619.896256,275250,12.4185209274292
1704996627.495531,275500,12.417682647705078
1704996644.159091,276100,12.420320510864258
1704996707.454059,278400,12.421277046203613
1704996848.680578,283400,12.42794418334961
1704996938.028478,286550,12.4331693649292
1704996976.974688,287950,12.43187427520752
1704997010.387827,289100,12.429337501525879
1704997083.669079,291650,12.427898406982422
1704997133.159602,293350,12.427165985107422
1704997151.154506,294000,12.428984642028809
1704997245.97914,297450,12.423689842224121
1704997257.054167,297850,12.426424980163574
1704997267.740712,298250,12.424643516540527
1704997290.950624,299100,12.426076889038086
1704997312.88274,299900,12.423067092895508
1704997329.773309,300500,12.424260139465332
1704997379.594392,302300,12.418384552001953
1704997390.981314,302700,12.417916297912598
1704997425.750055,303950,12.416434288024902
1704997470.196067,305600,12.4125394821167
1704997472.859186,305700,12.413164138793945
1704997500.111266,306700,12.413799285888672
1704997506.823386,306950,12.412493705749512
1704997509.415226,307050,12.412483215332031
1704997512.127886,307150,12.412006378173828
1704997624.270785,311300,12.409664154052734
1704997648.868751,312200,12.407011985778809
1704997698.390602,314000,12.400482177734375
1704997701.15225,314100,12.40029525756836
1704997728.028471,315050,12.39759635925293
1704997771.508777,316650,12.398476600646973
1704997774.029267,316750,12.397449493408203
1704997806.899583,317950,12.394671440124512
1704997808.259304,318000,12.39470100402832
1704997815.362691,318250,12.393377304077148
1704997822.25029,318500,12.395109176635742
1704997968.266398,323700,12.395586967468262
1704997993.014878,324600,12.395023345947266
1704998044.355233,326450,12.39509105682373
1704998048.485085,326600,12.39411449432373
1704998068.830479,327350,12.39348316192627
1704998075.856772,327600,12.394275665283203
1704998093.259091,328250,12.3961820602417
1704998100.168822,328500,12.395639419555664
1704998121.275217,329300,12.396358489990234
1704998128.100077,329550,12.396052360534668
1704998135.056267,329800,12.396585464477539
1704998140.434521,330000,12.396464347839355
1704998161.670049,330800,12.397601127624512
1704998208.234498,332500,12.394681930541992
1704998241.306779,333700,12.393930435180664
1704998308.094652,336050,12.396455764770508
1704998321.895139,336550,12.397662162780762
1704998327.423932,336750,12.39712142944336
1704998349.123528,337550,12.397804260253906
1704998363.845677,338100,12.398382186889648
1704998399.780109,339300,12.400232315063477
1704998424.176424,340150,12.399845123291016
1704998480.003816,342150,12.399599075317383
1704998491.143083,342550,12.401182174682617
1704998504.22687,343000,12.401328086853027
1704998526.807738,343800,12.400776863098145
1704998584.372211,345850,12.400025367736816
1704998588.561073,346000,12.399458885192871
1704998603.547317,346550,12.398091316223145
1704998666.350667,348800,12.39451789855957
1704998689.060243,349600,12.394893646240234
1704998696.193678,349850,12.39465618133545
1704998698.888741,349950,12.394515037536621
1704998727.270256,350950,12.39395523071289
1704998743.675622,351500,12.393519401550293
1704998778.978714,352750,12.392423629760742
1704998868.226812,355900,12.39081859588623
1704998872.409814,356050,12.390698432922363
1704998881.159692,356350,12.390067100524902
1704998934.014527,358250,12.39189624786377
1704998953.513199,358950,12.391935348510742
1704998956.243545,359050,12.391555786132812
1704998994.69928,360400,12.389657020568848
1704999019.568686,361300,12.389089584350586
1704999057.711639,362700,12.38871955871582
1704999087.516456,363750,12.38718318939209
1704999135.419942,365450,12.383301734924316
1704999171.503227,366750,12.381095886230469
1704999177.108535,366950,12.381256103515625
1704999197.771347,367700,12.380423545837402
1704999217.103852,368400,12.379941940307617
1704999296.295295,371250,12.379416465759277
1704999311.227639,371800,12.379278182983398
1704999312.556553,371850,12.379599571228027
1704999351.115844,373250,12.379454612731934
1704999356.77914,373450,12.379146575927734
1704999359.435637,373550,12.379257202148438
1704999376.415728,374150,12.3790922164917
1704999409.058673,375350,12.379592895507812
1704999425.464013,375950,12.380072593688965
1704999436.357538,376350,12.379039764404297
1704999444.349904,376650,12.379133224487305
1704999459.050675,377200,12.379630088806152
1704999470.38429,377600,12.378373146057129
1704999473.148785,377700,12.378410339355469
1704999532.357198,379700,12.379565238952637
1704999544.550094,380150,12.379249572753906
1704999547.291808,380250,12.379583358764648
1704999551.349511,380400,12.3795747756958
1704999594.612926,381950,12.378764152526855
1704999603.008634,382250,12.379417419433594
1704999625.324488,383050,12.37861442565918
1704999719.124636,386400,12.37801742553711
1704999723.427392,386550,12.377854347229004
1704999760.425778,387850,12.377161979675293
1704999767.322268,388100,12.377690315246582
1704999813.371891,389750,12.378219604492188
1704999814.852933,389800,12.377979278564453
1704999852.25521,391100,12.378470420837402
1704999875.431814,391950,12.378144264221191
1704999881.012352,392150,12.377642631530762
1704999892.420383,392550,12.37717342376709
1704999899.253758,392800,12.3781099319458
1704999900.585514,392850,12.378181457519531
1704999908.659982,393150,12.37784481048584
1704999954.414671,394800,12.377339363098145
1704999962.698951,395100,12.377642631530762
1704999997.80912,396350,12.377016067504883
1705000002.126126,396500,12.377456665039062
1705000082.544966,399350,12.377856254577637
1705000166.231974,402350,12.377287864685059
1705000177.252936,402750,12.377298355102539
1705000212.848404,403950,12.378355026245117
1705000237.800597,404850,12.37898063659668
1705000274.639862,406150,12.380386352539062
1705000305.666472,407250,12.380145072937012
1705000333.37415,408200,12.379417419433594
1705000334.791284,408250,12.379183769226074
1705000373.753915,409650,12.379064559936523
1705000407.63553,410850,12.377029418945312
1705000425.923852,411500,12.376352310180664
1705000461.728326,412800,12.376287460327148
1705000492.41217,413900,12.37569522857666
1705000500.872794,414200,12.375892639160156
1705000511.89505,414600,12.375900268554688
1705000518.993453,414850,12.376019477844238
1705000599.152315,417650,12.376728057861328
1705000614.425558,418200,12.376837730407715
1705000634.677755,418900,12.37649154663086
1705000661.89101,419900,12.376553535461426
1705000681.105652,420600,12.375773429870605
1705000687.966973,420850,12.376548767089844
1705000794.84522,424600,12.375396728515625
1705000837.44044,426100,12.375438690185547
1705000850.019398,426550,12.37449836730957
1705000875.762672,427450,12.373282432556152
1705000884.147783,427750,12.373286247253418
1705000896.836036,428200,12.37255859375
1705000973.287613,430950,12.371101379394531
1705000975.858382,431050,12.37125015258789
1705000985.805403,431400,12.371506690979004
1705001030.297054,433000,12.371350288391113
1705001035.936395,433200,12.371359825134277
1705001079.160983,434750,12.371578216552734
1705001087.543144,435050,12.370842933654785
1705001113.449754,435950,12.371049880981445
1705001121.783983,436250,12.370656967163086
1705001159.840342,437650,12.370658874511719
1705001162.901217,437750,12.370865821838379
1705001193.678759,438850,12.370489120483398
1705001196.471385,438950,12.3704195022583
1705001209.748798,439450,12.371230125427246
1705001224.66362,440000,12.370534896850586
1705001257.265165,441200,12.36992359161377
1705001271.350833,441700,12.369893074035645
1705001317.58633,443300,12.369128227233887
1705001324.61647,443550,12.369513511657715
1705001334.609856,443900,12.369413375854492
1705001349.697395,444450,12.369157791137695
1705001389.87384,445900,12.368901252746582
1705001395.236381,446100,12.36862564086914
1705001483.811855,449300,12.371235847473145
1705001490.640787,449550,12.371369361877441
1705001512.801621,450350,12.371821403503418
1705001550.488716,451700,12.369890213012695
1705001572.917563,452500,12.370028495788574
1705001585.502732,452950,12.369670867919922
1705001602.822236,453550,12.3687105178833
1705001666.72264,455900,12.369267463684082
1705001672.115205,456100,12.369026184082031
1705001714.268009,457650,12.36944580078125
1705001766.623927,459550,12.36910343170166
1705001785.309363,460200,12.368561744689941
1705001797.844202,460650,12.368985176086426
1705001812.127345,461150,12.369104385375977
1705001817.740312,461350,12.36937427520752
1705001857.472904,462650,12.368414878845215
1705009253.793049,464600,12.305078506469727
1705009271.353325,465200,12.26773738861084
1705009274.223992,465300,12.246350288391113
1705009284.267728,465650,12.2547607421875
1705009306.922753,466400,12.086564064025879
1705009332.818975,467300,12.227203369140625
1705009354.586113,468000,12.257210731506348
1705009363.498834,468300,12.247092247009277
1705009374.390479,468650,12.279402732849121
1705009381.931843,468900,12.292009353637695
1705009397.346089,469400,12.326772689819336
1705009478.88471,472100,12.381965637207031
1705009482.290297,472200,12.390185356140137
1705009503.242143,472850,12.38708782196045
1705009550.912382,474450,12.38733196258545
1705009553.860507,474550,12.388296127319336
1705009626.799268,476950,12.38801097869873
1705009640.227338,477400,12.395126342773438
1705009653.577498,477850,12.387580871582031
1705009668.785209,478350,12.379096031188965
1705009708.726683,479700,12.373588562011719
1705009720.965705,480100,12.373069763183594
1705009729.838503,480400,12.371393203735352
1705009827.38202,483600,12.369908332824707
1705009828.919206,483650,12.368814468383789
1705009859.241898,484650,12.37442398071289
1705009877.491656,485250,12.365042686462402
1705009888.785096,485650,12.368083000183105
1705009924.323033,486850,12.362283706665039
1705009949.292899,487700,12.371087074279785
1705009950.67105,487750,12.369816780090332
1705009978.054018,488650,12.36613941192627
1705010040.055259,490700,12.358993530273438
1705010056.574493,491250,12.357111930847168
1705010075.961084,491900,12.354584693908691
1705010095.411128,492550,12.347378730773926
1705010120.935147,493400,12.344985008239746
1705010161.440173,494750,12.346524238586426
1705010175.695644,495250,12.348882675170898
1705010193.572889,495850,12.352945327758789
1705010194.992369,495900,12.35278606414795
1705010242.43916,497450,12.34894847869873
1705010244.026062,497500,12.348654747009277
1705010245.570301,497550,12.350016593933105
1705010260.441222,498050,12.35244369506836
1705010279.625481,498700,12.353850364685059
1705010288.530925,499000,12.351757049560547
1705010300.657668,499400,12.351195335388184
1705010309.860584,499700,12.349333763122559
1705010418.730753,503200,12.351775169372559
1705010460.188239,504550,12.354175567626953
1705010506.97642,506100,12.361807823181152
1705010514.580727,506350,12.363433837890625
1705010532.188937,506950,12.35953140258789
1705010612.595591,509600,12.361974716186523
1705010639.318436,510450,12.364246368408203
1705010649.607926,510800,12.365854263305664
1705010729.991232,513500,12.362690925598145
1705010746.539202,514050,12.366755485534668
1705010840.192921,517150,12.367411613464355
1705010844.5665,517300,12.369216918945312
1705010846.132057,517350,12.369680404663086
1705010920.188412,519800,12.373162269592285
1705010996.184219,522300,12.368577003479004
1705011005.258145,522600,12.36955451965332
1705011006.834846,522650,12.36965560913086
1705011016.024715,522950,12.369758605957031
1705011081.314571,525100,12.3666353225708
1705011106.85782,525950,12.368267059326172
1705011155.583101,527600,12.367522239685059
1705011170.808079,528100,12.366084098815918
1705011188.94243,528700,12.367228507995605
1705011223.657939,529850,12.367667198181152
1705011250.858403,530750,12.365036010742188
1705011278.398551,531700,12.365715026855469
1705011293.145963,532200,12.365516662597656
1705011296.026627,532300,12.365081787109375
1705011387.313342,535400,12.358293533325195
1705011402.214389,535900,12.356348037719727
1705011412.440806,536250,12.357890129089355
1705011419.673538,536500,12.359156608581543
1705011443.036765,537300,12.354978561401367
1705011453.054036,537650,12.3537015914917
1705011472.818085,538300,12.35409927368164
1705011482.001682,538600,12.354442596435547
1705011594.044507,542150,12.350431442260742
1705011677.004596,544900,12.343663215637207
1705011683.015968,545100,12.342365264892578
1705011797.656582,548850,12.336701393127441
1705011866.198646,551150,12.334485054016113
1705011867.717017,551200,12.334208488464355
1705011874.628394,551450,12.334402084350586
1705011886.834855,551850,12.334634780883789
1705011913.225068,552750,12.33464241027832
1705011973.001934,554750,12.335230827331543
1705012009.191401,555950,12.33534049987793
1705012018.235867,556250,12.33458423614502
1705012019.707175,556300,12.3347749710083
1705012071.32279,558000,12.332965850830078
1705012088.478279,558550,12.333456993103027
1705012144.488292,560450,12.334797859191895
1705012150.310118,560650,12.33440113067627
1705012159.069324,560950,12.33470630645752
1705012169.427759,561300,12.33452320098877
1705012170.88495,561350,12.335004806518555
1705012215.657469,562850,12.335891723632812
1705012327.783596,566550,12.334234237670898
1705012329.212661,566600,12.33407211303711
1705012341.756582,567000,12.334726333618164
1705012380.177011,568250,12.33482837677002
1705012425.512521,569750,12.335930824279785
1705012440.828831,570250,12.336831092834473
1705012448.977262,570500,12.338361740112305
1705012499.562816,572200,12.338356018066406
1705012506.940756,572450,12.337540626525879
1705012509.994738,572550,12.337841987609863
1705012526.64198,573100,12.338927268981934
1705012529.582431,573200,12.338906288146973
1705012623.133359,576350,12.339152336120605
1705012693.475683,578550,12.336751937866211
1705012705.365754,578950,12.335346221923828
1705012761.266818,580600,12.332893371582031
1705012889.148624,584850,12.331433296203613
1705012915.620154,585700,12.330950736999512
1705012950.203326,586850,12.32988452911377
1705012970.643344,587550,12.330645561218262
1705012980.187758,587850,12.32939624786377
1705012993.759247,588300,12.329363822937012
1705013025.206798,589350,12.330378532409668
1705013070.819983,590900,12.331269264221191
1705013073.858305,591000,12.331501007080078
1705013079.890381,591200,12.330678939819336
1705013098.858117,591850,12.329168319702148
1705013110.884243,592250,12.329793930053711
1705013115.226011,592400,12.329106330871582
1705013121.32735,592600,12.3289155960083
1705013145.500257,593400,12.329084396362305
1705013158.926941,593850,12.328736305236816
1705013167.989662,594150,12.329147338867188
1705013223.128462,596000,12.326264381408691
1705013256.67605,597100,12.32381534576416
1705013278.261536,597800,12.322200775146484
1705013300.989333,598550,12.321894645690918
1705013304.348612,598650,12.321821212768555
1705013312.055845,598900,12.320514678955078
1705013362.368164,600650,12.319777488708496
1705013384.920752,601400,12.31918716430664
1705013429.479033,602900,12.319448471069336
1705013437.962644,603200,12.319900512695312
1705013445.264915,603450,12.319565773010254
1705013457.506367,603850,12.31943130493164
1705013544.56987,606800,12.32030963897705
1705013604.030493,608800,12.320161819458008
1705013609.884849,609000,12.32044792175293
1705013656.705943,610550,12.320116996765137
1705013693.488482,611800,12.32114315032959
1705013710.239651,612350,12.321002960205078
1705013734.97909,613150,12.321650505065918
1705013748.417545,613600,12.32103157043457
1705013795.616116,615150,12.31950569152832
1705013798.300165,615250,12.31934928894043
1705013804.159255,615450,12.319191932678223
1705013815.774225,615850,12.318398475646973
1705013862.0383,617300,12.31851577758789
1705013874.689952,617750,12.318440437316895
1705013882.056711,618000,12.318906784057617
1705013893.183147,618350,12.319366455078125
1705013899.413386,618550,12.318854331970215
1705013936.997058,619750,12.317376136779785
1705013943.012321,619950,12.318352699279785
1705013946.043217,620050,12.318086624145508
1705013977.725761,621100,12.318744659423828
1705013979.259998,621150,12.318793296813965
1705014001.733946,621900,12.318833351135254
1705014010.615304,622200,12.319061279296875
1705014019.883897,622500,12.318581581115723
1705014060.108777,623850,12.319029808044434
1705014062.921937,623950,12.31888198852539
1705014065.841404,624050,12.319133758544922
1705014128.489351,626150,12.318119049072266
1705014176.483517,627750,12.318089485168457
1705014246.289237,630100,12.317051887512207
1705014316.626538,632450,12.319390296936035
1705014324.028346,632700,12.319259643554688
1705014362.788983,634000,12.318449020385742
1705014406.040886,635450,12.318552017211914
1705014517.902993,639150,12.321489334106445
1705014531.41214,639600,12.321958541870117
1705014616.429061,642400,12.319464683532715
1705014633.585959,642950,12.318986892700195
1705014697.046757,645100,12.318375587463379
1705014703.321651,645300,12.317914009094238
1705014728.847714,646150,12.318366050720215
1705014760.910468,647250,12.31875228881836
1705014802.431951,648650,12.318053245544434
1705014808.549962,648850,12.317953109741211
1705014816.029452,649100,12.31811809539795
1705014840.02181,649900,12.319022178649902
1705014859.530954,650550,12.317960739135742
1705014879.888452,651250,12.317940711975098
1705014885.669708,651450,12.318229675292969
1705014896.790251,651850,12.317699432373047
1705014898.262403,651900,12.317769050598145
1705014913.061654,652400,12.317801475524902
1705014914.478326,652450,12.31771469116211
1705014973.589415,654450,12.318496704101562
1705014979.332789,654650,12.318668365478516
1705015126.796437,659450,12.316100120544434
1705015159.848109,660550,12.315994262695312
1705015185.118102,661400,12.315140724182129
1705015195.493801,661750,12.314454078674316
1705015207.888409,662200,12.314698219299316
1705015218.612064,662550,12.313989639282227
1705015234.947882,663100,12.314228057861328
1705015298.782493,665250,12.314773559570312
1705015366.146228,667500,12.314528465270996
1705015422.397488,669450,12.313653945922852
1705015467.499201,670950,12.314197540283203
1705015521.745104,672800,12.314282417297363
1705015620.287992,676150,12.313155174255371
1705015633.907017,676600,12.31296443939209
1705015635.41111,676650,12.31316089630127
1705015661.253471,677550,12.312825202941895
1705015673.522409,677950,12.312363624572754
1705015700.298276,678850,12.312058448791504
1705015718.638497,679450,12.31307601928711
1705015771.303825,681200,12.314981460571289
1705015799.893037,682150,12.31517219543457
1705015802.863558,682250,12.315595626831055
1705015807.262237,682400,12.315617561340332
1705015825.965797,683050,12.314141273498535
1705015886.807295,685150,12.31261920928955
1705015907.171891,685850,12.31214714050293
1705015936.057508,686850,12.312885284423828
1705015968.421593,688000,12.313273429870605
1705016031.554023,690150,12.31335735321045
1705016073.301634,691600,12.313103675842285
1705016099.597581,692500,12.31301498413086
1705016136.088278,693750,12.313214302062988
1705016160.063943,694550,12.31252670288086
1705016198.111378,695850,12.311799049377441
1705023933.631175,698600,12.059276580810547
1705023946.44142,699050,12.130240440368652
1705023986.460669,700350,12.180513381958008
1705024030.171585,701800,12.275629997253418
1705024046.810104,702350,12.27964973449707
1705024131.266296,705150,12.329676628112793
1705024147.532686,705700,12.32901382446289
1705024168.023328,706400,12.330404281616211
1705024177.128286,706700,12.331069946289062
1705024187.685368,707050,12.331573486328125
1705024215.904781,707950,12.329558372497559
1705024245.282535,708900,12.335328102111816
1705024262.437742,709450,12.342385292053223
1705024271.538779,709750,12.339033126831055
1705024289.450845,710350,12.32918930053711
1705024305.618701,710900,12.328607559204102
1705024314.357511,711200,12.32390308380127
1705024315.887177,711250,12.326415061950684
1705024367.024259,712950,12.319190979003906
1705024377.730406,713300,12.314350128173828
1705024504.531936,717500,12.311963081359863
1705024511.793512,717750,12.313870429992676
1705024522.691945,718100,12.308097839355469
1705024530.086023,718350,12.306139945983887
1705024531.682213,718400,12.307275772094727
1705024543.220456,718800,12.306378364562988
1705024578.705834,720000,12.311945915222168
1705024580.145466,720050,12.310943603515625
1705024587.756797,720300,12.312047958374023
1705024608.395223,721000,12.310168266296387
1705024620.605601,721400,12.303644180297852
1705024622.065023,721450,12.306461334228516
1705024633.54216,721850,12.30628490447998
1705024720.656579,724750,12.291484832763672
1705024723.681787,724850,12.292936325073242
1705024783.106749,726800,12.292325973510742
1705024784.584092,726850,12.292488098144531
1705024802.544215,727450,12.296587944030762
1705024845.536848,728900,12.294917106628418
1705024913.566785,731200,12.296311378479004
1705024946.36758,732300,12.300454139709473
1705025062.730824,736150,12.303389549255371
1705025097.643524,737300,12.305800437927246
1705025121.291543,738050,12.310643196105957
1705025146.85557,738900,12.310498237609863
1705025158.790628,739300,12.307716369628906
1705025211.026542,741000,12.306008338928223
1705025242.72496,742050,12.310772895812988
1705025258.930933,742600,12.313748359680176
1705025278.426024,743250,12.312076568603516
1705025284.435001,743450,12.310985565185547
1705025331.143782,745000,12.309764862060547
1705025338.51649,745250,12.308262825012207
1705025347.418245,745550,12.310587882995605
1705025364.027702,746100,12.314720153808594
1705025370.482606,746300,12.314696311950684
1705025392.740536,747050,12.316855430603027
1705025413.541905,747750,12.315459251403809
1705025510.786977,751000,12.323418617248535
1705025579.474323,753300,12.318827629089355
1705025580.895908,753350,12.31843376159668
1705025587.056598,753550,12.318188667297363
1705025629.004042,754950,12.318511009216309
1705025647.928003,755550,12.315524101257324
1705025662.630355,756050,12.319157600402832
1705025668.52439,756250,12.317325592041016
1705025689.489022,756950,12.316243171691895
1705025712.032672,757700,12.315743446350098
1705025746.31137,758850,12.315279006958008
1705025760.200349,759300,12.315924644470215
1705025781.461404,760000,12.314260482788086
1705025961.104213,765950,12.310386657714844
1705025985.518126,766750,12.306657791137695
1705026005.991105,767450,12.305477142333984
1705026027.515756,768150,12.305543899536133
1705026041.266338,768600,12.307300567626953
1705026084.46174,770050,12.30342960357666
1705026113.276876,771000,12.301036834716797
1705026137.364955,771800,12.30054759979248
1705026146.538973,772100,12.302214622497559
1705026169.558756,772850,12.299520492553711
1705026178.524839,773150,12.298810958862305
1705026220.094861,774550,12.297744750976562
1705026223.027856,774650,12.2987642288208
1705026235.408613,775050,12.29578971862793
1705026278.820355,776500,12.293547630310059
1705026401.205068,780550,12.282926559448242
1705026436.308103,781700,12.28161907196045
1705026444.070117,781950,12.280655860900879
1705026490.484005,783450,12.280498504638672
1705026538.362303,785050,12.281927108764648
1705026556.530183,785650,12.281867980957031
1705026571.26737,786150,12.28079891204834
1705026612.012155,787500,12.281417846679688
1705026629.058385,788050,12.281449317932129
1705026663.539164,789200,12.280502319335938
1705026674.329324,789550,12.280265808105469
1705026678.847879,789700,12.279919624328613
1705026690.634303,790100,12.279009819030762
1705026698.034669,790350,12.279383659362793
1705026710.837833,790750,12.27877140045166
1705026720.504036,791050,12.278078079223633
1705026737.3077,791600,12.27900505065918
1705026800.783674,793700,12.28041934967041
1705026803.929277,793800,12.280571937561035
1705026874.435288,796100,12.280838966369629
1705026875.960688,796150,12.280364036560059
1705026936.663179,798150,12.27806282043457
1705026963.324831,799050,12.280312538146973
1705027012.959845,800700,12.281396865844727
1705027041.946799,801650,12.281628608703613
1705027056.832204,802150,12.282588958740234
1705027107.669693,803850,12.283310890197754
1705027151.869319,805300,12.283873558044434
1705027169.924625,805900,12.282639503479004
1705027181.974674,806300,12.283915519714355
1705027220.967225,807550,12.285470008850098
1705027275.479971,809300,12.28526782989502
1705027277.018629,809350,12.284875869750977
1705027352.607471,811850,12.279007911682129
1705027357.115648,812000,12.279534339904785
1705027360.209158,812100,12.279007911682129
1705027368.839777,812400,12.278966903686523
1705027466.542157,815700,12.278762817382812
1705027513.306449,817250,12.278057098388672
1705027516.291233,817350,12.277379989624023
1705027586.078279,819650,12.276310920715332
1705027590.745289,819800,12.27597427368164
1705027615.440094,820600,12.275758743286133
1705027616.915852,820650,12.275806427001953
1705027619.946001,820750,12.275821685791016
1705027639.6304,821400,12.275956153869629
1705027726.697366,824250,12.276358604431152
1705027731.287897,824400,12.276335716247559
1705027831.975766,827750,12.27388858795166
1705027906.057874,830200,12.268301963806152
1705027909.099314,830300,12.268136978149414
1705027923.970397,830800,12.267827033996582
1705027976.768347,832550,12.26672649383545
1705027990.340443,833000,12.266057014465332
1705028098.222682,836600,12.266590118408203
1705028104.154475,836800,12.266363143920898
1705028190.77,839700,12.266640663146973
1705028224.082809,840850,12.265832901000977
1705028250.544769,841750,12.264653205871582
1705028295.362654,843250,12.265850067138672
1705028298.487896,843350,12.265966415405273
1705028320.055481,844050,12.266077995300293
1705028324.475118,844200,12.266189575195312
1705028360.522098,845400,12.266353607177734
1705028419.918609,847400,12.264481544494629
1705028425.956138,847600,12.264528274536133
1705028502.863283,850150,12.26427173614502
1705028523.890393,850850,12.26408576965332
1705028564.706887,852200,12.263465881347656
1705028581.062881,852750,12.264237403869629
1705028585.777317,852900,12.264325141906738
1705028613.949375,853850,12.264034271240234
1705028680.252526,856050,12.264130592346191
1705028689.247468,856350,12.263988494873047
1705028690.579044,856400,12.26391887664795
1705028714.604328,857200,12.264168739318848
1705028732.134242,857800,12.264028549194336
1705028785.947663,859600,12.26394271850586
1705028809.66323,860400,12.263593673706055
1705028842.330782,861500,12.263753890991211
1705028845.301831,861600,12.263677597045898
1705028873.367358,862550,12.262532234191895
1705028892.068766,863200,12.263946533203125
1705028893.566324,863250,12.264483451843262
1705028896.577806,863350,12.264729499816895
1705028907.246964,863700,12.265210151672363
1705028919.080996,864100,12.265242576599121
1705029091.241911,869750,12.266923904418945
1705029134.893909,871200,12.267167091369629
1705029147.158498,871600,12.267598152160645
1705029148.64589,871650,12.267715454101562
1705029274.402324,875800,12.264211654663086
1705029285.6475,876150,12.264345169067383
1705029347.892758,878200,12.264606475830078
1705029428.469168,880900,12.264754295349121
1705029451.315653,881650,12.264506340026855
1705029452.804232,881700,12.264835357666016
1705029475.193621,882450,12.264864921569824
1705029476.667483,882500,12.264556884765625
1705029508.588456,883600,12.26460075378418
1705029534.276671,884450,12.264440536499023
1705029547.694971,884900,12.265121459960938
1705029597.839759,886600,12.264853477478027
1705029642.537757,888100,12.264801979064941
1705029653.078037,888450,12.264355659484863
1705029723.014258,890750,12.263051986694336
1705029796.952892,893200,12.261547088623047
1705029812.159916,893700,12.260720252990723
1705029822.78965,894050,12.260296821594238
1705029824.24416,894100,12.260683059692383
1705029830.070573,894300,12.260587692260742
1705029888.853711,896250,12.260407447814941
1705029905.086673,896800,12.260384559631348
1705029930.938813,897650,12.260825157165527
1705029949.711851,898250,12.260722160339355
1705030011.982103,900300,12.260148048400879
1705030016.42157,900450,12.259918212890625
1705030056.453456,901800,12.259896278381348
1705030067.412472,902150,12.260290145874023
1705030100.247552,903250,12.260424613952637
1705030124.637974,904050,12.260249137878418
1705030132.546394,904300,12.260065078735352
1705030137.557613,904450,12.259668350219727
1705030169.967781,905500,12.26003360748291
1705030188.277496,906100,12.259400367736816
1705030201.311877,906500,12.259978294372559
1705030207.81467,906700,12.259971618652344
1705030213.695603,906900,12.259559631347656
1705030317.713738,910400,12.258217811584473
1705030422.513247,913850,12.261150360107422
1705030466.70463,915300,12.260502815246582
1705030500.685703,916450,12.259542465209961
1705030506.795414,916650,12.25993537902832
1705030526.390151,917300,12.258728981018066
1705030535.606048,917600,12.25861644744873
1705030557.988448,918350,12.258612632751465
1705030570.216631,918750,12.258784294128418
1705030614.42945,920250,12.259361267089844
1705030615.79585,920300,12.259129524230957
1705030633.414166,920900,12.25922679901123
1705030651.157245,921500,12.259278297424316
1705030664.44828,921900,12.25972843170166
1705030674.952056,922250,12.259718894958496
1705030689.94911,922750,12.259307861328125
1705030710.089762,923450,12.259775161743164
1705030729.908731,924100,12.25890827178955
1705030745.352432,924550,12.259383201599121
1705030775.671423,925550,12.25976848602295
1705030793.995163,926150,12.259364128112793
1705030823.375298,927150,12.25848388671875
1705038557.86396,929350,12.153765678405762
1705038604.063669,930850,12.084123611450195
1705038607.046163,930950,12.064861297607422
1705038611.598656,931100,12.103609085083008
1705038613.167132,931150,12.098420143127441
1705038631.827729,931750,12.141753196716309
1705038639.474806,932000,12.148948669433594
1705038648.233954,932300,12.152542114257812
1705038689.83506,933650,12.241997718811035
1705038703.800721,934100,12.229836463928223
1705038821.626404,937950,12.300671577453613
1705038823.146488,938000,12.304079055786133
1705038832.153957,938300,12.293563842773438
1705038836.605155,938450,12.290932655334473
1705038854.80597,939050,12.285765647888184
1705038867.925908,939450,12.290757179260254
1705038878.221006,939800,12.298070907592773
1705038995.209863,943650,12.28341007232666
1705039034.072431,944950,12.2799072265625
1705039042.997632,945250,12.271707534790039
1705039044.411287,945300,12.272130012512207
1705039084.567867,946600,12.27304744720459
1705039098.609424,947050,12.277962684631348
1705039147.64167,948300,12.281740188598633
1705039186.810046,949600,12.268534660339355
1705039192.394055,949800,12.270150184631348
1705039254.991498,951850,12.272586822509766
1705039259.369183,952000,12.269916534423828
1705039651.731539,953100,12.267621994018555
1705040884.370285,955000,12.258935928344727
1705041883.420121,955500,12.259807586669922
1705041904.23862,955700,12.25727653503418
1705041907.480601,955750,12.256318092346191
1705044040.813967,960500,12.250531196594238
1705044043.702251,960600,12.24814224243164
1705044474.590053,960850,12.248241424560547
1705045060.255373,961200,12.246444702148438
