%!PS-Adobe-3.0 EPSF-3.0
%%LanguageLevel: 3
%%Title: training_history.eps
%%Creator: Matplotlib v3.8.0, https://matplotlib.org/
%%CreationDate: Tue Jan 16 18:16:58 2024
%%Orientation: portrait
%%BoundingBox: 0 0 720 360
%%HiResBoundingBox: 0.000000 0.000000 720.000000 360.000000
%%EndComments
%%BeginProlog
/mpldict 10 dict def
mpldict begin
/_d { bind def } bind def
/m { moveto } _d
/l { lineto } _d
/r { rlineto } _d
/c { curveto } _d
/cl { closepath } _d
/ce { closepath eofill } _d
/sc { setcachedevice } _d
%!PS-Adobe-3.0 Resource-Font
%%Creator: Converted from TrueType to Type 3 by Matplotlib.
10 dict begin
/FontName /DejaVuSans def
/PaintType 0 def
/FontMatrix [0.00048828125 0 0 0.00048828125 0 0] def
/FontBBox [-2090 -948 3673 2524] def
/FontType 3 def
/Encoding [/space /slash /zero /one /two /three /four /five /six /eight /A /E /M /T /bracketleft /bracketright /a /c /d /e /g /h /i /l /m /n /o /p /r /s /t /x] def
/CharStrings 33 dict dup begin
/.notdef 0 def
/space{651 0 0 0 0 0 sc
ce} _d
/slash{690 0 0 -190 690 1493 sc
520 1493 m
690 1493 l
170 -190 l
0 -190 l
520 1493 l

ce} _d
/zero{1303 0 135 -29 1167 1520 sc
651 1360 m
547 1360 469 1309 416 1206 c
364 1104 338 950 338 745 c
338 540 364 387 416 284 c
469 182 547 131 651 131 c
756 131 834 182 886 284 c
939 387 965 540 965 745 c
965 950 939 1104 886 1206 c
834 1309 756 1360 651 1360 c

651 1520 m
818 1520 946 1454 1034 1321 c
1123 1189 1167 997 1167 745 c
1167 494 1123 302 1034 169 c
946 37 818 -29 651 -29 c
484 -29 356 37 267 169 c
179 302 135 494 135 745 c
135 997 179 1189 267 1321 c
356 1454 484 1520 651 1520 c

ce} _d
/one{1303 0 225 0 1114 1493 sc
254 170 m
584 170 l
584 1309 l
225 1237 l
225 1421 l
582 1493 l
784 1493 l
784 170 l
1114 170 l
1114 0 l
254 0 l
254 170 l

ce} _d
/two{1303 0 150 0 1098 1520 sc
393 170 m
1098 170 l
1098 0 l
150 0 l
150 170 l
227 249 331 356 463 489 c
596 623 679 709 713 748 c
778 821 823 882 848 932 c
874 983 887 1032 887 1081 c
887 1160 859 1225 803 1275 c
748 1325 675 1350 586 1350 c
523 1350 456 1339 385 1317 c
315 1295 240 1262 160 1217 c
160 1421 l
241 1454 317 1478 388 1495 c
459 1512 523 1520 582 1520 c
737 1520 860 1481 952 1404 c
1044 1327 1090 1223 1090 1094 c
1090 1033 1078 974 1055 919 c
1032 864 991 800 930 725 c
913 706 860 650 771 557 c
682 465 556 336 393 170 c

ce} _d
/three{1303 0 156 -29 1139 1520 sc
831 805 m
928 784 1003 741 1057 676 c
1112 611 1139 530 1139 434 c
1139 287 1088 173 987 92 c
886 11 742 -29 555 -29 c
492 -29 428 -23 361 -10 c
295 2 227 20 156 45 c
156 240 l
212 207 273 183 340 166 c
407 149 476 141 549 141 c
676 141 772 166 838 216 c
905 266 938 339 938 434 c
938 522 907 591 845 640 c
784 690 698 715 588 715 c
414 715 l
414 881 l
596 881 l
695 881 771 901 824 940 c
877 980 903 1037 903 1112 c
903 1189 876 1247 821 1288 c
767 1329 689 1350 588 1350 c
533 1350 473 1344 410 1332 c
347 1320 277 1301 201 1276 c
201 1456 l
278 1477 349 1493 416 1504 c
483 1515 547 1520 606 1520 c
759 1520 881 1485 970 1415 c
1059 1346 1104 1252 1104 1133 c
1104 1050 1080 980 1033 923 c
986 866 918 827 831 805 c

ce} _d
/four{1303 0 100 0 1188 1493 sc
774 1317 m
264 520 l
774 520 l
774 1317 l

721 1493 m
975 1493 l
975 520 l
1188 520 l
1188 352 l
975 352 l
975 0 l
774 0 l
774 352 l
100 352 l
100 547 l
721 1493 l

ce} _d
/five{1303 0 158 -29 1124 1493 sc
221 1493 m
1014 1493 l
1014 1323 l
406 1323 l
406 957 l
435 967 465 974 494 979 c
523 984 553 987 582 987 c
749 987 881 941 978 850 c
1075 759 1124 635 1124 479 c
1124 318 1074 193 974 104 c
874 15 733 -29 551 -29 c
488 -29 424 -24 359 -13 c
294 -2 227 14 158 35 c
158 238 l
218 205 280 181 344 165 c
408 149 476 141 547 141 c
662 141 754 171 821 232 c
888 293 922 375 922 479 c
922 583 888 665 821 726 c
754 787 662 817 547 817 c
493 817 439 811 385 799 c
332 787 277 768 221 743 c
221 1493 l

ce} _d
/six{1303 0 143 -29 1174 1520 sc
676 827 m
585 827 513 796 460 734 c
407 672 381 587 381 479 c
381 372 407 287 460 224 c
513 162 585 131 676 131 c
767 131 838 162 891 224 c
944 287 971 372 971 479 c
971 587 944 672 891 734 c
838 796 767 827 676 827 c

1077 1460 m
1077 1276 l
1026 1300 975 1318 923 1331 c
872 1344 821 1350 770 1350 c
637 1350 535 1305 464 1215 c
394 1125 354 989 344 807 c
383 865 433 909 492 940 c
551 971 617 987 688 987 c
838 987 956 941 1043 850 c
1130 759 1174 636 1174 479 c
1174 326 1129 203 1038 110 c
947 17 827 -29 676 -29 c
503 -29 371 37 280 169 c
189 302 143 494 143 745 c
143 981 199 1169 311 1309 c
423 1450 573 1520 762 1520 c
813 1520 864 1515 915 1505 c
967 1495 1021 1480 1077 1460 c

ce} _d
/eight{1303 0 139 -29 1163 1520 sc
651 709 m
555 709 479 683 424 632 c
369 581 342 510 342 420 c
342 330 369 259 424 208 c
479 157 555 131 651 131 c
747 131 823 157 878 208 c
933 260 961 331 961 420 c
961 510 933 581 878 632 c
823 683 748 709 651 709 c

449 795 m
362 816 295 857 246 916 c
198 975 174 1048 174 1133 c
174 1252 216 1347 301 1416 c
386 1485 503 1520 651 1520 c
800 1520 916 1485 1001 1416 c
1086 1347 1128 1252 1128 1133 c
1128 1048 1104 975 1055 916 c
1007 857 940 816 854 795 c
951 772 1027 728 1081 662 c
1136 596 1163 515 1163 420 c
1163 275 1119 164 1030 87 c
942 10 816 -29 651 -29 c
486 -29 360 10 271 87 c
183 164 139 275 139 420 c
139 515 166 596 221 662 c
276 728 352 772 449 795 c

375 1114 m
375 1037 399 976 447 933 c
496 890 564 868 651 868 c
738 868 805 890 854 933 c
903 976 928 1037 928 1114 c
928 1191 903 1252 854 1295 c
805 1338 738 1360 651 1360 c
564 1360 496 1338 447 1295 c
399 1252 375 1191 375 1114 c

ce} _d
/A{1401 0 16 0 1384 1493 sc
700 1294 m
426 551 l
975 551 l
700 1294 l

586 1493 m
815 1493 l
1384 0 l
1174 0 l
1038 383 l
365 383 l
229 0 l
16 0 l
586 1493 l

ce} _d
/E{1294 0 201 0 1163 1493 sc
201 1493 m
1145 1493 l
1145 1323 l
403 1323 l
403 881 l
1114 881 l
1114 711 l
403 711 l
403 170 l
1163 170 l
1163 0 l
201 0 l
201 1493 l

ce} _d
/M{1767 0 201 0 1567 1493 sc
201 1493 m
502 1493 l
883 477 l
1266 1493 l
1567 1493 l
1567 0 l
1370 0 l
1370 1311 l
985 287 l
782 287 l
397 1311 l
397 0 l
201 0 l
201 1493 l

ce} _d
/T{1251 0 -6 0 1257 1493 sc
-6 1493 m
1257 1493 l
1257 1323 l
727 1323 l
727 0 l
524 0 l
524 1323 l
-6 1323 l
-6 1493 l

ce} _d
/bracketleft{799 0 176 -270 600 1556 sc
176 1556 m
600 1556 l
600 1413 l
360 1413 l
360 -127 l
600 -127 l
600 -270 l
176 -270 l
176 1556 l

ce} _d
/bracketright{799 0 199 -270 623 1556 sc
623 1556 m
623 -270 l
199 -270 l
199 -127 l
438 -127 l
438 1413 l
199 1413 l
199 1556 l
623 1556 l

ce} _d
/a{1255 0 123 -29 1069 1147 sc
702 563 m
553 563 450 546 393 512 c
336 478 307 420 307 338 c
307 273 328 221 371 182 c
414 144 473 125 547 125 c
649 125 731 161 792 233 c
854 306 885 402 885 522 c
885 563 l
702 563 l

1069 639 m
1069 0 l
885 0 l
885 170 l
843 102 791 52 728 19 c
665 -13 589 -29 498 -29 c
383 -29 292 3 224 67 c
157 132 123 218 123 326 c
123 452 165 547 249 611 c
334 675 460 707 627 707 c
885 707 l
885 725 l
885 810 857 875 801 921 c
746 968 668 991 567 991 c
503 991 441 983 380 968 c
319 953 261 930 205 899 c
205 1069 l
272 1095 338 1114 401 1127 c
464 1140 526 1147 586 1147 c
748 1147 869 1105 949 1021 c
1029 937 1069 810 1069 639 c

ce} _d
/c{1126 0 113 -29 999 1147 sc
999 1077 m
999 905 l
947 934 895 955 842 969 c
790 984 737 991 684 991 c
565 991 472 953 406 877 c
340 802 307 696 307 559 c
307 422 340 316 406 240 c
472 165 565 127 684 127 c
737 127 790 134 842 148 c
895 163 947 184 999 213 c
999 43 l
948 19 894 1 839 -11 c
784 -23 726 -29 664 -29 c
495 -29 361 24 262 130 c
163 236 113 379 113 559 c
113 742 163 885 263 990 c
364 1095 501 1147 676 1147 c
733 1147 788 1141 842 1129 c
896 1118 948 1100 999 1077 c

ce} _d
/d{1300 0 113 -29 1114 1556 sc
930 950 m
930 1556 l
1114 1556 l
1114 0 l
930 0 l
930 168 l
891 101 842 52 783 19 c
724 -13 654 -29 571 -29 c
436 -29 325 25 240 133 c
155 241 113 383 113 559 c
113 735 155 877 240 985 c
325 1093 436 1147 571 1147 c
654 1147 724 1131 783 1098 c
842 1066 891 1017 930 950 c

303 559 m
303 424 331 317 386 240 c
442 163 519 125 616 125 c
713 125 790 163 846 240 c
902 317 930 424 930 559 c
930 694 902 800 846 877 c
790 954 713 993 616 993 c
519 993 442 954 386 877 c
331 800 303 694 303 559 c

ce} _d
/e{1260 0 113 -29 1151 1147 sc
1151 606 m
1151 516 l
305 516 l
313 389 351 293 419 226 c
488 160 583 127 705 127 c
776 127 844 136 910 153 c
977 170 1043 196 1108 231 c
1108 57 l
1042 29 974 8 905 -7 c
836 -22 765 -29 694 -29 c
515 -29 374 23 269 127 c
165 231 113 372 113 549 c
113 732 162 878 261 985 c
360 1093 494 1147 662 1147 c
813 1147 932 1098 1019 1001 c
1107 904 1151 773 1151 606 c

967 660 m
966 761 937 841 882 901 c
827 961 755 991 664 991 c
561 991 479 962 417 904 c
356 846 320 764 311 659 c
967 660 l

ce} _d
/g{1300 0 113 -426 1114 1147 sc
930 573 m
930 706 902 810 847 883 c
792 956 715 993 616 993 c
517 993 440 956 385 883 c
330 810 303 706 303 573 c
303 440 330 337 385 264 c
440 191 517 154 616 154 c
715 154 792 191 847 264 c
902 337 930 440 930 573 c

1114 139 m
1114 -52 1072 -193 987 -286 c
902 -379 773 -426 598 -426 c
533 -426 472 -421 415 -411 c
358 -402 302 -387 248 -367 c
248 -188 l
302 -217 355 -239 408 -253 c
461 -267 514 -274 569 -274 c
690 -274 780 -242 840 -179 c
900 -116 930 -21 930 106 c
930 197 l
892 131 843 82 784 49 c
725 16 654 0 571 0 c
434 0 323 52 239 157 c
155 262 113 400 113 573 c
113 746 155 885 239 990 c
323 1095 434 1147 571 1147 c
654 1147 725 1131 784 1098 c
843 1065 892 1016 930 950 c
930 1120 l
1114 1120 l
1114 139 l

ce} _d
/h{1298 0 186 0 1124 1556 sc
1124 676 m
1124 0 l
940 0 l
940 670 l
940 776 919 855 878 908 c
837 961 775 987 692 987 c
593 987 514 955 457 892 c
400 829 371 742 371 633 c
371 0 l
186 0 l
186 1556 l
371 1556 l
371 946 l
415 1013 467 1064 526 1097 c
586 1130 655 1147 733 1147 c
862 1147 959 1107 1025 1027 c
1091 948 1124 831 1124 676 c

ce} _d
/i{569 0 193 0 377 1556 sc
193 1120 m
377 1120 l
377 0 l
193 0 l
193 1120 l

193 1556 m
377 1556 l
377 1323 l
193 1323 l
193 1556 l

ce} _d
/l{569 0 193 0 377 1556 sc
193 1556 m
377 1556 l
377 0 l
193 0 l
193 1556 l

ce} _d
/m{1995 0 186 0 1821 1147 sc
1065 905 m
1111 988 1166 1049 1230 1088 c
1294 1127 1369 1147 1456 1147 c
1573 1147 1663 1106 1726 1024 c
1789 943 1821 827 1821 676 c
1821 0 l
1636 0 l
1636 670 l
1636 777 1617 857 1579 909 c
1541 961 1483 987 1405 987 c
1310 987 1234 955 1179 892 c
1124 829 1096 742 1096 633 c
1096 0 l
911 0 l
911 670 l
911 778 892 858 854 909 c
816 961 757 987 678 987 c
584 987 509 955 454 891 c
399 828 371 742 371 633 c
371 0 l
186 0 l
186 1120 l
371 1120 l
371 946 l
413 1015 463 1065 522 1098 c
581 1131 650 1147 731 1147 c
812 1147 881 1126 938 1085 c
995 1044 1038 984 1065 905 c

ce} _d
/n{1298 0 186 0 1124 1147 sc
1124 676 m
1124 0 l
940 0 l
940 670 l
940 776 919 855 878 908 c
837 961 775 987 692 987 c
593 987 514 955 457 892 c
400 829 371 742 371 633 c
371 0 l
186 0 l
186 1120 l
371 1120 l
371 946 l
415 1013 467 1064 526 1097 c
586 1130 655 1147 733 1147 c
862 1147 959 1107 1025 1027 c
1091 948 1124 831 1124 676 c

ce} _d
/o{1253 0 113 -29 1141 1147 sc
627 991 m
528 991 450 952 393 875 c
336 798 307 693 307 559 c
307 425 335 319 392 242 c
449 165 528 127 627 127 c
725 127 803 166 860 243 c
917 320 946 426 946 559 c
946 692 917 797 860 874 c
803 952 725 991 627 991 c

627 1147 m
787 1147 913 1095 1004 991 c
1095 887 1141 743 1141 559 c
1141 376 1095 232 1004 127 c
913 23 787 -29 627 -29 c
466 -29 340 23 249 127 c
158 232 113 376 113 559 c
113 743 158 887 249 991 c
340 1095 466 1147 627 1147 c

ce} _d
/p{1300 0 186 -426 1188 1147 sc
371 168 m
371 -426 l
186 -426 l
186 1120 l
371 1120 l
371 950 l
410 1017 458 1066 517 1098 c
576 1131 647 1147 729 1147 c
865 1147 975 1093 1060 985 c
1145 877 1188 735 1188 559 c
1188 383 1145 241 1060 133 c
975 25 865 -29 729 -29 c
647 -29 576 -13 517 19 c
458 52 410 101 371 168 c

997 559 m
997 694 969 800 913 877 c
858 954 781 993 684 993 c
587 993 510 954 454 877 c
399 800 371 694 371 559 c
371 424 399 317 454 240 c
510 163 587 125 684 125 c
781 125 858 163 913 240 c
969 317 997 424 997 559 c

ce} _d
/r{842 0 186 0 842 1147 sc
842 948 m
821 960 799 969 774 974 c
750 980 723 983 694 983 c
590 983 510 949 454 881 c
399 814 371 717 371 590 c
371 0 l
186 0 l
186 1120 l
371 1120 l
371 946 l
410 1014 460 1064 522 1097 c
584 1130 659 1147 748 1147 c
761 1147 775 1146 790 1144 c
805 1143 822 1140 841 1137 c
842 948 l

ce} _d
/s{1067 0 111 -29 967 1147 sc
907 1087 m
907 913 l
855 940 801 960 745 973 c
689 986 631 993 571 993 c
480 993 411 979 365 951 c
320 923 297 881 297 825 c
297 782 313 749 346 724 c
379 700 444 677 543 655 c
606 641 l
737 613 829 573 884 522 c
939 471 967 400 967 309 c
967 205 926 123 843 62 c
761 1 648 -29 504 -29 c
444 -29 381 -23 316 -11 c
251 0 183 18 111 41 c
111 231 l
179 196 246 169 312 151 c
378 134 443 125 508 125 c
595 125 661 140 708 169 c
755 199 778 241 778 295 c
778 345 761 383 727 410 c
694 437 620 462 506 487 c
442 502 l
328 526 246 563 195 612 c
144 662 119 730 119 817 c
119 922 156 1004 231 1061 c
306 1118 412 1147 549 1147 c
617 1147 681 1142 741 1132 c
801 1122 856 1107 907 1087 c

ce} _d
/t{803 0 55 0 754 1438 sc
375 1438 m
375 1120 l
754 1120 l
754 977 l
375 977 l
375 369 l
375 278 387 219 412 193 c
437 167 488 154 565 154 c
754 154 l
754 0 l
565 0 l
423 0 325 26 271 79 c
217 132 190 229 190 369 c
190 977 l
55 977 l
55 1120 l
190 1120 l
190 1438 l
375 1438 l

ce} _d
/x{1212 0 59 0 1145 1120 sc
1124 1120 m
719 575 l
1145 0 l
928 0 l
602 440 l
276 0 l
59 0 l
494 586 l
96 1120 l
313 1120 l
610 721 l
907 1120 l
1124 1120 l

ce} _d
end readonly def

/BuildGlyph {
 exch begin
 CharStrings exch
 2 copy known not {pop /.notdef} if
 true 3 1 roll get exec
 end
} _d

/BuildChar {
 1 index /Encoding get exch get
 1 index /BuildGlyph get exec
} _d

FontName currentdict end definefont pop
%!PS-Adobe-3.0 Resource-Font
%%Creator: Converted from TrueType to Type 3 by Matplotlib.
10 dict begin
/FontName /DejaVuSans-Oblique def
/PaintType 0 def
/FontMatrix [0.00048828125 0 0 0.00048828125 0 0] def
/FontBBox [-2080 -717 3398 2187] def
/FontType 3 def
/Encoding [/uni03BC] def
/CharStrings 2 dict dup begin
/.notdef 0 def
/uni03BC{1303 0 -27 -426 1212 1120 sc
-27 -426 m
274 1120 l
459 1120 l
323 423 l
320 409 318 393 316 376 c
314 359 313 341 313 324 c
313 262 332 214 371 181 c
410 148 466 131 539 131 c
638 131 717 159 778 215 c
839 271 880 355 901 467 c
1028 1120 l
1212 1120 l
1045 259 l
1042 246 1040 235 1039 226 c
1038 217 1038 208 1038 201 c
1038 180 1042 165 1050 155 c
1059 146 1072 141 1090 141 c
1097 141 1106 143 1117 146 c
1129 149 1146 155 1167 164 c
1139 16 l
1110 1 1082 -10 1055 -17 c
1028 -25 1002 -29 977 -29 c
933 -29 898 -15 873 13 c
848 41 836 80 836 129 c
799 76 754 36 702 10 c
651 -16 590 -29 520 -29 c
458 -29 404 -15 357 14 c
311 43 281 80 266 127 c
158 -426 l
-27 -426 l

ce} _d
end readonly def

/BuildGlyph {
 exch begin
 CharStrings exch
 2 copy known not {pop /.notdef} if
 true 3 1 roll get exec
 end
} _d

/BuildChar {
 1 index /Encoding get exch get
 1 index /BuildGlyph get exec
} _d

FontName currentdict end definefont pop
end
%%EndProlog
mpldict begin
0 0 translate
0 0 720 360 rectclip
gsave
0 0 m
720 0 l
720 360 l
0 360 l
cl
1 setgray
fill
grestore
gsave
71.03 65.72 m
709.2 65.72 l
709.2 325.92 l
71.03 325.92 l
cl
1 setgray
fill
grestore
1 setlinewidth
1 setlinejoin
0 setlinecap
[] 0 setdash
0.122 0.467 0.706 setrgbcolor
gsave
71.03 65.72 638.17 260.2 rectclip
/o {
gsave
newpath
translate
1.0 setlinewidth
1 setlinejoin

0 setlinecap

635.565 104.790334 m
635.565 104.354999 l
635.565 104.790334 l
635.565 104.790334 l
cl

gsave
0.122 0.467 0.706 setrgbcolor
fill
grestore
stroke
grestore
} bind def
0 0 o
grestore
0.8 setlinewidth
2 setlinecap
0.69 setgray
gsave
71.03 65.72 638.17 260.2 rectclip
100.037727 65.72 m
100.037727 325.92 l
stroke
grestore
0 setlinecap
0 setgray
gsave
/o {
gsave
newpath
translate
0.8 setlinewidth
1 setlinejoin

0 setlinecap

0 0 m
0 -3.5 l

gsave
0 setgray
fill
grestore
stroke
grestore
} bind def
100.038 65.72 o
grestore
/DejaVuSans 20.000 selectfont
gsave

93.6784 43.5169 translate
0 rotate
0 0 m /zero glyphshow
grestore
2 setlinecap
0.69 setgray
gsave
71.03 65.72 638.17 260.2 rectclip
189.292273 65.72 m
189.292273 325.92 l
stroke
grestore
0 setlinecap
0 setgray
gsave
/o {
gsave
newpath
translate
0.8 setlinewidth
1 setlinejoin

0 setlinecap

0 0 m
0 -3.5 l

gsave
0 setgray
fill
grestore
stroke
grestore
} bind def
189.292 65.72 o
grestore
/DejaVuSans 20.000 selectfont
gsave

182.933 43.5169 translate
0 rotate
0 0 m /two glyphshow
grestore
2 setlinecap
0.69 setgray
gsave
71.03 65.72 638.17 260.2 rectclip
278.546818 65.72 m
278.546818 325.92 l
stroke
grestore
0 setlinecap
0 setgray
gsave
/o {
gsave
newpath
translate
0.8 setlinewidth
1 setlinejoin

0 setlinecap

0 0 m
0 -3.5 l

gsave
0 setgray
fill
grestore
stroke
grestore
} bind def
278.547 65.72 o
grestore
/DejaVuSans 20.000 selectfont
gsave

272.187 43.5169 translate
0 rotate
0 0 m /four glyphshow
grestore
2 setlinecap
0.69 setgray
gsave
71.03 65.72 638.17 260.2 rectclip
367.801364 65.72 m
367.801364 325.92 l
stroke
grestore
0 setlinecap
0 setgray
gsave
/o {
gsave
newpath
translate
0.8 setlinewidth
1 setlinejoin

0 setlinecap

0 0 m
0 -3.5 l

gsave
0 setgray
fill
grestore
stroke
grestore
} bind def
367.801 65.72 o
grestore
/DejaVuSans 20.000 selectfont
gsave

361.442 43.5169 translate
0 rotate
0 0 m /six glyphshow
grestore
2 setlinecap
0.69 setgray
gsave
71.03 65.72 638.17 260.2 rectclip
457.055909 65.72 m
457.055909 325.92 l
stroke
grestore
0 setlinecap
0 setgray
gsave
/o {
gsave
newpath
translate
0.8 setlinewidth
1 setlinejoin

0 setlinecap

0 0 m
0 -3.5 l

gsave
0 setgray
fill
grestore
stroke
grestore
} bind def
457.056 65.72 o
grestore
/DejaVuSans 20.000 selectfont
gsave

450.697 43.5169 translate
0 rotate
0 0 m /eight glyphshow
grestore
2 setlinecap
0.69 setgray
gsave
71.03 65.72 638.17 260.2 rectclip
546.310455 65.72 m
546.310455 325.92 l
stroke
grestore
0 setlinecap
0 setgray
gsave
/o {
gsave
newpath
translate
0.8 setlinewidth
1 setlinejoin

0 setlinecap

0 0 m
0 -3.5 l

gsave
0 setgray
fill
grestore
stroke
grestore
} bind def
546.31 65.72 o
grestore
/DejaVuSans 20.000 selectfont
gsave

533.592 43.5169 translate
0 rotate
0 0 m /one glyphshow
12.7246 0 m /zero glyphshow
grestore
2 setlinecap
0.69 setgray
gsave
71.03 65.72 638.17 260.2 rectclip
635.565 65.72 m
635.565 325.92 l
stroke
grestore
0 setlinecap
0 setgray
gsave
/o {
gsave
newpath
translate
0.8 setlinewidth
1 setlinejoin

0 setlinecap

0 0 m
0 -3.5 l

gsave
0 setgray
fill
grestore
stroke
grestore
} bind def
635.565 65.72 o
grestore
/DejaVuSans 20.000 selectfont
gsave

622.846 43.5169 translate
0 rotate
0 0 m /one glyphshow
12.7246 0 m /two glyphshow
grestore
/DejaVuSans 24.000 selectfont
gsave

353.357 17.1263 translate
0 rotate
0 0 m /E glyphshow
15.1641 0 m /p glyphshow
30.3984 0 m /o glyphshow
45.082 0 m /c glyphshow
58.2773 0 m /h glyphshow
grestore
2 setlinecap
0.69 setgray
gsave
71.03 65.72 638.17 260.2 rectclip
71.03 91.601663 m
709.2 91.601663 l
stroke
grestore
0 setlinecap
0 setgray
gsave
/o {
gsave
newpath
translate
0.8 setlinewidth
1 setlinejoin

0 setlinecap

-0 0 m
-3.5 0 l

gsave
0 setgray
fill
grestore
stroke
grestore
} bind def
71.03 91.6017 o
grestore
/DejaVuSans 20.000 selectfont
gsave

38.5925 84.0001 translate
0 rotate
0 0 m /one glyphshow
12.7246 0 m /two glyphshow
grestore
2 setlinecap
0.69 setgray
gsave
71.03 65.72 638.17 260.2 rectclip
71.03 138.679624 m
709.2 138.679624 l
stroke
grestore
0 setlinecap
0 setgray
gsave
/o {
gsave
newpath
translate
0.8 setlinewidth
1 setlinejoin

0 setlinecap

-0 0 m
-3.5 0 l

gsave
0 setgray
fill
grestore
stroke
grestore
} bind def
71.03 138.68 o
grestore
/DejaVuSans 20.000 selectfont
gsave

38.5925 131.078 translate
0 rotate
0 0 m /one glyphshow
12.7246 0 m /three glyphshow
grestore
2 setlinecap
0.69 setgray
gsave
71.03 65.72 638.17 260.2 rectclip
71.03 185.757585 m
709.2 185.757585 l
stroke
grestore
0 setlinecap
0 setgray
gsave
/o {
gsave
newpath
translate
0.8 setlinewidth
1 setlinejoin

0 setlinecap

-0 0 m
-3.5 0 l

gsave
0 setgray
fill
grestore
stroke
grestore
} bind def
71.03 185.758 o
grestore
/DejaVuSans 20.000 selectfont
gsave

38.5925 178.156 translate
0 rotate
0 0 m /one glyphshow
12.7246 0 m /four glyphshow
grestore
2 setlinecap
0.69 setgray
gsave
71.03 65.72 638.17 260.2 rectclip
71.03 232.835546 m
709.2 232.835546 l
stroke
grestore
0 setlinecap
0 setgray
gsave
/o {
gsave
newpath
translate
0.8 setlinewidth
1 setlinejoin

0 setlinecap

-0 0 m
-3.5 0 l

gsave
0 setgray
fill
grestore
stroke
grestore
} bind def
71.03 232.836 o
grestore
/DejaVuSans 20.000 selectfont
gsave

38.5925 225.234 translate
0 rotate
0 0 m /one glyphshow
12.7246 0 m /five glyphshow
grestore
2 setlinecap
0.69 setgray
gsave
71.03 65.72 638.17 260.2 rectclip
71.03 279.913507 m
709.2 279.913507 l
stroke
grestore
0 setlinecap
0 setgray
gsave
/o {
gsave
newpath
translate
0.8 setlinewidth
1 setlinejoin

0 setlinecap

-0 0 m
-3.5 0 l

gsave
0 setgray
fill
grestore
stroke
grestore
} bind def
71.03 279.914 o
grestore
/DejaVuSans 20.000 selectfont
gsave

38.5925 272.312 translate
0 rotate
0 0 m /one glyphshow
12.7246 0 m /six glyphshow
grestore
/DejaVuSans 24.000 selectfont
gsave

29.5925 128.101 translate
90 rotate
0 0 m /M glyphshow
20.707 0 m /A glyphshow
37.125 0 m /E glyphshow
52.2891 0 m /space glyphshow
59.918 0 m /bracketleft glyphshow
69.2812 0 m /p glyphshow
84.5156 0 m /i glyphshow
91.1836 0 m /x glyphshow
104.637 0 m /e glyphshow
119.402 0 m /l glyphshow
126.07 0 m /bracketright glyphshow
grestore
1.5 setlinewidth
2 setlinecap
0.122 0.467 0.706 setrgbcolor
gsave
71.03 65.72 638.17 260.2 rectclip
100.037727 314.092727 m
100.463655 287.504789 l
102.212902 258.826668 l
103.157246 249.901002 l
104.253869 243.336919 l
106.112028 234.971837 l
107.863762 227.436811 l
108.026787 226.712173 l
109.387269 222.555291 l
112.342762 215.389229 l
112.650817 214.569678 l
113.337195 212.918096 l
113.721402 212.348307 l
115.412279 209.288978 l
116.309003 207.822147 l
116.89272 207.010139 l
117.801895 205.593458 l
118.790027 204.099464 l
119.772916 202.614988 l
120.068053 202.220477 l
121.900469 199.900064 l
153.267699 168.31046 l
153.686527 165.307656 l
153.888264 169.003356 l
156.473443 176.120525 l
156.513392 175.269412 l
157.188359 175.643179 l
158.936841 173.018049 l
158.9523 173.086607 l
159.513594 173.136982 l
160.071941 172.476636 l
160.179106 171.970018 l
160.608394 171.637465 l
162.07309 171.900517 l
163.107853 171.789307 l
163.963817 171.998527 l
166.952842 171.696325 l
167.789242 171.231057 l
168.584356 170.657812 l
169.852885 169.539516 l
170.134779 168.93619 l
170.463651 168.724815 l
170.644835 168.433343 l
170.690556 168.492158 l
172.587332 167.934672 l
172.862995 167.974675 l
174.787813 167.44462 l
175.464649 166.88655 l
176.592654 166.174528 l
176.989558 165.686228 l
179.032061 164.773561 l
179.576627 164.647355 l
180.361434 164.394585 l
181.319225 164.229588 l
182.31892 163.763512 l
182.859655 163.58976 l
184.738049 162.696938 l
191.801073 161.766985 l
192.165601 161.680963 l
223.396229 153.403699 l
223.515351 141.448874 l
223.798504 148.273763 l
224.38332 154.503497 l
224.651645 154.588981 l
224.682192 154.934194 l
224.742046 154.218311 l
225.194973 153.275832 l
225.531755 153.590156 l
225.534597 153.537313 l
226.203587 153.323109 l
226.602615 152.076991 l
226.67502 152.493142 l
226.775234 152.307672 l
226.778223 152.373671 l
226.850287 152.624915 l
226.869114 152.532696 l
226.911671 152.381573 l
227.209484 152.627429 l
227.312279 152.90826 l
227.366334 152.769394 l
227.523715 152.660518 l
227.597617 152.835796 l
229.194338 152.837368 l
229.357731 152.955133 l
229.503491 152.640584 l
229.545445 152.704562 l
230.369851 151.762039 l
230.389206 151.815825 l
233.547314 150.092811 l
234.154144 149.91888 l
234.208536 150.006699 l
234.390244 149.927321 l
234.936852 149.49595 l
235.725976 149.195993 l
235.854744 149.207487 l
236.065121 149.001634 l
237.091541 148.574304 l
237.468574 148.296795 l
238.215203 148.165292 l
239.278275 148.027368 l
239.461825 147.922893 l
239.753583 147.864347 l
240.696692 147.519044 l
243.352051 147.152459 l
243.590192 147.110346 l
244.329474 146.652755 l
244.855074 146.417674 l
247.411348 146.308305 l
248.366692 145.799532 l
274.220592 130.548815 l
274.32747 134.949398 l
274.455148 139.424242 l
274.89933 142.758431 l
275.138902 141.275661 l
275.418092 141.209617 l
275.458317 140.922456 l
276.973021 141.275841 l
277.517423 141.145864 l
277.914648 139.980112 l
278.267347 140.387957 l
278.588163 140.655139 l
278.839966 140.492387 l
278.94886 140.827184 l
279.00425 140.76159 l
279.495596 141.217115 l
279.792983 140.785789 l
279.837599 140.864 l
279.883591 140.802042 l
280.074735 140.667082 l
281.031901 139.718093 l
281.690888 138.918925 l
282.439651 138.810095 l
283.040336 138.766994 l
283.729531 138.793393 l
283.877631 138.713836 l
285.127099 138.737631 l
285.307505 138.439605 l
285.921187 138.162276 l
286.92984 137.486081 l
289.737122 137.20736 l
290.351108 137.043441 l
290.383451 137.109709 l
290.90427 137.131529 l
293.992646 136.730239 l
294.549908 136.418654 l
296.458353 135.894212 l
320.528174 126.167672 l
320.622354 128.316444 l
320.994751 134.464196 l
321.024264 133.908101 l
321.062259 133.657755 l
321.110527 134.191357 l
322.800242 132.86631 l
323.241778 133.051376 l
323.736232 132.275555 l
324.232665 132.637964 l
324.319998 133.070188 l
324.361382 132.784822 l
324.619398 132.933386 l
324.62789 132.90142 l
325.207633 132.631184 l
326.355846 132.917852 l
326.410857 133.250719 l
326.48174 133.206675 l
327.234373 132.712852 l
327.284109 132.817732 l
327.318025 132.682187 l
327.558662 132.313313 l
327.606914 132.438531 l
328.554012 131.169337 l
329.211924 131.20274 l
330.383548 131.004654 l
330.647467 131.081698 l
331.185374 131.126011 l
331.846799 130.666849 l
332.201501 130.614948 l
332.521838 130.123909 l
332.72551 130.036988 l
333.675517 129.954423 l
334.048289 129.832617 l
334.748719 129.812144 l
335.557685 129.845054 l
336.557835 129.687779 l
336.606731 129.651862 l
336.995328 129.677543 l
337.065139 129.62196 l
337.416993 129.599063 l
337.575764 129.478739 l
339.322297 129.343778 l
339.884514 129.143358 l
340.424679 129.132897 l
341.148806 128.990708 l
361.057832 119.52053 l
361.312039 126.15546 l
362.355851 128.312852 l
362.645346 128.199442 l
364.0517 126.924007 l
364.060442 126.888314 l
364.276618 126.945019 l
365.907321 126.635184 l
367.156559 126.979859 l
368.728973 127.279322 l
370.750618 127.174892 l
370.817864 127.132419 l
372.399651 126.806691 l
372.938683 126.409263 l
374.284467 126.015426 l
374.452743 125.687632 l
374.475714 125.742227 l
374.850421 125.57952 l
376.525245 125.637033 l
376.93753 125.398944 l
377.192901 125.543513 l
377.408076 125.509436 l
378.147854 125.624642 l
378.946841 125.097102 l
379.185219 125.059253 l
379.431001 124.960974 l
379.777072 124.487579 l
382.333091 124.367345 l
383.524273 124.260311 l
383.689739 124.331876 l
386.843848 123.703318 l
388.599965 123.609393 l
388.739458 123.548019 l
411.937735 110.587859 l
412.209665 120.633348 l
412.456093 123.365961 l
412.63536 123.500518 l
412.949019 122.515118 l
413.825679 121.99512 l
414.130921 121.206324 l
414.663902 121.720485 l
415.777877 122.56621 l
415.810465 122.449837 l
416.25825 122.251303 l
417.423995 121.385373 l
417.846458 120.657951 l
418.833853 120.657323 l
419.017104 120.635009 l
419.101993 120.469698 l
419.435322 120.783933 l
419.737189 120.766064 l
420.087391 120.847103 l
420.892003 120.345782 l
421.65577 120.271298 l
422.261186 119.778867 l
422.692131 119.800059 l
427.232707 119.307269 l
427.661402 119.20194 l
428.36662 119.125615 l
428.584497 119.227262 l
428.798975 119.124717 l
452.94062 116.176912 l
453.034278 112.990165 l
453.323883 112.286763 l
453.643582 116.128828 l
454.185929 118.901849 l
454.451048 118.231895 l
454.508656 118.329681 l
454.84539 118.051184 l
455.091728 118.13164 l
455.251083 118.032597 l
455.658288 117.28991 l
456.399326 117.414634 l
456.622586 117.436274 l
457.170288 118.099898 l
457.19584 118.044539 l
457.732398 118.264131 l
457.734379 118.234723 l
457.897754 118.088179 l
457.940115 117.883404 l
458.399987 117.251748 l
458.568348 116.661755 l
458.701604 116.723085 l
458.827003 116.557056 l
458.981561 116.735387 l
458.998343 116.61165 l
459.034953 116.578471 l
459.506141 116.838605 l
459.760952 116.479563 l
460.227561 116.216467 l
460.422598 115.80274 l
461.276043 115.721342 l
461.783068 115.633299 l
461.945517 115.741411 l
462.235607 115.590108 l
462.529349 115.607842 l
463.110883 115.272596 l
463.172193 115.330872 l
463.217708 115.280408 l
463.326824 115.227205 l
463.702937 115.238654 l
463.755614 115.1925 l
463.767973 115.220516 l
464.114486 115.143966 l
472.237134 101.991018 l
472.286376 109.073572 l
472.548307 115.866629 l
472.747117 114.981663 l
472.788825 115.099204 l
472.791883 115.306493 l
472.864186 114.421932 l
472.922452 114.771321 l
472.978 114.530807 l
473.137952 113.87109 l
473.433886 114.216034 l
473.482928 114.543019 l
473.503758 114.389561 l
473.810575 114.62123 l
473.904432 114.992259 l
474.76285 113.760149 l
475.069027 113.167823 l
475.130119 113.236874 l
475.330446 113.010818 l
475.362969 113.090196 l
476.079912 113.260086 l
476.250646 113.039687 l
476.730724 112.791406 l
477.051268 112.316889 l
477.064615 112.359586 l
477.386971 112.42105 l
477.441348 112.451311 l
477.691805 112.274731 l
477.694111 112.278053 l
477.871162 112.304902 l
478.042198 112.286673 l
478.88756 112.305844 l
479.042668 112.286224 l
479.088947 112.309795 l
479.96334 111.939619 l
480.126114 112.02865 l
480.381849 111.911648 l
480.481547 111.904061 l
480.665467 111.820463 l
507.457422 109.739125 l
507.586005 103.606638 l
507.832635 112.031793 l
507.946315 113.48071 l
508.225618 116.015687 l
508.278803 115.627597 l
508.394912 116.06476 l
508.461363 115.982822 l
508.633058 115.643131 l
508.645941 115.719905 l
508.796349 115.122371 l
509.094508 114.762745 l
509.164713 115.283641 l
509.358118 114.543603 l
509.514531 114.696657 l
510.020642 113.413589 l
510.029184 113.467645 l
510.242001 113.835397 l
510.246467 113.817124 l
510.311072 113.599643 l
510.387626 113.876882 l
510.840094 114.104106 l
511.258389 114.45776 l
511.350516 114.335146 l
512.11828 114.714077 l
512.210449 115.039985 l
512.36111 115.01812 l
512.543724 114.772353 l
512.548028 114.775721 l
513.120447 114.64965 l
513.583092 114.494036 l
513.759667 114.201218 l
514.093883 113.984724 l
514.547451 113.717363 l
514.902065 113.205177 l
514.972747 113.207197 l
515.12553 113.099265 l
515.519028 113.208724 l
516.246159 113.027968 l
517.058 113.211552 l
517.105935 113.195614 l
517.737061 113.425038 l
518.101062 113.081306 l
518.44387 113.068017 l
518.9325 112.932158 l
519.057529 112.992006 l
520.219239 112.395369 l
520.558369 112.446686 l
521.331649 112.278637 l
521.944076 112.3036 l
523.251178 112.347509 l
523.431938 112.391328 l
523.891201 112.241238 l
525.245435 112.211606 l
526.302844 111.991655 l
526.50722 112.01994 l
527.081659 111.955737 l
527.476138 111.916542 l
528.778884 111.881433 l
529.113002 111.855437 l
530.07743 111.825491 l
555.268714 104.713395 l
555.31165 109.060641 l
555.426556 98.935954 l
555.476523 103.873192 l
555.641268 107.491714 l
555.933779 112.647017 l
556.031387 112.585104 l
556.057241 112.828132 l
556.090415 112.232977 l
556.363649 113.00754 l
556.490392 111.85647 l
556.528777 111.893106 l
556.663493 111.469233 l
556.709801 111.761872 l
556.945535 111.734215 l
557.11697 111.335664 l
557.125693 111.394479 l
557.342584 111.376925 l
557.707722 110.418822 l
557.764368 110.363598 l
558.005449 110.720934 l
558.144812 110.87089 l
558.291168 110.852662 l
558.325092 110.966655 l
558.46509 110.935407 l
559.861562 111.994394 l
560.455749 111.711767 l
560.510545 111.797385 l
560.799292 111.548117 l
560.936233 111.660494 l
561.206159 111.298355 l
562.026118 110.762958 l
562.267164 110.319689 l
562.399564 110.361129 l
562.407239 110.312775 l
562.533102 110.121065 l
562.554076 110.202598 l
563.242975 110.15577 l
563.326324 110.163358 l
563.50659 110.272098 l
563.83013 110.147105 l
564.38698 110.425556 l
564.933176 110.342991 l
565.309921 110.148272 l
565.778524 109.965227 l
565.998845 110.05318 l
566.007159 110.035311 l
566.801496 109.488555 l
568.621681 109.396157 l
568.90733 109.389826 l
569.691653 109.363607 l
569.909584 109.443299 l
570.11624 109.498118 l
570.765835 109.303894 l
571.28037 109.328811 l
573.434052 108.955807 l
573.792046 109.106257 l
574.066165 108.959803 l
574.720604 108.991051 l
574.841592 108.945885 l
597.361639 105.964137 l
597.423831 103.199332 l
597.454404 103.59528 l
597.523366 95.676923 l
597.728739 104.755374 l
597.798616 106.985455 l
598.057187 109.970794 l
598.120964 109.824969 l
598.497073 109.868429 l
598.537948 110.203406 l
598.578586 109.84818 l
598.746461 109.189451 l
599.112328 108.964696 l
599.20463 109.228781 l
599.260183 108.787129 l
599.29456 108.93026 l
599.402738 108.657241 l
599.478746 109.071686 l
599.482941 109.011883 l
600.001226 107.842854 l
600.124524 107.915318 l
600.222336 108.21761 l
600.226657 108.210112 l
600.375916 108.015618 l
600.380617 108.079731 l
600.484281 108.260217 l
600.511389 108.161668 l
600.576317 108.047584 l
601.033915 108.275527 l
601.199487 108.711387 l
601.253086 108.527669 l
601.579189 108.74964 l
601.61051 108.825336 l
601.855198 108.676412 l
601.90557 108.867764 l
602.208731 109.005463 l
602.43416 109.169382 l
602.924629 108.862107 l
603.002383 108.938925 l
603.578214 108.788969 l
604.144324 108.288098 l
604.485383 108.099261 l
605.10518 107.452878 l
605.456971 107.355946 l
605.781103 107.362186 l
605.990443 107.300139 l
606.377577 107.414761 l
606.878376 107.3647 l
607.617937 107.568264 l
608.613541 107.131954 l
608.841852 107.155211 l
609.008309 107.169353 l
609.208026 107.094286 l
609.546446 106.846229 l
609.715023 106.690841 l
610.157775 106.639838 l
611.043311 106.715175 l
611.45011 106.615144 l
611.502944 106.612675 l
611.644885 106.576533 l
612.009552 106.62583 l
612.558836 106.52782 l
612.913462 106.593594 l
613.045122 106.598443 l
613.426753 106.758815 l
614.027748 106.589688 l
614.505115 106.583267 l
614.592809 106.559023 l
614.790227 106.60392 l
615.762634 106.420561 l
617.288018 106.439328 l
617.31045 106.460294 l
617.367384 106.390794 l
617.702504 106.331664 l
618.311399 106.347154 l
618.500198 106.280527 l
635.565 104.574654 l
635.565 104.574654 l
stroke
grestore
1 0.498 0.055 setrgbcolor
gsave
71.03 65.72 638.17 260.2 rectclip
144.665 147.567577 m
233.919545 126.683269 l
278.546818 114.392569 l
323.174091 106.991606 l
367.801364 100.848748 l
412.428636 93.628361 l
457.055909 93.014483 l
501.683182 87.485817 l
546.310455 84.738791 l
590.937727 81.658001 l
635.565 79.001847 l
680.192273 77.547273 l
stroke
grestore
0.8 setlinewidth
0 setlinejoin
0 setgray
gsave
71.03 65.72 m
71.03 325.92 l
stroke
grestore
gsave
709.2 65.72 m
709.2 325.92 l
stroke
grestore
gsave
71.03 65.72 m
709.2 65.72 l
stroke
grestore
gsave
71.03 325.92 m
709.2 325.92 l
stroke
grestore
gsave
289.615 331.92 translate
0 rotate
/DejaVuSans 20.0 selectfont
0 0.796875 moveto
/eight glyphshow
12.7246 0.796875 moveto
/zero glyphshow
25.4492 0.796875 moveto
/zero glyphshow
38.1738 0.796875 moveto
/space glyphshow
/DejaVuSans-Oblique 20.0 selectfont
44.5312 0.796875 moveto
/uni03BC glyphshow
/DejaVuSans 20.0 selectfont
57.2559 0.796875 moveto
/m glyphshow
76.7383 0.796875 moveto
/slash glyphshow
83.4766 0.796875 moveto
/p glyphshow
96.1719 0.796875 moveto
/i glyphshow
101.729 0.796875 moveto
/x glyphshow
113.564 0.796875 moveto
/e glyphshow
125.869 0.796875 moveto
/l glyphshow
131.426 0.796875 moveto
/space glyphshow
137.783 0.796875 moveto
/m glyphshow
157.266 0.796875 moveto
/o glyphshow
169.502 0.796875 moveto
/d glyphshow
182.197 0.796875 moveto
/e glyphshow
194.502 0.796875 moveto
/l glyphshow
grestore
1 setlinewidth
0 setlinecap
0.8 setgray
gsave
507.340625 251.20125 m
695.2 251.20125 l
697.866667 251.20125 699.2 252.534583 699.2 255.20125 c
699.2 311.92 l
699.2 314.586667 697.866667 315.92 695.2 315.92 c
507.340625 315.92 l
504.673958 315.92 503.340625 314.586667 503.340625 311.92 c
503.340625 255.20125 l
503.340625 252.534583 504.673958 251.20125 507.340625 251.20125 c
cl
gsave
1 setgray
fill
grestore
stroke
grestore
1.5 setlinewidth
1 setlinejoin
2 setlinecap
0.122 0.467 0.706 setrgbcolor
gsave
511.340625 299.716875 m
531.340625 299.716875 l
551.340625 299.716875 l
stroke
grestore
0 setgray
/DejaVuSans 20.000 selectfont
gsave

567.341 292.717 translate
0 rotate
0 0 m /T glyphshow
9.2168 0 m /r glyphshow
17.4395 0 m /a glyphshow
29.6953 0 m /i glyphshow
35.252 0 m /n glyphshow
47.9277 0 m /i glyphshow
53.4844 0 m /n glyphshow
66.1602 0 m /g glyphshow
78.8555 0 m /space glyphshow
85.2129 0 m /l glyphshow
90.7695 0 m /o glyphshow
103.006 0 m /s glyphshow
113.426 0 m /s glyphshow
grestore
1 0.498 0.055 setrgbcolor
gsave
511.340625 270.3575 m
531.340625 270.3575 l
551.340625 270.3575 l
stroke
grestore
0 setgray
/DejaVuSans 20.000 selectfont
gsave

567.341 263.358 translate
0 rotate
0 0 m /T glyphshow
8.8418 0 m /e glyphshow
21.1465 0 m /s glyphshow
31.5664 0 m /t glyphshow
39.4082 0 m /space glyphshow
45.7656 0 m /l glyphshow
51.3223 0 m /o glyphshow
63.5586 0 m /s glyphshow
73.9785 0 m /s glyphshow
grestore

end
showpage
