%!PS-Adobe-3.0 EPSF-3.0
%%LanguageLevel: 3
%%Title: training_history.eps
%%Creator: Matplotlib v3.8.0, https://matplotlib.org/
%%CreationDate: Tue Jan 16 18:15:31 2024
%%Orientation: portrait
%%BoundingBox: 0 0 720 360
%%HiResBoundingBox: 0.000000 0.000000 720.000000 360.000000
%%EndComments
%%BeginProlog
/mpldict 10 dict def
mpldict begin
/_d { bind def } bind def
/m { moveto } _d
/l { lineto } _d
/r { rlineto } _d
/c { curveto } _d
/cl { closepath } _d
/ce { closepath eofill } _d
/sc { setcachedevice } _d
%!PS-Adobe-3.0 Resource-Font
%%Creator: Converted from TrueType to Type 3 by Matplotlib.
10 dict begin
/FontName /DejaVuSans def
/PaintType 0 def
/FontMatrix [0.00048828125 0 0 0.00048828125 0 0] def
/FontBBox [-2090 -948 3673 2524] def
/FontType 3 def
/Encoding [/space /slash /zero /one /two /four /five /six /eight /A /E /M /T /bracketleft /bracketright /a /c /d /e /g /h /i /l /m /n /o /p /r /s /t /x] def
/CharStrings 32 dict dup begin
/.notdef 0 def
/space{651 0 0 0 0 0 sc
ce} _d
/slash{690 0 0 -190 690 1493 sc
520 1493 m
690 1493 l
170 -190 l
0 -190 l
520 1493 l

ce} _d
/zero{1303 0 135 -29 1167 1520 sc
651 1360 m
547 1360 469 1309 416 1206 c
364 1104 338 950 338 745 c
338 540 364 387 416 284 c
469 182 547 131 651 131 c
756 131 834 182 886 284 c
939 387 965 540 965 745 c
965 950 939 1104 886 1206 c
834 1309 756 1360 651 1360 c

651 1520 m
818 1520 946 1454 1034 1321 c
1123 1189 1167 997 1167 745 c
1167 494 1123 302 1034 169 c
946 37 818 -29 651 -29 c
484 -29 356 37 267 169 c
179 302 135 494 135 745 c
135 997 179 1189 267 1321 c
356 1454 484 1520 651 1520 c

ce} _d
/one{1303 0 225 0 1114 1493 sc
254 170 m
584 170 l
584 1309 l
225 1237 l
225 1421 l
582 1493 l
784 1493 l
784 170 l
1114 170 l
1114 0 l
254 0 l
254 170 l

ce} _d
/two{1303 0 150 0 1098 1520 sc
393 170 m
1098 170 l
1098 0 l
150 0 l
150 170 l
227 249 331 356 463 489 c
596 623 679 709 713 748 c
778 821 823 882 848 932 c
874 983 887 1032 887 1081 c
887 1160 859 1225 803 1275 c
748 1325 675 1350 586 1350 c
523 1350 456 1339 385 1317 c
315 1295 240 1262 160 1217 c
160 1421 l
241 1454 317 1478 388 1495 c
459 1512 523 1520 582 1520 c
737 1520 860 1481 952 1404 c
1044 1327 1090 1223 1090 1094 c
1090 1033 1078 974 1055 919 c
1032 864 991 800 930 725 c
913 706 860 650 771 557 c
682 465 556 336 393 170 c

ce} _d
/four{1303 0 100 0 1188 1493 sc
774 1317 m
264 520 l
774 520 l
774 1317 l

721 1493 m
975 1493 l
975 520 l
1188 520 l
1188 352 l
975 352 l
975 0 l
774 0 l
774 352 l
100 352 l
100 547 l
721 1493 l

ce} _d
/five{1303 0 158 -29 1124 1493 sc
221 1493 m
1014 1493 l
1014 1323 l
406 1323 l
406 957 l
435 967 465 974 494 979 c
523 984 553 987 582 987 c
749 987 881 941 978 850 c
1075 759 1124 635 1124 479 c
1124 318 1074 193 974 104 c
874 15 733 -29 551 -29 c
488 -29 424 -24 359 -13 c
294 -2 227 14 158 35 c
158 238 l
218 205 280 181 344 165 c
408 149 476 141 547 141 c
662 141 754 171 821 232 c
888 293 922 375 922 479 c
922 583 888 665 821 726 c
754 787 662 817 547 817 c
493 817 439 811 385 799 c
332 787 277 768 221 743 c
221 1493 l

ce} _d
/six{1303 0 143 -29 1174 1520 sc
676 827 m
585 827 513 796 460 734 c
407 672 381 587 381 479 c
381 372 407 287 460 224 c
513 162 585 131 676 131 c
767 131 838 162 891 224 c
944 287 971 372 971 479 c
971 587 944 672 891 734 c
838 796 767 827 676 827 c

1077 1460 m
1077 1276 l
1026 1300 975 1318 923 1331 c
872 1344 821 1350 770 1350 c
637 1350 535 1305 464 1215 c
394 1125 354 989 344 807 c
383 865 433 909 492 940 c
551 971 617 987 688 987 c
838 987 956 941 1043 850 c
1130 759 1174 636 1174 479 c
1174 326 1129 203 1038 110 c
947 17 827 -29 676 -29 c
503 -29 371 37 280 169 c
189 302 143 494 143 745 c
143 981 199 1169 311 1309 c
423 1450 573 1520 762 1520 c
813 1520 864 1515 915 1505 c
967 1495 1021 1480 1077 1460 c

ce} _d
/eight{1303 0 139 -29 1163 1520 sc
651 709 m
555 709 479 683 424 632 c
369 581 342 510 342 420 c
342 330 369 259 424 208 c
479 157 555 131 651 131 c
747 131 823 157 878 208 c
933 260 961 331 961 420 c
961 510 933 581 878 632 c
823 683 748 709 651 709 c

449 795 m
362 816 295 857 246 916 c
198 975 174 1048 174 1133 c
174 1252 216 1347 301 1416 c
386 1485 503 1520 651 1520 c
800 1520 916 1485 1001 1416 c
1086 1347 1128 1252 1128 1133 c
1128 1048 1104 975 1055 916 c
1007 857 940 816 854 795 c
951 772 1027 728 1081 662 c
1136 596 1163 515 1163 420 c
1163 275 1119 164 1030 87 c
942 10 816 -29 651 -29 c
486 -29 360 10 271 87 c
183 164 139 275 139 420 c
139 515 166 596 221 662 c
276 728 352 772 449 795 c

375 1114 m
375 1037 399 976 447 933 c
496 890 564 868 651 868 c
738 868 805 890 854 933 c
903 976 928 1037 928 1114 c
928 1191 903 1252 854 1295 c
805 1338 738 1360 651 1360 c
564 1360 496 1338 447 1295 c
399 1252 375 1191 375 1114 c

ce} _d
/A{1401 0 16 0 1384 1493 sc
700 1294 m
426 551 l
975 551 l
700 1294 l

586 1493 m
815 1493 l
1384 0 l
1174 0 l
1038 383 l
365 383 l
229 0 l
16 0 l
586 1493 l

ce} _d
/E{1294 0 201 0 1163 1493 sc
201 1493 m
1145 1493 l
1145 1323 l
403 1323 l
403 881 l
1114 881 l
1114 711 l
403 711 l
403 170 l
1163 170 l
1163 0 l
201 0 l
201 1493 l

ce} _d
/M{1767 0 201 0 1567 1493 sc
201 1493 m
502 1493 l
883 477 l
1266 1493 l
1567 1493 l
1567 0 l
1370 0 l
1370 1311 l
985 287 l
782 287 l
397 1311 l
397 0 l
201 0 l
201 1493 l

ce} _d
/T{1251 0 -6 0 1257 1493 sc
-6 1493 m
1257 1493 l
1257 1323 l
727 1323 l
727 0 l
524 0 l
524 1323 l
-6 1323 l
-6 1493 l

ce} _d
/bracketleft{799 0 176 -270 600 1556 sc
176 1556 m
600 1556 l
600 1413 l
360 1413 l
360 -127 l
600 -127 l
600 -270 l
176 -270 l
176 1556 l

ce} _d
/bracketright{799 0 199 -270 623 1556 sc
623 1556 m
623 -270 l
199 -270 l
199 -127 l
438 -127 l
438 1413 l
199 1413 l
199 1556 l
623 1556 l

ce} _d
/a{1255 0 123 -29 1069 1147 sc
702 563 m
553 563 450 546 393 512 c
336 478 307 420 307 338 c
307 273 328 221 371 182 c
414 144 473 125 547 125 c
649 125 731 161 792 233 c
854 306 885 402 885 522 c
885 563 l
702 563 l

1069 639 m
1069 0 l
885 0 l
885 170 l
843 102 791 52 728 19 c
665 -13 589 -29 498 -29 c
383 -29 292 3 224 67 c
157 132 123 218 123 326 c
123 452 165 547 249 611 c
334 675 460 707 627 707 c
885 707 l
885 725 l
885 810 857 875 801 921 c
746 968 668 991 567 991 c
503 991 441 983 380 968 c
319 953 261 930 205 899 c
205 1069 l
272 1095 338 1114 401 1127 c
464 1140 526 1147 586 1147 c
748 1147 869 1105 949 1021 c
1029 937 1069 810 1069 639 c

ce} _d
/c{1126 0 113 -29 999 1147 sc
999 1077 m
999 905 l
947 934 895 955 842 969 c
790 984 737 991 684 991 c
565 991 472 953 406 877 c
340 802 307 696 307 559 c
307 422 340 316 406 240 c
472 165 565 127 684 127 c
737 127 790 134 842 148 c
895 163 947 184 999 213 c
999 43 l
948 19 894 1 839 -11 c
784 -23 726 -29 664 -29 c
495 -29 361 24 262 130 c
163 236 113 379 113 559 c
113 742 163 885 263 990 c
364 1095 501 1147 676 1147 c
733 1147 788 1141 842 1129 c
896 1118 948 1100 999 1077 c

ce} _d
/d{1300 0 113 -29 1114 1556 sc
930 950 m
930 1556 l
1114 1556 l
1114 0 l
930 0 l
930 168 l
891 101 842 52 783 19 c
724 -13 654 -29 571 -29 c
436 -29 325 25 240 133 c
155 241 113 383 113 559 c
113 735 155 877 240 985 c
325 1093 436 1147 571 1147 c
654 1147 724 1131 783 1098 c
842 1066 891 1017 930 950 c

303 559 m
303 424 331 317 386 240 c
442 163 519 125 616 125 c
713 125 790 163 846 240 c
902 317 930 424 930 559 c
930 694 902 800 846 877 c
790 954 713 993 616 993 c
519 993 442 954 386 877 c
331 800 303 694 303 559 c

ce} _d
/e{1260 0 113 -29 1151 1147 sc
1151 606 m
1151 516 l
305 516 l
313 389 351 293 419 226 c
488 160 583 127 705 127 c
776 127 844 136 910 153 c
977 170 1043 196 1108 231 c
1108 57 l
1042 29 974 8 905 -7 c
836 -22 765 -29 694 -29 c
515 -29 374 23 269 127 c
165 231 113 372 113 549 c
113 732 162 878 261 985 c
360 1093 494 1147 662 1147 c
813 1147 932 1098 1019 1001 c
1107 904 1151 773 1151 606 c

967 660 m
966 761 937 841 882 901 c
827 961 755 991 664 991 c
561 991 479 962 417 904 c
356 846 320 764 311 659 c
967 660 l

ce} _d
/g{1300 0 113 -426 1114 1147 sc
930 573 m
930 706 902 810 847 883 c
792 956 715 993 616 993 c
517 993 440 956 385 883 c
330 810 303 706 303 573 c
303 440 330 337 385 264 c
440 191 517 154 616 154 c
715 154 792 191 847 264 c
902 337 930 440 930 573 c

1114 139 m
1114 -52 1072 -193 987 -286 c
902 -379 773 -426 598 -426 c
533 -426 472 -421 415 -411 c
358 -402 302 -387 248 -367 c
248 -188 l
302 -217 355 -239 408 -253 c
461 -267 514 -274 569 -274 c
690 -274 780 -242 840 -179 c
900 -116 930 -21 930 106 c
930 197 l
892 131 843 82 784 49 c
725 16 654 0 571 0 c
434 0 323 52 239 157 c
155 262 113 400 113 573 c
113 746 155 885 239 990 c
323 1095 434 1147 571 1147 c
654 1147 725 1131 784 1098 c
843 1065 892 1016 930 950 c
930 1120 l
1114 1120 l
1114 139 l

ce} _d
/h{1298 0 186 0 1124 1556 sc
1124 676 m
1124 0 l
940 0 l
940 670 l
940 776 919 855 878 908 c
837 961 775 987 692 987 c
593 987 514 955 457 892 c
400 829 371 742 371 633 c
371 0 l
186 0 l
186 1556 l
371 1556 l
371 946 l
415 1013 467 1064 526 1097 c
586 1130 655 1147 733 1147 c
862 1147 959 1107 1025 1027 c
1091 948 1124 831 1124 676 c

ce} _d
/i{569 0 193 0 377 1556 sc
193 1120 m
377 1120 l
377 0 l
193 0 l
193 1120 l

193 1556 m
377 1556 l
377 1323 l
193 1323 l
193 1556 l

ce} _d
/l{569 0 193 0 377 1556 sc
193 1556 m
377 1556 l
377 0 l
193 0 l
193 1556 l

ce} _d
/m{1995 0 186 0 1821 1147 sc
1065 905 m
1111 988 1166 1049 1230 1088 c
1294 1127 1369 1147 1456 1147 c
1573 1147 1663 1106 1726 1024 c
1789 943 1821 827 1821 676 c
1821 0 l
1636 0 l
1636 670 l
1636 777 1617 857 1579 909 c
1541 961 1483 987 1405 987 c
1310 987 1234 955 1179 892 c
1124 829 1096 742 1096 633 c
1096 0 l
911 0 l
911 670 l
911 778 892 858 854 909 c
816 961 757 987 678 987 c
584 987 509 955 454 891 c
399 828 371 742 371 633 c
371 0 l
186 0 l
186 1120 l
371 1120 l
371 946 l
413 1015 463 1065 522 1098 c
581 1131 650 1147 731 1147 c
812 1147 881 1126 938 1085 c
995 1044 1038 984 1065 905 c

ce} _d
/n{1298 0 186 0 1124 1147 sc
1124 676 m
1124 0 l
940 0 l
940 670 l
940 776 919 855 878 908 c
837 961 775 987 692 987 c
593 987 514 955 457 892 c
400 829 371 742 371 633 c
371 0 l
186 0 l
186 1120 l
371 1120 l
371 946 l
415 1013 467 1064 526 1097 c
586 1130 655 1147 733 1147 c
862 1147 959 1107 1025 1027 c
1091 948 1124 831 1124 676 c

ce} _d
/o{1253 0 113 -29 1141 1147 sc
627 991 m
528 991 450 952 393 875 c
336 798 307 693 307 559 c
307 425 335 319 392 242 c
449 165 528 127 627 127 c
725 127 803 166 860 243 c
917 320 946 426 946 559 c
946 692 917 797 860 874 c
803 952 725 991 627 991 c

627 1147 m
787 1147 913 1095 1004 991 c
1095 887 1141 743 1141 559 c
1141 376 1095 232 1004 127 c
913 23 787 -29 627 -29 c
466 -29 340 23 249 127 c
158 232 113 376 113 559 c
113 743 158 887 249 991 c
340 1095 466 1147 627 1147 c

ce} _d
/p{1300 0 186 -426 1188 1147 sc
371 168 m
371 -426 l
186 -426 l
186 1120 l
371 1120 l
371 950 l
410 1017 458 1066 517 1098 c
576 1131 647 1147 729 1147 c
865 1147 975 1093 1060 985 c
1145 877 1188 735 1188 559 c
1188 383 1145 241 1060 133 c
975 25 865 -29 729 -29 c
647 -29 576 -13 517 19 c
458 52 410 101 371 168 c

997 559 m
997 694 969 800 913 877 c
858 954 781 993 684 993 c
587 993 510 954 454 877 c
399 800 371 694 371 559 c
371 424 399 317 454 240 c
510 163 587 125 684 125 c
781 125 858 163 913 240 c
969 317 997 424 997 559 c

ce} _d
/r{842 0 186 0 842 1147 sc
842 948 m
821 960 799 969 774 974 c
750 980 723 983 694 983 c
590 983 510 949 454 881 c
399 814 371 717 371 590 c
371 0 l
186 0 l
186 1120 l
371 1120 l
371 946 l
410 1014 460 1064 522 1097 c
584 1130 659 1147 748 1147 c
761 1147 775 1146 790 1144 c
805 1143 822 1140 841 1137 c
842 948 l

ce} _d
/s{1067 0 111 -29 967 1147 sc
907 1087 m
907 913 l
855 940 801 960 745 973 c
689 986 631 993 571 993 c
480 993 411 979 365 951 c
320 923 297 881 297 825 c
297 782 313 749 346 724 c
379 700 444 677 543 655 c
606 641 l
737 613 829 573 884 522 c
939 471 967 400 967 309 c
967 205 926 123 843 62 c
761 1 648 -29 504 -29 c
444 -29 381 -23 316 -11 c
251 0 183 18 111 41 c
111 231 l
179 196 246 169 312 151 c
378 134 443 125 508 125 c
595 125 661 140 708 169 c
755 199 778 241 778 295 c
778 345 761 383 727 410 c
694 437 620 462 506 487 c
442 502 l
328 526 246 563 195 612 c
144 662 119 730 119 817 c
119 922 156 1004 231 1061 c
306 1118 412 1147 549 1147 c
617 1147 681 1142 741 1132 c
801 1122 856 1107 907 1087 c

ce} _d
/t{803 0 55 0 754 1438 sc
375 1438 m
375 1120 l
754 1120 l
754 977 l
375 977 l
375 369 l
375 278 387 219 412 193 c
437 167 488 154 565 154 c
754 154 l
754 0 l
565 0 l
423 0 325 26 271 79 c
217 132 190 229 190 369 c
190 977 l
55 977 l
55 1120 l
190 1120 l
190 1438 l
375 1438 l

ce} _d
/x{1212 0 59 0 1145 1120 sc
1124 1120 m
719 575 l
1145 0 l
928 0 l
602 440 l
276 0 l
59 0 l
494 586 l
96 1120 l
313 1120 l
610 721 l
907 1120 l
1124 1120 l

ce} _d
end readonly def

/BuildGlyph {
 exch begin
 CharStrings exch
 2 copy known not {pop /.notdef} if
 true 3 1 roll get exec
 end
} _d

/BuildChar {
 1 index /Encoding get exch get
 1 index /BuildGlyph get exec
} _d

FontName currentdict end definefont pop
%!PS-Adobe-3.0 Resource-Font
%%Creator: Converted from TrueType to Type 3 by Matplotlib.
10 dict begin
/FontName /DejaVuSans-Oblique def
/PaintType 0 def
/FontMatrix [0.00048828125 0 0 0.00048828125 0 0] def
/FontBBox [-2080 -717 3398 2187] def
/FontType 3 def
/Encoding [/uni03BC] def
/CharStrings 2 dict dup begin
/.notdef 0 def
/uni03BC{1303 0 -27 -426 1212 1120 sc
-27 -426 m
274 1120 l
459 1120 l
323 423 l
320 409 318 393 316 376 c
314 359 313 341 313 324 c
313 262 332 214 371 181 c
410 148 466 131 539 131 c
638 131 717 159 778 215 c
839 271 880 355 901 467 c
1028 1120 l
1212 1120 l
1045 259 l
1042 246 1040 235 1039 226 c
1038 217 1038 208 1038 201 c
1038 180 1042 165 1050 155 c
1059 146 1072 141 1090 141 c
1097 141 1106 143 1117 146 c
1129 149 1146 155 1167 164 c
1139 16 l
1110 1 1082 -10 1055 -17 c
1028 -25 1002 -29 977 -29 c
933 -29 898 -15 873 13 c
848 41 836 80 836 129 c
799 76 754 36 702 10 c
651 -16 590 -29 520 -29 c
458 -29 404 -15 357 14 c
311 43 281 80 266 127 c
158 -426 l
-27 -426 l

ce} _d
end readonly def

/BuildGlyph {
 exch begin
 CharStrings exch
 2 copy known not {pop /.notdef} if
 true 3 1 roll get exec
 end
} _d

/BuildChar {
 1 index /Encoding get exch get
 1 index /BuildGlyph get exec
} _d

FontName currentdict end definefont pop
end
%%EndProlog
mpldict begin
0 0 translate
0 0 720 360 rectclip
gsave
0 0 m
720 0 l
720 360 l
0 360 l
cl
1 setgray
fill
grestore
gsave
83.81 65.72 m
709.2 65.72 l
709.2 325.92 l
83.81 325.92 l
cl
1 setgray
fill
grestore
1 setlinewidth
1 setlinejoin
0 setlinecap
[] 0 setdash
0.122 0.467 0.706 setrgbcolor
gsave
83.81 65.72 625.39 260.2 rectclip
514.273247 91.37914 m
514.273247 91.27689 l
514.273247 91.37914 l
514.273247 91.37914 l
cl
gsave
fill
grestore
stroke
grestore
gsave
83.81 65.72 625.39 260.2 rectclip
516.303734 91.262684 m
516.303734 90.980673 l
516.303734 91.262684 l
516.303734 91.262684 l
cl
gsave
fill
grestore
stroke
grestore
gsave
83.81 65.72 625.39 260.2 rectclip
518.334221 90.935752 m
518.334221 90.910296 l
520.364708 90.563363 l
520.364708 91.014407 l
520.364708 91.014407 l
518.334221 90.935752 l
cl
gsave
fill
grestore
stroke
grestore
gsave
83.81 65.72 625.39 260.2 rectclip
522.395195 90.823553 m
522.395195 90.734269 l
522.395195 90.823553 l
522.395195 90.823553 l
cl
gsave
fill
grestore
stroke
grestore
gsave
83.81 65.72 625.39 260.2 rectclip
524.425682 90.758925 m
524.425682 90.69329 l
524.425682 90.758925 l
524.425682 90.758925 l
cl
gsave
fill
grestore
stroke
grestore
gsave
83.81 65.72 625.39 260.2 rectclip
526.456169 90.441402 m
526.456169 90.40492 l
526.456169 90.441402 l
526.456169 90.441402 l
cl
gsave
fill
grestore
stroke
grestore
gsave
83.81 65.72 625.39 260.2 rectclip
528.486656 90.405626 m
528.486656 90.36691 l
528.486656 90.405626 l
528.486656 90.405626 l
cl
gsave
fill
grestore
stroke
grestore
gsave
83.81 65.72 625.39 260.2 rectclip
530.517143 90.212395 m
530.517143 90.169389 l
530.517143 90.212395 l
530.517143 90.212395 l
cl
gsave
fill
grestore
stroke
grestore
gsave
83.81 65.72 625.39 260.2 rectclip
536.608604 89.962596 m
536.608604 89.955023 l
536.608604 89.962596 l
536.608604 89.962596 l
cl
gsave
fill
grestore
stroke
grestore
gsave
83.81 65.72 625.39 260.2 rectclip
538.639091 89.975953 m
538.639091 89.947743 l
538.639091 89.975953 l
538.639091 89.975953 l
cl
gsave
fill
grestore
stroke
grestore
gsave
83.81 65.72 625.39 260.2 rectclip
540.669578 87.219697 m
540.669578 87.196477 l
540.669578 87.219697 l
540.669578 87.219697 l
cl
gsave
fill
grestore
stroke
grestore
gsave
83.81 65.72 625.39 260.2 rectclip
542.700065 86.724391 m
542.700065 86.719837 l
542.700065 86.724391 l
542.700065 86.724391 l
cl
gsave
fill
grestore
stroke
grestore
gsave
83.81 65.72 625.39 260.2 rectclip
544.730552 86.538516 m
544.730552 86.228373 l
544.730552 86.538516 l
544.730552 86.538516 l
cl
gsave
fill
grestore
stroke
grestore
gsave
83.81 65.72 625.39 260.2 rectclip
546.761039 86.243105 m
546.761039 85.741013 l
546.761039 86.243105 l
546.761039 86.243105 l
cl
gsave
fill
grestore
stroke
grestore
gsave
83.81 65.72 625.39 260.2 rectclip
548.791526 86.342242 m
548.791526 86.250326 l
548.791526 86.342242 l
548.791526 86.342242 l
cl
gsave
fill
grestore
stroke
grestore
gsave
83.81 65.72 625.39 260.2 rectclip
550.822013 86.21811 m
550.822013 85.925043 l
550.822013 86.21811 l
550.822013 86.21811 l
cl
gsave
fill
grestore
stroke
grestore
gsave
83.81 65.72 625.39 260.2 rectclip
552.8525 86.090646 m
552.8525 85.978156 l
552.8525 86.090646 l
552.8525 86.090646 l
cl
gsave
fill
grestore
stroke
grestore
gsave
83.81 65.72 625.39 260.2 rectclip
678.742695 81.445062 m
678.742695 81.35944 l
678.742695 81.445062 l
678.742695 81.445062 l
cl
gsave
fill
grestore
stroke
grestore
1 0.498 0.055 setrgbcolor
gsave
83.81 65.72 625.39 260.2 rectclip
/o {
gsave
newpath
translate
1.0 setlinewidth
1 setlinejoin

0 setlinecap

479.754968 100.803289 m
479.754968 95.817897 l
481.785455 95.415288 l
483.815942 93.741412 l
485.846429 93.526584 l
487.876916 93.895232 l
489.907403 96.422976 l
491.93789 93.660046 l
493.968377 93.249273 l
495.998864 93.162306 l
498.029351 92.552 l
500.059838 94.414697 l
502.090325 92.257396 l
504.120812 92.593818 l
506.151299 93.205837 l
508.181786 93.1367 l
510.212273 91.853951 l
512.24276 92.910914 l
514.273247 92.149513 l
516.303734 93.819862 l
518.334221 92.592445 l
520.364708 93.925005 l
522.395195 92.55463 l
524.425682 93.532647 l
526.456169 92.537976 l
528.486656 91.859178 l
530.517143 90.944337 l
532.54763 93.415703 l
534.578117 89.666334 l
536.608604 89.595402 l
538.639091 89.459357 l
540.669578 89.070418 l
542.700065 89.012401 l
544.730552 88.883833 l
546.761039 89.105425 l
548.791526 88.606251 l
550.822013 88.78043 l
552.8525 89.165453 l
554.882987 89.625834 l
556.913474 89.121168 l
558.943961 88.569918 l
560.974448 88.865582 l
563.004935 88.808707 l
565.035422 89.645241 l
567.065909 89.587734 l
569.096396 87.842171 l
571.126883 87.675415 l
573.15737 88.01981 l
575.187857 87.579577 l
577.218344 87.829066 l
579.248831 87.785772 l
579.248831 93.728796 l
579.248831 93.728796 l
577.218344 93.744681 l
575.187857 93.841518 l
573.15737 93.721821 l
571.126883 93.789966 l
569.096396 93.794568 l
567.065909 93.805655 l
565.035422 93.823022 l
563.004935 93.71329 l
560.974448 93.796934 l
558.943961 93.812146 l
556.913474 93.79813 l
554.882987 93.803935 l
552.8525 93.752933 l
550.822013 93.789484 l
548.791526 93.761532 l
546.761039 93.808014 l
544.730552 93.864256 l
542.700065 93.767392 l
540.669578 93.850647 l
538.639091 93.83345 l
536.608604 93.72382 l
534.578117 93.871992 l
532.54763 93.952229 l
530.517143 94.100333 l
528.486656 93.743954 l
526.456169 93.85839 l
524.425682 93.820902 l
522.395195 93.763837 l
520.364708 94.038476 l
518.334221 93.912151 l
516.303734 93.846032 l
514.273247 94.712543 l
512.24276 94.449486 l
510.212273 94.424737 l
508.181786 94.933971 l
506.151299 94.954996 l
504.120812 95.064666 l
502.090325 95.396445 l
500.059838 95.233027 l
498.029351 95.27509 l
495.998864 97.608908 l
493.968377 96.743811 l
491.93789 96.602797 l
489.907403 97.349182 l
487.876916 98.018348 l
485.846429 96.658536 l
483.815942 96.712916 l
481.785455 99.155148 l
479.754968 100.803289 l
cl

gsave
1 0.498 0.055 setrgbcolor
fill
grestore
stroke
grestore
} bind def
0 0 o
grestore
0.8 setlinewidth
2 setlinecap
0.69 setgray
gsave
83.81 65.72 625.39 260.2 rectclip
112.236818 65.72 m
112.236818 325.92 l
stroke
grestore
0 setlinecap
0 setgray
gsave
/o {
gsave
newpath
translate
0.8 setlinewidth
1 setlinejoin

0 setlinecap

0 0 m
0 -3.5 l

gsave
0 setgray
fill
grestore
stroke
grestore
} bind def
112.237 65.72 o
grestore
/DejaVuSans 20.000 selectfont
gsave

105.877 43.5169 translate
0 rotate
0 0 m /zero glyphshow
grestore
2 setlinecap
0.69 setgray
gsave
83.81 65.72 625.39 260.2 rectclip
213.761169 65.72 m
213.761169 325.92 l
stroke
grestore
0 setlinecap
0 setgray
gsave
/o {
gsave
newpath
translate
0.8 setlinewidth
1 setlinejoin

0 setlinecap

0 0 m
0 -3.5 l

gsave
0 setgray
fill
grestore
stroke
grestore
} bind def
213.761 65.72 o
grestore
/DejaVuSans 20.000 selectfont
gsave

201.042 43.5169 translate
0 rotate
0 0 m /five glyphshow
12.7246 0 m /zero glyphshow
grestore
2 setlinecap
0.69 setgray
gsave
83.81 65.72 625.39 260.2 rectclip
315.285519 65.72 m
315.285519 325.92 l
stroke
grestore
0 setlinecap
0 setgray
gsave
/o {
gsave
newpath
translate
0.8 setlinewidth
1 setlinejoin

0 setlinecap

0 0 m
0 -3.5 l

gsave
0 setgray
fill
grestore
stroke
grestore
} bind def
315.286 65.72 o
grestore
/DejaVuSans 20.000 selectfont
gsave

296.207 43.5169 translate
0 rotate
0 0 m /one glyphshow
12.7246 0 m /zero glyphshow
25.4492 0 m /zero glyphshow
grestore
2 setlinecap
0.69 setgray
gsave
83.81 65.72 625.39 260.2 rectclip
416.80987 65.72 m
416.80987 325.92 l
stroke
grestore
0 setlinecap
0 setgray
gsave
/o {
gsave
newpath
translate
0.8 setlinewidth
1 setlinejoin

0 setlinecap

0 0 m
0 -3.5 l

gsave
0 setgray
fill
grestore
stroke
grestore
} bind def
416.81 65.72 o
grestore
/DejaVuSans 20.000 selectfont
gsave

397.732 43.5169 translate
0 rotate
0 0 m /one glyphshow
12.7246 0 m /five glyphshow
25.4492 0 m /zero glyphshow
grestore
2 setlinecap
0.69 setgray
gsave
83.81 65.72 625.39 260.2 rectclip
518.334221 65.72 m
518.334221 325.92 l
stroke
grestore
0 setlinecap
0 setgray
gsave
/o {
gsave
newpath
translate
0.8 setlinewidth
1 setlinejoin

0 setlinecap

0 0 m
0 -3.5 l

gsave
0 setgray
fill
grestore
stroke
grestore
} bind def
518.334 65.72 o
grestore
/DejaVuSans 20.000 selectfont
gsave

499.256 43.5169 translate
0 rotate
0 0 m /two glyphshow
12.7246 0 m /zero glyphshow
25.4492 0 m /zero glyphshow
grestore
2 setlinecap
0.69 setgray
gsave
83.81 65.72 625.39 260.2 rectclip
619.858571 65.72 m
619.858571 325.92 l
stroke
grestore
0 setlinecap
0 setgray
gsave
/o {
gsave
newpath
translate
0.8 setlinewidth
1 setlinejoin

0 setlinecap

0 0 m
0 -3.5 l

gsave
0 setgray
fill
grestore
stroke
grestore
} bind def
619.859 65.72 o
grestore
/DejaVuSans 20.000 selectfont
gsave

600.78 43.5169 translate
0 rotate
0 0 m /two glyphshow
12.7246 0 m /five glyphshow
25.4492 0 m /zero glyphshow
grestore
/DejaVuSans 24.000 selectfont
gsave

359.747 17.1263 translate
0 rotate
0 0 m /E glyphshow
15.1641 0 m /p glyphshow
30.3984 0 m /o glyphshow
45.082 0 m /c glyphshow
58.2773 0 m /h glyphshow
grestore
2 setlinecap
0.69 setgray
gsave
83.81 65.72 625.39 260.2 rectclip
83.81 98.968611 m
709.2 98.968611 l
stroke
grestore
0 setlinecap
0 setgray
gsave
/o {
gsave
newpath
translate
0.8 setlinewidth
1 setlinejoin

0 setlinecap

-0 0 m
-3.5 0 l

gsave
0 setgray
fill
grestore
stroke
grestore
} bind def
83.81 98.9686 o
grestore
/DejaVuSans 20.000 selectfont
gsave

51.3725 91.367 translate
0 rotate
0 0 m /four glyphshow
12.7246 0 m /zero glyphshow
grestore
2 setlinecap
0.69 setgray
gsave
83.81 65.72 625.39 260.2 rectclip
83.81 134.607064 m
709.2 134.607064 l
stroke
grestore
0 setlinecap
0 setgray
gsave
/o {
gsave
newpath
translate
0.8 setlinewidth
1 setlinejoin

0 setlinecap

-0 0 m
-3.5 0 l

gsave
0 setgray
fill
grestore
stroke
grestore
} bind def
83.81 134.607 o
grestore
/DejaVuSans 20.000 selectfont
gsave

51.3725 127.006 translate
0 rotate
0 0 m /six glyphshow
12.7246 0 m /zero glyphshow
grestore
2 setlinecap
0.69 setgray
gsave
83.81 65.72 625.39 260.2 rectclip
83.81 170.245516 m
709.2 170.245516 l
stroke
grestore
0 setlinecap
0 setgray
gsave
/o {
gsave
newpath
translate
0.8 setlinewidth
1 setlinejoin

0 setlinecap

-0 0 m
-3.5 0 l

gsave
0 setgray
fill
grestore
stroke
grestore
} bind def
83.81 170.246 o
grestore
/DejaVuSans 20.000 selectfont
gsave

51.3725 162.644 translate
0 rotate
0 0 m /eight glyphshow
12.7246 0 m /zero glyphshow
grestore
2 setlinecap
0.69 setgray
gsave
83.81 65.72 625.39 260.2 rectclip
83.81 205.883969 m
709.2 205.883969 l
stroke
grestore
0 setlinecap
0 setgray
gsave
/o {
gsave
newpath
translate
0.8 setlinewidth
1 setlinejoin

0 setlinecap

-0 0 m
-3.5 0 l

gsave
0 setgray
fill
grestore
stroke
grestore
} bind def
83.81 205.884 o
grestore
/DejaVuSans 20.000 selectfont
gsave

38.6538 198.282 translate
0 rotate
0 0 m /one glyphshow
12.7246 0 m /zero glyphshow
25.4492 0 m /zero glyphshow
grestore
2 setlinecap
0.69 setgray
gsave
83.81 65.72 625.39 260.2 rectclip
83.81 241.522422 m
709.2 241.522422 l
stroke
grestore
0 setlinecap
0 setgray
gsave
/o {
gsave
newpath
translate
0.8 setlinewidth
1 setlinejoin

0 setlinecap

-0 0 m
-3.5 0 l

gsave
0 setgray
fill
grestore
stroke
grestore
} bind def
83.81 241.522 o
grestore
/DejaVuSans 20.000 selectfont
gsave

38.6538 233.921 translate
0 rotate
0 0 m /one glyphshow
12.7246 0 m /two glyphshow
25.4492 0 m /zero glyphshow
grestore
2 setlinecap
0.69 setgray
gsave
83.81 65.72 625.39 260.2 rectclip
83.81 277.160874 m
709.2 277.160874 l
stroke
grestore
0 setlinecap
0 setgray
gsave
/o {
gsave
newpath
translate
0.8 setlinewidth
1 setlinejoin

0 setlinecap

-0 0 m
-3.5 0 l

gsave
0 setgray
fill
grestore
stroke
grestore
} bind def
83.81 277.161 o
grestore
/DejaVuSans 20.000 selectfont
gsave

38.6538 269.559 translate
0 rotate
0 0 m /one glyphshow
12.7246 0 m /four glyphshow
25.4492 0 m /zero glyphshow
grestore
2 setlinecap
0.69 setgray
gsave
83.81 65.72 625.39 260.2 rectclip
83.81 312.799327 m
709.2 312.799327 l
stroke
grestore
0 setlinecap
0 setgray
gsave
/o {
gsave
newpath
translate
0.8 setlinewidth
1 setlinejoin

0 setlinecap

-0 0 m
-3.5 0 l

gsave
0 setgray
fill
grestore
stroke
grestore
} bind def
83.81 312.799 o
grestore
/DejaVuSans 20.000 selectfont
gsave

38.6538 305.198 translate
0 rotate
0 0 m /one glyphshow
12.7246 0 m /six glyphshow
25.4492 0 m /zero glyphshow
grestore
/DejaVuSans 24.000 selectfont
gsave

29.6537 128.101 translate
90 rotate
0 0 m /M glyphshow
20.707 0 m /A glyphshow
37.125 0 m /E glyphshow
52.2891 0 m /space glyphshow
59.918 0 m /bracketleft glyphshow
69.2812 0 m /p glyphshow
84.5156 0 m /i glyphshow
91.1836 0 m /x glyphshow
104.637 0 m /e glyphshow
119.402 0 m /l glyphshow
126.07 0 m /bracketright glyphshow
grestore
1.5 setlinewidth
2 setlinecap
0.122 0.467 0.706 setrgbcolor
gsave
83.81 65.72 625.39 260.2 rectclip
112.236818 314.092727 m
112.271452 297.175039 l
112.615855 293.612146 l
112.659804 289.702009 l
112.968691 288.851778 l
113.007384 284.534335 l
113.345508 279.729458 l
113.392679 271.569472 l
113.698347 270.744827 l
113.747127 263.182369 l
114.07227 260.421688 l
114.109007 255.739764 l
114.4393 253.009033 l
114.483556 248.522306 l
114.828706 247.420975 l
114.888715 242.691808 l
115.238563 242.323384 l
115.293688 238.129792 l
115.611792 237.292585 l
116.229758 194.361956 l
116.23128 194.408831 l
116.686507 194.435926 l
116.703202 194.703788 l
116.760556 193.858058 l
116.77281 193.679093 l
117.26277 193.501869 l
117.350791 192.435886 l
117.846661 192.407703 l
117.934417 191.360236 l
118.429925 191.065755 l
118.497706 190.341645 l
119.017956 189.915823 l
119.07406 189.342862 l
119.571233 189.147135 l
119.647223 188.294593 l
120.144523 188.153477 l
120.20639 187.61241 l
120.742398 187.251246 l
120.787614 186.759895 l
121.45182 186.323877 l
122.56766 175.643992 l
122.614195 176.720661 l
122.657601 176.861954 l
123.360244 176.915898 l
123.370167 177.157291 l
123.464305 176.753289 l
124.207579 176.528197 l
124.280775 176.141202 l
125.045537 175.553409 l
125.102432 175.231873 l
125.813548 174.994722 l
125.914806 174.487099 l
126.616289 174.349436 l
126.724167 173.756966 l
127.467327 173.367674 l
127.536105 172.919773 l
128.237587 172.802177 l
128.320506 172.338411 l
129.025822 172.028907 l
129.114265 171.464402 l
129.849354 171.195493 l
129.947001 170.659144 l
131.107744 161.413041 l
131.153419 162.295641 l
131.180375 161.795835 l
132.025975 162.225206 l
132.149373 161.73807 l
132.962741 161.53424 l
133.059656 161.135894 l
133.854723 160.936509 l
133.928695 160.626353 l
134.742926 160.365982 l
134.855401 159.967227 l
135.68829 159.586663 l
135.770466 159.197669 l
136.513996 159.177331 l
136.657747 158.667818 l
137.483635 158.493326 l
137.553026 158.194509 l
138.360296 157.940636 l
138.425506 157.661082 l
139.261557 157.400058 l
140.646798 151.643096 l
140.76113 150.722239 l
140.806034 151.09394 l
141.75581 151.35302 l
141.787396 151.638827 l
141.89111 151.567535 l
141.922531 151.468931 l
142.815906 151.51325 l
142.992439 151.079312 l
143.967724 151.129722 l
144.107491 150.891184 l
145.222602 150.663441 l
145.258924 150.594569 l
146.400767 150.383017 l
146.450376 150.227993 l
147.485971 150.006885 l
147.558612 149.862451 l
148.741433 149.564707 l
148.782573 149.484837 l
149.81935 149.33313 l
149.909857 149.093478 l
150.898882 149.005274 l
151.012592 148.879098 l
152.687408 145.317089 l
153.805581 146.147688 l
153.848319 145.96924 l
153.927943 145.999625 l
155.080456 145.856076 l
155.219174 145.660077 l
156.380566 145.559555 l
157.571484 145.303167 l
157.704704 145.197453 l
159.023122 145.060021 l
159.103098 144.926137 l
160.495513 144.839632 l
160.563867 144.77734 l
163.457947 144.491098 l
163.563128 144.336088 l
164.866986 144.255279 l
167.177194 141.994391 l
167.196078 142.219089 l
167.226872 142.014199 l
168.665294 142.086239 l
170.242697 141.858632 l
170.311888 141.795469 l
170.318241 141.815971 l
171.750913 141.74457 l
173.403948 141.606193 l
173.422632 141.560568 l
175.083477 141.468897 l
175.201305 141.305825 l
176.771388 141.187433 l
176.84583 141.082079 l
178.424339 140.964326 l
178.449317 140.920849 l
179.917198 140.833848 l
180.048044 140.655998 l
181.548752 140.533718 l
181.623167 140.500995 l
183.909681 139.713655 l
184.001716 138.258624 l
184.087736 138.273483 l
184.158018 138.319856 l
185.681247 138.501478 l
185.851731 138.969866 l
187.604825 138.882641 l
187.764155 138.887705 l
194.675728 138.627259 l
198.03288 138.421716 l
198.08247 138.349092 l
199.87267 138.172343 l
202.303465 134.77885 l
202.34229 133.878345 l
202.435271 136.002494 l
202.482324 135.748975 l
202.59996 136.284597 l
204.241179 136.470787 l
204.256907 136.729493 l
204.452147 136.935688 l
206.350786 136.733442 l
211.934835 136.567652 l
212.172427 136.406653 l
216.00764 136.230972 l
219.587713 136.039615 l
219.824279 135.99537 l
222.691094 134.430227 l
222.837007 134.896657 l
224.983364 135.036489 l
227.199632 134.7527 l
231.381951 134.848028 l
231.41631 134.89266 l
231.442249 134.852582 l
235.334714 134.701882 l
235.645031 134.580948 l
237.792298 134.565123 l
239.92055 134.430818 l
239.954724 134.3942 l
242.01513 134.302148 l
245.033899 132.437058 l
245.110985 131.971457 l
245.149271 132.348902 l
245.255149 132.945341 l
245.360734 132.797482 l
247.395176 133.189847 l
247.461788 133.346108 l
247.635556 133.366942 l
249.816252 133.190744 l
249.854775 133.166552 l
250.018251 133.347216 l
250.076057 133.26101 l
261.495169 133.020045 l
261.764781 133.103424 l
264.128103 132.991496 l
264.205017 132.976786 l
266.7079 132.873328 l
269.942588 129.980987 l
270.051883 130.973673 l
270.150316 130.860026 l
270.259167 131.385493 l
272.280069 131.779673 l
272.507599 132.079993 l
276.984735 131.854391 l
277.034985 131.877454 l
277.136702 131.803002 l
277.176925 131.84172 l
277.217365 131.866918 l
277.258152 131.799603 l
282.20844 131.779469 l
282.23908 131.762788 l
292.357169 131.488359 l
295.830333 130.461862 l
295.894677 130.033484 l
296.002719 130.824842 l
296.199822 130.632371 l
296.232261 130.48494 l
296.243074 130.547273 l
298.79222 130.899791 l
301.37331 130.685711 l
301.534884 130.839314 l
306.928436 130.8573 l
312.374939 130.594087 l
314.775144 130.6945 l
314.894669 130.685181 l
317.675632 130.475342 l
317.708461 130.446575 l
320.258944 130.409671 l
324.034037 119.460334 l
324.06872 130.144508 l
324.149618 129.121002 l
324.275285 129.800724 l
324.356471 129.547633 l
324.402971 129.825297 l
326.86807 129.738983 l
327.147698 130.047793 l
327.182684 129.974387 l
330.026829 129.804667 l
332.948853 129.827058 l
347.266342 129.579446 l
347.591954 129.464004 l
350.377844 129.423164 l
353.86812 126.879596 l
353.88489 129.251888 l
353.987648 128.745114 l
354.000113 128.751483 l
354.001631 128.739248 l
354.022079 125.153236 l
354.112541 127.946415 l
354.126275 127.993264 l
354.14188 127.745719 l
361.731214 126.89659 l
361.895712 127.777661 l
362.270064 127.922053 l
362.299347 128.038406 l
362.369542 127.964055 l
362.845309 127.932474 l
363.092281 127.764895 l
363.774602 127.487401 l
363.823225 126.81504 l
363.905157 127.039371 l
364.010095 127.570011 l
364.069746 127.427549 l
364.370183 127.474785 l
364.791381 127.257659 l
364.9622 127.258359 l
365.16348 127.103791 l
365.851784 127.078062 l
366.1546 126.806849 l
366.36496 126.847954 l
366.788953 126.71647 l
366.993186 126.755358 l
367.264776 126.604549 l
367.994251 125.83338 l
368.190689 126.513435 l
368.464342 126.168157 l
368.730176 126.27521 l
368.878283 126.143604 l
368.88206 126.155466 l
369.085545 126.192648 l
369.391694 126.005064 l
370.11736 125.302631 l
370.247772 125.766397 l
370.303211 125.584252 l
370.373877 125.499256 l
370.399711 125.599152 l
370.643511 125.642248 l
371.392352 125.301857 l
372.392645 124.987384 l
372.908083 125.080714 l
373.205051 125.107829 l
373.485065 124.96156 l
374.420854 124.277624 l
374.615448 124.446664 l
375.433362 124.755073 l
375.551477 124.720949 l
376.330862 124.792439 l
378.090506 124.666406 l
380.7923 124.621278 l
382.511941 124.510186 l
388.063221 124.514292 l
394.983688 123.263702 l
396.237073 123.926241 l
396.541553 124.197603 l
396.907908 124.078437 l
396.947653 124.205142 l
397.168747 124.115061 l
397.480943 124.252323 l
397.741827 124.154317 l
398.310439 122.689695 l
398.560889 124.127277 l
398.69632 123.882791 l
399.253074 123.933677 l
399.335809 123.847702 l
399.393007 123.938184 l
399.639963 123.7686 l
400.28613 124.52478 l
400.34328 123.075554 l
400.497227 123.570195 l
400.540233 123.445148 l
400.950122 123.577121 l
401.519344 123.513952 l
402.352857 122.968406 l
402.360253 122.982164 l
402.393267 122.769157 l
402.482053 122.890866 l
402.712188 123.321583 l
402.767853 123.287833 l
402.978229 123.16055 l
403.25794 123.030657 l
403.519513 123.135787 l
403.765289 123.006818 l
404.618003 122.995765 l
404.932814 123.119385 l
405.340601 122.897263 l
405.666284 122.95254 l
405.814627 122.849273 l
406.522405 121.999558 l
406.607849 122.656407 l
406.659635 122.607057 l
406.90383 122.905032 l
406.973772 122.729861 l
407.048314 122.781332 l
407.203347 122.823748 l
407.529318 122.604726 l
407.569715 122.695031 l
407.794775 122.557952 l
407.927008 122.497713 l
408.593848 121.100936 l
408.822999 122.45461 l
408.834148 122.417788 l
409.068536 122.378886 l
409.346614 122.377771 l
409.555021 122.309021 l
409.783908 122.341309 l
409.952537 122.253792 l
410.877063 122.433137 l
411.208125 122.073746 l
411.601134 122.058187 l
411.648632 121.997227 l
412.019633 121.995181 l
412.645184 120.265674 l
412.819441 122.100304 l
412.84863 121.965693 l
413.062234 122.072176 l
413.069844 122.021936 l
413.177044 121.989016 l
413.883797 122.001414 l
414.011766 121.852733 l
415.026041 121.74523 l
415.392327 121.837173 l
415.610071 121.662423 l
415.983336 121.674767 l
416.02408 121.647632 l
416.74814 120.584232 l
417.007964 121.620483 l
417.202005 121.621196 l
417.43411 121.720671 l
417.441074 121.682285 l
417.550297 121.622277 l
417.639092 121.538158 l
417.893008 121.565491 l
418.082983 121.456275 l
418.718044 119.905842 l
418.880809 121.210369 l
418.955088 121.326538 l
419.075872 121.260175 l
419.289838 121.512321 l
419.702346 121.371538 l
419.880546 121.492472 l
419.955694 121.361131 l
420.098465 121.335566 l
420.693138 120.189467 l
420.710973 120.297323 l
420.842821 121.290417 l
420.900966 121.203687 l
421.555822 121.217337 l
421.618304 121.163365 l
421.644022 121.212966 l
421.891084 121.253914 l
422.100387 121.223801 l
422.91189 121.243962 l
423.00246 121.502362 l
423.068487 121.380504 l
423.164404 121.425442 l
423.319509 121.281376 l
423.654509 121.283585 l
423.787371 121.314058 l
423.805786 121.34184 l
424.104498 121.175777 l
424.735996 121.901212 l
424.788171 120.20383 l
424.806562 120.397137 l
425.22754 121.0987 l
425.588473 120.978826 l
425.85957 121.029454 l
426.149254 120.936777 l
426.974234 120.396009 l
427.009398 120.504123 l
427.141433 121.081815 l
427.205628 120.922699 l
427.323052 120.846261 l
428.279011 120.70989 l
428.94541 119.474479 l
429.027833 120.21852 l
429.570613 120.785648 l
429.606493 120.809922 l
430.346966 120.650378 l
430.962469 119.398007 l
431.192602 120.679546 l
431.267774 120.588025 l
432.232123 120.476226 l
432.349865 120.499419 l
433.433086 120.6581 l
434.18207 120.361743 l
434.906012 116.316812 l
435.131954 120.237784 l
435.348394 120.446195 l
435.547336 120.477321 l
435.808737 120.369852 l
436.170109 120.348392 l
436.264145 120.331983 l
437.340882 120.110569 l
437.627304 120.321869 l
437.910325 120.148791 l
438.167976 120.156431 l
438.331687 120.103452 l
439.073387 118.930557 l
439.087932 119.052103 l
439.248084 120.407701 l
439.752603 119.950032 l
440.42607 119.978588 l
441.158084 118.951222 l
441.469461 120.139662 l
441.80104 120.07357 l
442.131335 119.886911 l
442.153502 119.932379 l
442.501176 119.903694 l
443.232869 119.224195 l
443.396205 120.04793 l
443.436509 120.042281 l
443.465551 120.107088 l
444.083003 119.975122 l
444.337074 120.023996 l
444.62004 119.903252 l
445.225502 118.12035 l
445.23252 117.485022 l
445.312808 118.848953 l
445.510354 119.92187 l
445.52496 119.775554 l
445.796622 119.854588 l
446.667983 119.817535 l
447.457191 119.228009 l
447.498193 119.473698 l
447.733518 119.897066 l
447.814439 119.771278 l
448.713177 119.655483 l
449.354444 118.94594 l
449.474242 119.778076 l
449.499589 119.646109 l
449.694466 119.66207 l
450.108388 119.716932 l
450.242635 119.662865 l
450.726108 119.626233 l
451.406588 119.252337 l
451.541316 119.785662 l
452.382368 119.667868 l
452.475203 119.670193 l
452.705092 119.587046 l
453.34836 117.88118 l
453.490976 119.129044 l
453.827817 119.426108 l
454.104412 119.467702 l
454.129597 119.430486 l
454.276404 119.493512 l
454.642995 119.389307 l
455.305252 118.400815 l
455.308771 117.992992 l
455.405689 119.546302 l
455.409411 119.456493 l
455.438351 119.473704 l
456.120612 119.497774 l
456.200485 119.419066 l
456.711546 119.420942 l
457.390711 118.947762 l
457.570126 119.492635 l
458.124686 119.293951 l
458.734974 119.311822 l
459.373508 118.20816 l
459.811668 119.607153 l
459.870446 119.542515 l
459.922118 119.573267 l
460.113234 119.387675 l
460.481099 119.262928 l
461.49652 118.10891 l
461.709304 119.262785 l
462.462112 119.075704 l
462.46951 119.104818 l
462.855562 119.154229 l
463.660359 118.908275 l
463.696869 119.118902 l
463.928796 119.136467 l
464.228044 119.301592 l
464.452894 119.161013 l
464.986644 119.197563 l
465.631599 116.869475 l
465.642582 117.123559 l
466.542559 116.578372 l
466.821656 116.538661 l
467.600557 115.401502 l
467.750821 115.955552 l
468.019564 116.112921 l
468.181287 116.100291 l
468.51912 115.962315 l
468.886373 116.004895 l
469.06306 115.966339 l
469.682663 115.000701 l
469.925093 116.021012 l
469.954291 115.877646 l
470.509937 115.981987 l
470.991864 115.909927 l
471.750467 115.184403 l
471.868447 115.858722 l
471.949884 116.080775 l
472.045587 115.910199 l
472.30619 115.816774 l
473.02756 115.752864 l
473.736541 115.004936 l
473.872698 115.779374 l
473.954187 116.05453 l
474.042829 115.966054 l
474.840705 115.806619 l
475.095107 115.744068 l
475.711401 114.025811 l
475.712287 114.257619 l
475.746832 115.940332 l
475.833447 115.706546 l
475.872213 115.753034 l
475.948424 115.678078 l
476.043558 115.602918 l
476.19129 114.182119 l
476.259138 115.570283 l
476.341508 115.403582 l
476.406898 115.326111 l
476.459824 115.419814 l
476.472284 115.426251 l
476.473165 115.418366 l
476.691793 114.512015 l
476.697969 114.649012 l
476.788839 115.567347 l
476.853307 115.450355 l
476.989202 115.31013 l
477.18655 115.110657 l
477.225357 115.566103 l
477.283593 115.43205 l
477.516928 115.284544 l
485.7881 95.67674 l
486.364956 96.260366 l
486.6992 96.286319 l
486.930914 96.121208 l
486.946156 95.782149 l
487.199679 96.087635 l
487.594563 93.783298 l
487.661788 96.011877 l
487.745416 94.40862 l
487.764945 95.993592 l
487.999656 94.44483 l
488.01045 95.96891 l
488.16638 95.946404 l
488.325197 94.842089 l
488.440721 94.904042 l
488.46874 92.381709 l
488.509997 94.920288 l
488.664617 93.941822 l
488.694254 95.909473 l
488.770932 94.197442 l
488.88718 95.877708 l
488.978184 94.297284 l
489.173306 94.774305 l
489.221341 95.858553 l
489.189781 94.198536 l
489.249183 94.218263 l
489.330479 94.157337 l
489.382193 94.863148 l
489.400705 94.143341 l
489.450965 94.836774 l
489.478353 94.171482 l
489.654954 94.180061 l
489.660998 95.857717 l
489.754302 94.176322 l
489.798733 94.172978 l
489.845679 94.830717 l
489.872637 94.186145 l
490.403001 94.796634 l
491.295457 94.793943 l
491.919036 94.727755 l
492.011315 93.750949 l
492.023084 93.756828 l
492.381849 93.790394 l
492.445065 93.734172 l
492.602466 93.789116 l
492.885119 93.749134 l
493.191322 93.850688 l
493.25041 93.683579 l
493.383059 93.220071 l
494.495691 93.480802 l
494.55258 93.466018 l
494.860562 93.546806 l
495.328901 93.404256 l
495.51673 92.479599 l
496.077963 93.109578 l
497.467992 93.177152 l
497.512185 93.03607 l
498.107708 92.795445 l
498.113318 92.80785 l
498.452718 92.871659 l
498.502966 92.826047 l
498.82468 92.83417 l
499.109985 92.966823 l
499.763533 92.992919 l
499.911031 92.583146 l
500.216561 92.483841 l
500.613704 92.429366 l
500.62018 92.425702 l
500.943996 92.486342 l
501.312593 92.194866 l
501.345777 92.522655 l
501.417505 92.490543 l
501.48379 92.552992 l
501.670816 92.280127 l
501.686999 92.62998 l
502.081602 92.702258 l
502.108576 92.415417 l
502.418473 92.4869 l
502.610137 92.809427 l
502.694098 92.522675 l
502.756692 92.477934 l
502.852512 91.520602 l
502.893385 91.627744 l
502.931048 92.504505 l
503.179587 92.120726 l
503.549224 92.723222 l
503.88354 92.47548 l
504.067634 92.47563 l
504.228685 92.198387 l
504.289484 94.280276 l
504.471925 92.233516 l
504.745458 92.255819 l
505.069848 92.62079 l
505.075002 92.279923 l
505.104444 92.642372 l
505.285445 92.279243 l
505.32184 92.632115 l
505.576224 92.589257 l
505.946274 92.396663 l
506.128489 90.958531 l
506.144131 92.355763 l
506.236061 91.047843 l
506.405408 91.478036 l
506.418726 91.8364 l
506.475619 91.738067 l
506.841206 91.776908 l
507.457427 91.855916 l
507.642568 91.761716 l
507.913272 91.887973 l
508.289079 91.69544 l
508.789767 91.745164 l
508.901952 91.943726 l
508.94971 91.740392 l
508.989311 91.929641 l
509.025108 91.926474 l
509.243118 91.755979 l
509.697567 91.787451 l
509.745657 90.393598 l
509.883087 91.748277 l
509.923579 91.591262 l
509.939123 91.562264 l
509.970181 91.696514 l
509.980661 91.73942 l
510.032156 91.723636 l
510.297897 91.590643 l
510.330608 91.915523 l
510.552589 91.918854 l
510.733783 91.589447 l
510.856235 91.832417 l
511.00465 91.208509 l
511.051288 91.413956 l
511.182991 91.760078 l
511.257916 91.677556 l
511.344923 91.766671 l
511.3779 91.692028 l
511.651925 91.576328 l
511.764882 91.65594 l
511.837904 91.458466 l
511.867435 91.607243 l
511.969384 91.656667 l
512.08075 91.483705 l
520.468807 90.853727 l
522.101421 89.424683 l
522.578455 90.738829 l
523.749794 88.332774 l
523.785513 89.5132 l
524.04822 90.734811 l
525.843631 90.380655 l
525.890457 90.59946 l
526.140629 90.44479 l
526.294515 90.37054 l
526.531218 90.488898 l
527.448821 90.654676 l
527.520795 90.051425 l
527.546692 90.075713 l
527.937138 90.529969 l
528.268542 90.481177 l
528.315691 90.416641 l
528.587287 90.334996 l
529.519007 89.421855 l
529.565023 90.05252 l
529.767162 90.417647 l
529.968227 90.303368 l
530.693849 90.218576 l
531.376657 88.71847 l
531.575419 90.067794 l
531.820235 90.346219 l
532.406687 90.084767 l
532.746178 90.207142 l
533.354446 89.768412 l
533.598214 90.426355 l
533.601772 90.424485 l
533.74841 90.220024 l
534.207583 90.113575 l
534.317741 90.053233 l
534.500997 90.040474 l
534.778008 90.010368 l
535.705684 90.202948 l
536.406133 89.999853 l
536.608604 89.958517 l
537.2595 83.245331 l
537.493337 90.217842 l
537.51815 90.216666 l
537.898431 90.141621 l
537.988276 90.078744 l
538.639091 89.963357 l
539.344377 88.04664 l
540.669578 87.208087 l
541.061863 86.582969 l
541.263613 87.030911 l
542.700065 86.722114 l
542.783363 86.16629 l
543.304925 86.736885 l
544.047482 86.583445 l
544.084726 86.534612 l
544.674896 86.555297 l
544.730552 86.397153 l
544.792026 86.444667 l
545.328718 86.459663 l
546.154754 86.332631 l
546.341716 86.330449 l
546.678948 86.337899 l
546.761039 86.031055 l
546.841808 86.401034 l
547.539616 86.32722 l
548.230361 86.250449 l
548.791526 86.295839 l
549.304536 86.111638 l
552.562208 86.070411 l
554.971842 85.704386 l
555.000638 85.912471 l
555.169179 85.696154 l
555.660462 84.373855 l
555.806024 85.770111 l
556.149965 85.941252 l
556.393392 85.752852 l
556.459198 85.738707 l
556.470223 83.827652 l
556.50768 84.665025 l
556.583154 85.737225 l
556.670843 85.457481 l
556.677867 85.371982 l
556.737462 85.408077 l
557.166006 85.681859 l
557.180921 85.647974 l
557.782485 85.669814 l
558.286654 85.643854 l
558.414916 85.133913 l
558.679909 85.848445 l
558.788181 85.972432 l
558.821244 85.942604 l
559.295877 85.840792 l
559.420775 85.904165 l
559.538247 85.8319 l
559.880045 84.101992 l
560.079211 85.677815 l
560.198835 85.613714 l
561.518635 85.604341 l
561.580562 85.154897 l
561.886759 85.7321 l
561.977267 85.486044 l
562.185831 85.475977 l
562.215043 85.832825 l
562.38593 85.489769 l
562.565162 85.701388 l
562.671143 85.521649 l
562.746805 85.508516 l
562.80625 85.707472 l
563.026063 84.94151 l
563.102013 85.652018 l
563.22228 85.58301 l
563.270564 85.332998 l
563.474851 85.621926 l
564.002289 85.489048 l
564.812776 85.492202 l
565.282954 85.400219 l
565.44449 84.498198 l
565.973322 85.355539 l
565.998934 85.338423 l
567.170518 85.38194 l
567.195066 85.311314 l
567.202217 85.386379 l
567.423414 85.287142 l
567.434352 85.26089 l
567.512684 85.387786 l
567.702481 84.648922 l
568.086146 85.366136 l
569.467875 85.253998 l
569.66151 85.480742 l
569.695189 85.445014 l
569.701824 85.253352 l
569.771451 85.410524 l
569.871463 85.129862 l
569.976373 84.487291 l
570.092152 85.27072 l
570.172051 85.201949 l
570.37461 85.264731 l
571.110809 85.165426 l
571.293279 84.038198 l
571.636931 84.220598 l
571.70094 83.98794 l
571.886392 84.5101 l
571.981416 84.459235 l
572.109767 83.98755 l
572.771468 83.960873 l
572.83297 83.977486 l
573.003365 85.224408 l
573.085623 83.977873 l
573.148665 85.226998 l
573.177554 83.783077 l
573.314556 83.768476 l
573.917429 82.910836 l
574.122103 83.823567 l
574.786774 83.559423 l
575.13866 83.586504 l
575.208428 83.921583 l
575.31018 83.882086 l
575.353567 83.888293 l
575.709052 83.392011 l
575.967119 83.845281 l
576.053732 83.655234 l
576.073297 83.112005 l
576.073788 83.716027 l
576.084178 83.404664 l
576.208101 84.028746 l
576.278228 83.688596 l
576.288934 84.130824 l
576.365631 84.02516 l
576.366122 83.644351 l
576.453135 84.082664 l
576.496928 84.061136 l
576.526045 84.064028 l
576.601114 83.556996 l
576.778935 83.503197 l
576.811786 83.927817 l
577.170942 83.783631 l
577.252497 82.991883 l
577.296324 83.622514 l
577.342224 83.447682 l
577.403659 82.869113 l
577.415579 83.598175 l
577.445062 83.483172 l
577.498727 83.335643 l
577.505443 83.349278 l
586.22926 82.801251 l
586.403148 83.742955 l
586.572848 83.678508 l
586.823277 83.558488 l
587.250426 83.353374 l
587.395735 83.34484 l
587.65539 83.32911 l
588.220276 82.950938 l
588.271047 82.763249 l
588.524647 83.669536 l
588.636724 83.670813 l
588.839213 83.489297 l
589.659913 83.251337 l
590.261588 81.429689 l
590.575389 83.377138 l
591.722214 83.163278 l
592.354478 82.736369 l
592.55775 83.473822 l
593.806868 83.135857 l
594.429695 82.556 l
594.595441 83.316953 l
594.718978 83.215558 l
594.727387 83.193544 l
594.754183 83.267222 l
595.782186 83.094284 l
596.74212 83.227681 l
597.742455 83.012021 l
597.878258 83.037674 l
598.539239 82.854023 l
598.558648 82.931664 l
598.730542 83.160131 l
598.906056 83.191291 l
599.903117 83.013632 l
600.51643 82.42455 l
600.708642 83.07539 l
601.147484 83.108582 l
601.931409 82.953039 l
602.545801 83.219752 l
602.616544 82.377784 l
602.628463 82.449419 l
602.817338 83.130113 l
603.998166 82.909327 l
604.627392 83.30968 l
604.691037 82.196668 l
604.89641 83.087378 l
604.908413 83.076121 l
605.071898 83.107604 l
606.106738 82.880951 l
606.758247 81.996356 l
606.765877 82.051749 l
607.045851 83.116899 l
607.1443 83.081087 l
607.2033 83.044169 l
607.289107 83.10168 l
608.000806 82.852334 l
608.973933 82.882783 l
609.593919 82.973666 l
609.904673 82.861079 l
609.927768 82.887538 l
609.96225 82.827921 l
610.231172 82.826765 l
610.8216 81.524243 l
610.965153 82.549023 l
611.219076 82.571771 l
611.292518 82.484657 l
611.369136 82.55531 l
611.747016 82.40375 l
611.915316 82.378664 l
612.294379 82.327632 l
612.82189 81.847164 l
612.969188 82.295221 l
613.062479 82.578079 l
613.074194 82.560891 l
613.612692 82.457066 l
614.072343 82.247693 l
614.25156 82.234088 l
615.117165 82.438754 l
616.34437 82.147131 l
616.883036 80.814397 l
616.929986 81.754532 l
617.199833 82.42921 l
617.991949 82.178345 l
618.197499 82.162235 l
618.334569 82.128598 l
619.285609 82.376169 l
619.76992 82.190768 l
620.181434 82.058526 l
620.341666 82.062322 l
621.017563 80.270587 l
621.303905 82.299871 l
622.005325 82.053553 l
622.498873 81.993491 l
623.080007 80.797859 l
623.341968 82.237426 l
623.475934 82.303803 l
623.931911 82.056609 l
624.398484 82.011953 l
624.593903 82.032787 l
625.107279 80.252723 l
625.12711 80.964241 l
625.335269 82.034442 l
626.610731 81.762726 l
627.354953 81.945728 l
627.518882 81.967732 l
627.781067 81.793039 l
627.785014 81.803956 l
628.039342 81.751333 l
628.61904 81.680048 l
629.174107 81.749515 l
629.228151 81.076757 l
629.247433 81.169821 l
629.538826 81.947118 l
630.657013 81.697847 l
631.313411 81.125719 l
631.496959 81.826741 l
631.524574 81.857079 l
631.567815 81.811851 l
631.696735 81.804585 l
632.744263 81.583575 l
633.270391 80.634804 l
633.460175 81.767399 l
633.69378 81.817136 l
633.900321 81.718039 l
633.985535 81.728895 l
634.786125 81.551059 l
635.318208 80.601792 l
635.567174 81.812732 l
635.648901 81.757526 l
635.890114 81.752074 l
636.525068 81.579601 l
636.82159 81.561608 l
638.140685 81.646727 l
638.167943 81.612974 l
638.677227 81.490989 l
639.34785 77.547273 l
639.570239 81.598811 l
639.592691 81.560966 l
639.947017 81.632649 l
640.032433 81.595178 l
640.312177 81.544163 l
640.801184 81.470597 l
641.554402 81.456958 l
641.768044 81.641037 l
642.829971 81.42331 l
643.456635 80.840003 l
643.472174 80.963867 l
643.643794 81.617678 l
644.894855 81.424986 l
645.499983 80.823812 l
645.829291 81.693629 l
646.431847 81.478037 l
646.551881 81.464377 l
646.920037 81.423963 l
647.529352 80.892174 l
647.727639 81.748217 l
647.777912 81.770465 l
648.920181 81.392092 l
649.013029 81.409909 l
649.506307 81.029657 l
649.5142 80.225992 l
649.599524 80.876723 l
649.808413 81.663686 l
649.823837 81.624601 l
651.03074 81.406741 l
651.932077 81.630521 l
651.947545 81.718348 l
652.013492 81.637084 l
652.207525 81.656753 l
652.30417 81.635555 l
653.046981 81.443849 l
653.609735 80.745817 l
653.737997 81.60065 l
653.808097 81.588513 l
654.150489 81.642363 l
655.058083 81.411071 l
655.652687 81.024178 l
655.792513 81.626229 l
656.664052 81.456791 l
657.00789 81.385883 l
657.575693 80.236355 l
657.728514 81.521592 l
658.088335 81.539275 l
658.294537 81.486306 l
658.564252 81.391246 l
658.94759 81.328692 l
659.536674 79.782531 l
659.672383 81.30881 l
659.890558 81.594784 l
659.897995 81.568137 l
660.203047 81.519879 l
660.458966 81.404559 l
660.995521 81.377651 l
661.598543 80.99499 l
661.771221 81.726026 l
661.786544 81.720405 l
662.996858 81.399974 l
663.518217 80.001124 l
663.971583 81.618079 l
664.032715 81.599226 l
664.284831 81.552194 l
664.521008 81.447499 l
664.666118 81.419616 l
665.602838 80.724572 l
665.821875 81.701885 l
666.025679 81.614731 l
667.005761 81.397089 l
667.632268 81.060918 l
667.743859 81.622613 l
668.031217 81.592646 l
668.157369 81.536913 l
668.909548 81.324362 l
669.085741 81.332023 l
669.683761 80.849078 l
669.687665 80.894618 l
669.745207 81.236321 l
669.975805 81.684439 l
670.469891 81.513254 l
670.639037 81.430165 l
670.935152 81.369266 l
671.651478 81.747472 l
671.740836 81.164104 l
671.936288 81.717529 l
672.095866 81.676095 l
673.055611 81.3859 l
673.193162 81.398873 l
673.754286 80.858428 l
674.007692 81.619992 l
674.038391 81.568644 l
675.126803 81.332954 l
675.852365 80.873032 l
675.976686 81.664995 l
676.128392 81.727641 l
676.163417 81.650795 l
676.807199 81.454371 l
676.873104 81.422443 l
676.892406 81.440766 l
677.198259 81.411479 l
677.860492 80.577368 l
677.872104 80.612535 l
678.089216 81.564817 l
678.37282 81.581685 l
678.742695 81.404558 l
678.742695 81.404558 l
stroke
grestore
1 0.498 0.055 setrgbcolor
gsave
83.81 65.72 625.39 260.2 rectclip
114.267305 182.67766 m
118.328279 165.5533 l
124.41974 147.955414 l
132.541688 134.061129 l
142.694123 126.397912 l
154.877045 122.799957 l
185.334351 116.831865 l
203.608734 114.029026 l
223.913604 115.147058 l
246.248961 111.396982 l
270.614805 110.745041 l
297.011136 111.216155 l
325.437955 111.159722 l
355.89526 108.925045 l
357.925747 107.118312 l
359.956234 106.471068 l
361.986721 106.625949 l
364.017208 106.045721 l
366.047695 106.307867 l
368.078182 110.490032 l
370.108669 104.189291 l
372.139156 104.245989 l
374.169643 107.181698 l
376.20013 102.929389 l
398.535487 103.302103 l
400.565974 105.700646 l
402.596461 103.850055 l
404.626948 102.877633 l
406.657435 103.272914 l
408.687922 105.678786 l
410.718409 102.977529 l
412.748896 103.223272 l
414.779383 104.477559 l
416.80987 104.0775 l
418.840357 103.055014 l
420.870844 102.462775 l
422.901331 102.391707 l
428.992792 101.32862 l
431.023279 102.182759 l
433.053766 103.661337 l
435.084253 100.63828 l
437.11474 100.013542 l
439.145227 103.125239 l
441.175714 102.505654 l
443.206201 100.923455 l
445.236688 102.499767 l
447.267175 100.333813 l
449.297662 101.967401 l
451.328149 102.413058 l
453.358636 101.494798 l
455.389123 101.494247 l
457.41961 100.716505 l
459.450097 100.996039 l
461.480584 97.22226 l
463.511071 97.690043 l
465.541558 97.146753 l
467.572045 97.810243 l
469.602532 97.502038 l
471.633019 97.862522 l
473.663506 98.431649 l
475.693994 97.094902 l
477.724481 97.783603 l
479.754968 98.310593 l
481.785455 97.285218 l
483.815942 95.227164 l
485.846429 95.09256 l
489.907403 96.886079 l
491.93789 95.131421 l
493.968377 94.996542 l
495.998864 95.385607 l
498.029351 93.913545 l
500.059838 94.823862 l
502.090325 93.826921 l
504.120812 93.829242 l
506.151299 94.080416 l
508.181786 94.035335 l
510.212273 93.139344 l
512.24276 93.6802 l
514.273247 93.431028 l
516.303734 93.832947 l
518.334221 93.252298 l
520.364708 93.981741 l
522.395195 93.159233 l
524.425682 93.676774 l
528.486656 92.801566 l
530.517143 92.522335 l
532.54763 93.683966 l
534.578117 91.769163 l
542.700065 91.389896 l
546.761039 91.456719 l
548.791526 91.183891 l
552.8525 91.459193 l
554.882987 91.714885 l
558.943961 91.191032 l
560.974448 91.331258 l
563.004935 91.260999 l
565.035422 91.734132 l
567.065909 91.696694 l
569.096396 90.81837 l
571.126883 90.732691 l
573.15737 90.870816 l
575.187857 90.710548 l
579.248831 90.757284 l
581.279318 87.910751 l
585.340292 87.5842 l
587.370779 87.586144 l
589.401266 87.450228 l
591.431753 87.889808 l
593.46224 87.710579 l
595.492727 87.68674 l
597.523214 87.543149 l
599.553701 87.620553 l
601.584188 87.441676 l
603.614675 87.694734 l
605.645162 87.232246 l
609.706136 87.135075 l
615.797597 87.165787 l
627.980519 86.7969 l
632.041494 86.786615 l
638.132955 86.721529 l
642.193929 86.73163 l
674.681721 86.708023 l
680.773182 86.708057 l
680.773182 86.708057 l
stroke
grestore
0.8 setlinewidth
0 setlinejoin
0 setgray
gsave
83.81 65.72 m
83.81 325.92 l
stroke
grestore
gsave
709.2 65.72 m
709.2 325.92 l
stroke
grestore
gsave
83.81 65.72 m
709.2 65.72 l
stroke
grestore
gsave
83.81 325.92 m
709.2 325.92 l
stroke
grestore
gsave
302.505 331.92 translate
0 rotate
/DejaVuSans 20.0 selectfont
0 0.796875 moveto
/five glyphshow
12.7246 0.796875 moveto
/zero glyphshow
25.4492 0.796875 moveto
/space glyphshow
/DejaVuSans-Oblique 20.0 selectfont
31.8066 0.796875 moveto
/uni03BC glyphshow
/DejaVuSans 20.0 selectfont
44.5312 0.796875 moveto
/m glyphshow
64.0137 0.796875 moveto
/slash glyphshow
70.752 0.796875 moveto
/p glyphshow
83.4473 0.796875 moveto
/i glyphshow
89.0039 0.796875 moveto
/x glyphshow
100.84 0.796875 moveto
/e glyphshow
113.145 0.796875 moveto
/l glyphshow
118.701 0.796875 moveto
/space glyphshow
125.059 0.796875 moveto
/m glyphshow
144.541 0.796875 moveto
/o glyphshow
156.777 0.796875 moveto
/d glyphshow
169.473 0.796875 moveto
/e glyphshow
181.777 0.796875 moveto
/l glyphshow
grestore
1 setlinewidth
0 setlinecap
0.8 setgray
gsave
507.340625 251.20125 m
695.2 251.20125 l
697.866667 251.20125 699.2 252.534583 699.2 255.20125 c
699.2 311.92 l
699.2 314.586667 697.866667 315.92 695.2 315.92 c
507.340625 315.92 l
504.673958 315.92 503.340625 314.586667 503.340625 311.92 c
503.340625 255.20125 l
503.340625 252.534583 504.673958 251.20125 507.340625 251.20125 c
cl
gsave
1 setgray
fill
grestore
stroke
grestore
1.5 setlinewidth
1 setlinejoin
2 setlinecap
0.122 0.467 0.706 setrgbcolor
gsave
511.340625 299.716875 m
531.340625 299.716875 l
551.340625 299.716875 l
stroke
grestore
0 setgray
/DejaVuSans 20.000 selectfont
gsave

567.341 292.717 translate
0 rotate
0 0 m /T glyphshow
9.2168 0 m /r glyphshow
17.4395 0 m /a glyphshow
29.6953 0 m /i glyphshow
35.252 0 m /n glyphshow
47.9277 0 m /i glyphshow
53.4844 0 m /n glyphshow
66.1602 0 m /g glyphshow
78.8555 0 m /space glyphshow
85.2129 0 m /l glyphshow
90.7695 0 m /o glyphshow
103.006 0 m /s glyphshow
113.426 0 m /s glyphshow
grestore
1 0.498 0.055 setrgbcolor
gsave
511.340625 270.3575 m
531.340625 270.3575 l
551.340625 270.3575 l
stroke
grestore
0 setgray
/DejaVuSans 20.000 selectfont
gsave

567.341 263.358 translate
0 rotate
0 0 m /T glyphshow
8.8418 0 m /e glyphshow
21.1465 0 m /s glyphshow
31.5664 0 m /t glyphshow
39.4082 0 m /space glyphshow
45.7656 0 m /l glyphshow
51.3223 0 m /o glyphshow
63.5586 0 m /s glyphshow
73.9785 0 m /s glyphshow
grestore

end
showpage
