%!PS-Adobe-3.0 EPSF-3.0
%%LanguageLevel: 3
%%Title: training_history.eps
%%Creator: Matplotlib v3.8.0, https://matplotlib.org/
%%CreationDate: Tue Jan 16 18:15:16 2024
%%Orientation: portrait
%%BoundingBox: 0 0 720 360
%%HiResBoundingBox: 0.000000 0.000000 720.000000 360.000000
%%EndComments
%%BeginProlog
/mpldict 10 dict def
mpldict begin
/_d { bind def } bind def
/m { moveto } _d
/l { lineto } _d
/r { rlineto } _d
/c { curveto } _d
/cl { closepath } _d
/ce { closepath eofill } _d
/sc { setcachedevice } _d
%!PS-Adobe-3.0 Resource-Font
%%Creator: Converted from TrueType to Type 3 by Matplotlib.
10 dict begin
/FontName /DejaVuSans def
/PaintType 0 def
/FontMatrix [0.00048828125 0 0 0.00048828125 0 0] def
/FontBBox [-2090 -948 3673 2524] def
/FontType 3 def
/Encoding [/space /slash /zero /one /two /three /five /A /E /M /T /bracketleft /bracketright /a /c /d /e /g /h /i /l /m /n /o /p /r /s /t /x] def
/CharStrings 30 dict dup begin
/.notdef 0 def
/space{651 0 0 0 0 0 sc
ce} _d
/slash{690 0 0 -190 690 1493 sc
520 1493 m
690 1493 l
170 -190 l
0 -190 l
520 1493 l

ce} _d
/zero{1303 0 135 -29 1167 1520 sc
651 1360 m
547 1360 469 1309 416 1206 c
364 1104 338 950 338 745 c
338 540 364 387 416 284 c
469 182 547 131 651 131 c
756 131 834 182 886 284 c
939 387 965 540 965 745 c
965 950 939 1104 886 1206 c
834 1309 756 1360 651 1360 c

651 1520 m
818 1520 946 1454 1034 1321 c
1123 1189 1167 997 1167 745 c
1167 494 1123 302 1034 169 c
946 37 818 -29 651 -29 c
484 -29 356 37 267 169 c
179 302 135 494 135 745 c
135 997 179 1189 267 1321 c
356 1454 484 1520 651 1520 c

ce} _d
/one{1303 0 225 0 1114 1493 sc
254 170 m
584 170 l
584 1309 l
225 1237 l
225 1421 l
582 1493 l
784 1493 l
784 170 l
1114 170 l
1114 0 l
254 0 l
254 170 l

ce} _d
/two{1303 0 150 0 1098 1520 sc
393 170 m
1098 170 l
1098 0 l
150 0 l
150 170 l
227 249 331 356 463 489 c
596 623 679 709 713 748 c
778 821 823 882 848 932 c
874 983 887 1032 887 1081 c
887 1160 859 1225 803 1275 c
748 1325 675 1350 586 1350 c
523 1350 456 1339 385 1317 c
315 1295 240 1262 160 1217 c
160 1421 l
241 1454 317 1478 388 1495 c
459 1512 523 1520 582 1520 c
737 1520 860 1481 952 1404 c
1044 1327 1090 1223 1090 1094 c
1090 1033 1078 974 1055 919 c
1032 864 991 800 930 725 c
913 706 860 650 771 557 c
682 465 556 336 393 170 c

ce} _d
/three{1303 0 156 -29 1139 1520 sc
831 805 m
928 784 1003 741 1057 676 c
1112 611 1139 530 1139 434 c
1139 287 1088 173 987 92 c
886 11 742 -29 555 -29 c
492 -29 428 -23 361 -10 c
295 2 227 20 156 45 c
156 240 l
212 207 273 183 340 166 c
407 149 476 141 549 141 c
676 141 772 166 838 216 c
905 266 938 339 938 434 c
938 522 907 591 845 640 c
784 690 698 715 588 715 c
414 715 l
414 881 l
596 881 l
695 881 771 901 824 940 c
877 980 903 1037 903 1112 c
903 1189 876 1247 821 1288 c
767 1329 689 1350 588 1350 c
533 1350 473 1344 410 1332 c
347 1320 277 1301 201 1276 c
201 1456 l
278 1477 349 1493 416 1504 c
483 1515 547 1520 606 1520 c
759 1520 881 1485 970 1415 c
1059 1346 1104 1252 1104 1133 c
1104 1050 1080 980 1033 923 c
986 866 918 827 831 805 c

ce} _d
/five{1303 0 158 -29 1124 1493 sc
221 1493 m
1014 1493 l
1014 1323 l
406 1323 l
406 957 l
435 967 465 974 494 979 c
523 984 553 987 582 987 c
749 987 881 941 978 850 c
1075 759 1124 635 1124 479 c
1124 318 1074 193 974 104 c
874 15 733 -29 551 -29 c
488 -29 424 -24 359 -13 c
294 -2 227 14 158 35 c
158 238 l
218 205 280 181 344 165 c
408 149 476 141 547 141 c
662 141 754 171 821 232 c
888 293 922 375 922 479 c
922 583 888 665 821 726 c
754 787 662 817 547 817 c
493 817 439 811 385 799 c
332 787 277 768 221 743 c
221 1493 l

ce} _d
/A{1401 0 16 0 1384 1493 sc
700 1294 m
426 551 l
975 551 l
700 1294 l

586 1493 m
815 1493 l
1384 0 l
1174 0 l
1038 383 l
365 383 l
229 0 l
16 0 l
586 1493 l

ce} _d
/E{1294 0 201 0 1163 1493 sc
201 1493 m
1145 1493 l
1145 1323 l
403 1323 l
403 881 l
1114 881 l
1114 711 l
403 711 l
403 170 l
1163 170 l
1163 0 l
201 0 l
201 1493 l

ce} _d
/M{1767 0 201 0 1567 1493 sc
201 1493 m
502 1493 l
883 477 l
1266 1493 l
1567 1493 l
1567 0 l
1370 0 l
1370 1311 l
985 287 l
782 287 l
397 1311 l
397 0 l
201 0 l
201 1493 l

ce} _d
/T{1251 0 -6 0 1257 1493 sc
-6 1493 m
1257 1493 l
1257 1323 l
727 1323 l
727 0 l
524 0 l
524 1323 l
-6 1323 l
-6 1493 l

ce} _d
/bracketleft{799 0 176 -270 600 1556 sc
176 1556 m
600 1556 l
600 1413 l
360 1413 l
360 -127 l
600 -127 l
600 -270 l
176 -270 l
176 1556 l

ce} _d
/bracketright{799 0 199 -270 623 1556 sc
623 1556 m
623 -270 l
199 -270 l
199 -127 l
438 -127 l
438 1413 l
199 1413 l
199 1556 l
623 1556 l

ce} _d
/a{1255 0 123 -29 1069 1147 sc
702 563 m
553 563 450 546 393 512 c
336 478 307 420 307 338 c
307 273 328 221 371 182 c
414 144 473 125 547 125 c
649 125 731 161 792 233 c
854 306 885 402 885 522 c
885 563 l
702 563 l

1069 639 m
1069 0 l
885 0 l
885 170 l
843 102 791 52 728 19 c
665 -13 589 -29 498 -29 c
383 -29 292 3 224 67 c
157 132 123 218 123 326 c
123 452 165 547 249 611 c
334 675 460 707 627 707 c
885 707 l
885 725 l
885 810 857 875 801 921 c
746 968 668 991 567 991 c
503 991 441 983 380 968 c
319 953 261 930 205 899 c
205 1069 l
272 1095 338 1114 401 1127 c
464 1140 526 1147 586 1147 c
748 1147 869 1105 949 1021 c
1029 937 1069 810 1069 639 c

ce} _d
/c{1126 0 113 -29 999 1147 sc
999 1077 m
999 905 l
947 934 895 955 842 969 c
790 984 737 991 684 991 c
565 991 472 953 406 877 c
340 802 307 696 307 559 c
307 422 340 316 406 240 c
472 165 565 127 684 127 c
737 127 790 134 842 148 c
895 163 947 184 999 213 c
999 43 l
948 19 894 1 839 -11 c
784 -23 726 -29 664 -29 c
495 -29 361 24 262 130 c
163 236 113 379 113 559 c
113 742 163 885 263 990 c
364 1095 501 1147 676 1147 c
733 1147 788 1141 842 1129 c
896 1118 948 1100 999 1077 c

ce} _d
/d{1300 0 113 -29 1114 1556 sc
930 950 m
930 1556 l
1114 1556 l
1114 0 l
930 0 l
930 168 l
891 101 842 52 783 19 c
724 -13 654 -29 571 -29 c
436 -29 325 25 240 133 c
155 241 113 383 113 559 c
113 735 155 877 240 985 c
325 1093 436 1147 571 1147 c
654 1147 724 1131 783 1098 c
842 1066 891 1017 930 950 c

303 559 m
303 424 331 317 386 240 c
442 163 519 125 616 125 c
713 125 790 163 846 240 c
902 317 930 424 930 559 c
930 694 902 800 846 877 c
790 954 713 993 616 993 c
519 993 442 954 386 877 c
331 800 303 694 303 559 c

ce} _d
/e{1260 0 113 -29 1151 1147 sc
1151 606 m
1151 516 l
305 516 l
313 389 351 293 419 226 c
488 160 583 127 705 127 c
776 127 844 136 910 153 c
977 170 1043 196 1108 231 c
1108 57 l
1042 29 974 8 905 -7 c
836 -22 765 -29 694 -29 c
515 -29 374 23 269 127 c
165 231 113 372 113 549 c
113 732 162 878 261 985 c
360 1093 494 1147 662 1147 c
813 1147 932 1098 1019 1001 c
1107 904 1151 773 1151 606 c

967 660 m
966 761 937 841 882 901 c
827 961 755 991 664 991 c
561 991 479 962 417 904 c
356 846 320 764 311 659 c
967 660 l

ce} _d
/g{1300 0 113 -426 1114 1147 sc
930 573 m
930 706 902 810 847 883 c
792 956 715 993 616 993 c
517 993 440 956 385 883 c
330 810 303 706 303 573 c
303 440 330 337 385 264 c
440 191 517 154 616 154 c
715 154 792 191 847 264 c
902 337 930 440 930 573 c

1114 139 m
1114 -52 1072 -193 987 -286 c
902 -379 773 -426 598 -426 c
533 -426 472 -421 415 -411 c
358 -402 302 -387 248 -367 c
248 -188 l
302 -217 355 -239 408 -253 c
461 -267 514 -274 569 -274 c
690 -274 780 -242 840 -179 c
900 -116 930 -21 930 106 c
930 197 l
892 131 843 82 784 49 c
725 16 654 0 571 0 c
434 0 323 52 239 157 c
155 262 113 400 113 573 c
113 746 155 885 239 990 c
323 1095 434 1147 571 1147 c
654 1147 725 1131 784 1098 c
843 1065 892 1016 930 950 c
930 1120 l
1114 1120 l
1114 139 l

ce} _d
/h{1298 0 186 0 1124 1556 sc
1124 676 m
1124 0 l
940 0 l
940 670 l
940 776 919 855 878 908 c
837 961 775 987 692 987 c
593 987 514 955 457 892 c
400 829 371 742 371 633 c
371 0 l
186 0 l
186 1556 l
371 1556 l
371 946 l
415 1013 467 1064 526 1097 c
586 1130 655 1147 733 1147 c
862 1147 959 1107 1025 1027 c
1091 948 1124 831 1124 676 c

ce} _d
/i{569 0 193 0 377 1556 sc
193 1120 m
377 1120 l
377 0 l
193 0 l
193 1120 l

193 1556 m
377 1556 l
377 1323 l
193 1323 l
193 1556 l

ce} _d
/l{569 0 193 0 377 1556 sc
193 1556 m
377 1556 l
377 0 l
193 0 l
193 1556 l

ce} _d
/m{1995 0 186 0 1821 1147 sc
1065 905 m
1111 988 1166 1049 1230 1088 c
1294 1127 1369 1147 1456 1147 c
1573 1147 1663 1106 1726 1024 c
1789 943 1821 827 1821 676 c
1821 0 l
1636 0 l
1636 670 l
1636 777 1617 857 1579 909 c
1541 961 1483 987 1405 987 c
1310 987 1234 955 1179 892 c
1124 829 1096 742 1096 633 c
1096 0 l
911 0 l
911 670 l
911 778 892 858 854 909 c
816 961 757 987 678 987 c
584 987 509 955 454 891 c
399 828 371 742 371 633 c
371 0 l
186 0 l
186 1120 l
371 1120 l
371 946 l
413 1015 463 1065 522 1098 c
581 1131 650 1147 731 1147 c
812 1147 881 1126 938 1085 c
995 1044 1038 984 1065 905 c

ce} _d
/n{1298 0 186 0 1124 1147 sc
1124 676 m
1124 0 l
940 0 l
940 670 l
940 776 919 855 878 908 c
837 961 775 987 692 987 c
593 987 514 955 457 892 c
400 829 371 742 371 633 c
371 0 l
186 0 l
186 1120 l
371 1120 l
371 946 l
415 1013 467 1064 526 1097 c
586 1130 655 1147 733 1147 c
862 1147 959 1107 1025 1027 c
1091 948 1124 831 1124 676 c

ce} _d
/o{1253 0 113 -29 1141 1147 sc
627 991 m
528 991 450 952 393 875 c
336 798 307 693 307 559 c
307 425 335 319 392 242 c
449 165 528 127 627 127 c
725 127 803 166 860 243 c
917 320 946 426 946 559 c
946 692 917 797 860 874 c
803 952 725 991 627 991 c

627 1147 m
787 1147 913 1095 1004 991 c
1095 887 1141 743 1141 559 c
1141 376 1095 232 1004 127 c
913 23 787 -29 627 -29 c
466 -29 340 23 249 127 c
158 232 113 376 113 559 c
113 743 158 887 249 991 c
340 1095 466 1147 627 1147 c

ce} _d
/p{1300 0 186 -426 1188 1147 sc
371 168 m
371 -426 l
186 -426 l
186 1120 l
371 1120 l
371 950 l
410 1017 458 1066 517 1098 c
576 1131 647 1147 729 1147 c
865 1147 975 1093 1060 985 c
1145 877 1188 735 1188 559 c
1188 383 1145 241 1060 133 c
975 25 865 -29 729 -29 c
647 -29 576 -13 517 19 c
458 52 410 101 371 168 c

997 559 m
997 694 969 800 913 877 c
858 954 781 993 684 993 c
587 993 510 954 454 877 c
399 800 371 694 371 559 c
371 424 399 317 454 240 c
510 163 587 125 684 125 c
781 125 858 163 913 240 c
969 317 997 424 997 559 c

ce} _d
/r{842 0 186 0 842 1147 sc
842 948 m
821 960 799 969 774 974 c
750 980 723 983 694 983 c
590 983 510 949 454 881 c
399 814 371 717 371 590 c
371 0 l
186 0 l
186 1120 l
371 1120 l
371 946 l
410 1014 460 1064 522 1097 c
584 1130 659 1147 748 1147 c
761 1147 775 1146 790 1144 c
805 1143 822 1140 841 1137 c
842 948 l

ce} _d
/s{1067 0 111 -29 967 1147 sc
907 1087 m
907 913 l
855 940 801 960 745 973 c
689 986 631 993 571 993 c
480 993 411 979 365 951 c
320 923 297 881 297 825 c
297 782 313 749 346 724 c
379 700 444 677 543 655 c
606 641 l
737 613 829 573 884 522 c
939 471 967 400 967 309 c
967 205 926 123 843 62 c
761 1 648 -29 504 -29 c
444 -29 381 -23 316 -11 c
251 0 183 18 111 41 c
111 231 l
179 196 246 169 312 151 c
378 134 443 125 508 125 c
595 125 661 140 708 169 c
755 199 778 241 778 295 c
778 345 761 383 727 410 c
694 437 620 462 506 487 c
442 502 l
328 526 246 563 195 612 c
144 662 119 730 119 817 c
119 922 156 1004 231 1061 c
306 1118 412 1147 549 1147 c
617 1147 681 1142 741 1132 c
801 1122 856 1107 907 1087 c

ce} _d
/t{803 0 55 0 754 1438 sc
375 1438 m
375 1120 l
754 1120 l
754 977 l
375 977 l
375 369 l
375 278 387 219 412 193 c
437 167 488 154 565 154 c
754 154 l
754 0 l
565 0 l
423 0 325 26 271 79 c
217 132 190 229 190 369 c
190 977 l
55 977 l
55 1120 l
190 1120 l
190 1438 l
375 1438 l

ce} _d
/x{1212 0 59 0 1145 1120 sc
1124 1120 m
719 575 l
1145 0 l
928 0 l
602 440 l
276 0 l
59 0 l
494 586 l
96 1120 l
313 1120 l
610 721 l
907 1120 l
1124 1120 l

ce} _d
end readonly def

/BuildGlyph {
 exch begin
 CharStrings exch
 2 copy known not {pop /.notdef} if
 true 3 1 roll get exec
 end
} _d

/BuildChar {
 1 index /Encoding get exch get
 1 index /BuildGlyph get exec
} _d

FontName currentdict end definefont pop
%!PS-Adobe-3.0 Resource-Font
%%Creator: Converted from TrueType to Type 3 by Matplotlib.
10 dict begin
/FontName /DejaVuSans-Oblique def
/PaintType 0 def
/FontMatrix [0.00048828125 0 0 0.00048828125 0 0] def
/FontBBox [-2080 -717 3398 2187] def
/FontType 3 def
/Encoding [/uni03BC] def
/CharStrings 2 dict dup begin
/.notdef 0 def
/uni03BC{1303 0 -27 -426 1212 1120 sc
-27 -426 m
274 1120 l
459 1120 l
323 423 l
320 409 318 393 316 376 c
314 359 313 341 313 324 c
313 262 332 214 371 181 c
410 148 466 131 539 131 c
638 131 717 159 778 215 c
839 271 880 355 901 467 c
1028 1120 l
1212 1120 l
1045 259 l
1042 246 1040 235 1039 226 c
1038 217 1038 208 1038 201 c
1038 180 1042 165 1050 155 c
1059 146 1072 141 1090 141 c
1097 141 1106 143 1117 146 c
1129 149 1146 155 1167 164 c
1139 16 l
1110 1 1082 -10 1055 -17 c
1028 -25 1002 -29 977 -29 c
933 -29 898 -15 873 13 c
848 41 836 80 836 129 c
799 76 754 36 702 10 c
651 -16 590 -29 520 -29 c
458 -29 404 -15 357 14 c
311 43 281 80 266 127 c
158 -426 l
-27 -426 l

ce} _d
end readonly def

/BuildGlyph {
 exch begin
 CharStrings exch
 2 copy known not {pop /.notdef} if
 true 3 1 roll get exec
 end
} _d

/BuildChar {
 1 index /Encoding get exch get
 1 index /BuildGlyph get exec
} _d

FontName currentdict end definefont pop
end
%%EndProlog
mpldict begin
0 0 translate
0 0 720 360 rectclip
gsave
0 0 m
720 0 l
720 360 l
0 360 l
cl
1 setgray
fill
grestore
gsave
71.12 65.72 m
709.2 65.72 l
709.2 325.92 l
71.12 325.92 l
cl
1 setgray
fill
grestore
1 setlinewidth
1 setlinejoin
0 setlinecap
[] 0 setdash
0.122 0.467 0.706 setrgbcolor
gsave
71.12 65.72 638.08 260.2 rectclip
/o {
gsave
newpath
translate
1.0 setlinewidth
1 setlinejoin

0 setlinecap

662.618402 115.240624 m
662.618402 115.216961 l
662.618402 115.240624 l
662.618402 115.240624 l
cl

gsave
0.122 0.467 0.706 setrgbcolor
fill
grestore
stroke
grestore
} bind def
0 0 o
grestore
0.8 setlinewidth
2 setlinecap
0.69 setgray
gsave
71.12 65.72 638.08 260.2 rectclip
100.123636 65.72 m
100.123636 325.92 l
stroke
grestore
0 setlinecap
0 setgray
gsave
/o {
gsave
newpath
translate
0.8 setlinewidth
1 setlinejoin

0 setlinecap

0 0 m
0 -3.5 l

gsave
0 setgray
fill
grestore
stroke
grestore
} bind def
100.124 65.72 o
grestore
/DejaVuSans 20.000 selectfont
gsave

93.7643 43.5169 translate
0 rotate
0 0 m /zero glyphshow
grestore
2 setlinecap
0.69 setgray
gsave
71.12 65.72 638.08 260.2 rectclip
188.013444 65.72 m
188.013444 325.92 l
stroke
grestore
0 setlinecap
0 setgray
gsave
/o {
gsave
newpath
translate
0.8 setlinewidth
1 setlinejoin

0 setlinecap

0 0 m
0 -3.5 l

gsave
0 setgray
fill
grestore
stroke
grestore
} bind def
188.013 65.72 o
grestore
/DejaVuSans 20.000 selectfont
gsave

181.654 43.5169 translate
0 rotate
0 0 m /five glyphshow
grestore
2 setlinecap
0.69 setgray
gsave
71.12 65.72 638.08 260.2 rectclip
275.903251 65.72 m
275.903251 325.92 l
stroke
grestore
0 setlinecap
0 setgray
gsave
/o {
gsave
newpath
translate
0.8 setlinewidth
1 setlinejoin

0 setlinecap

0 0 m
0 -3.5 l

gsave
0 setgray
fill
grestore
stroke
grestore
} bind def
275.903 65.72 o
grestore
/DejaVuSans 20.000 selectfont
gsave

263.185 43.5169 translate
0 rotate
0 0 m /one glyphshow
12.7246 0 m /zero glyphshow
grestore
2 setlinecap
0.69 setgray
gsave
71.12 65.72 638.08 260.2 rectclip
363.793058 65.72 m
363.793058 325.92 l
stroke
grestore
0 setlinecap
0 setgray
gsave
/o {
gsave
newpath
translate
0.8 setlinewidth
1 setlinejoin

0 setlinecap

0 0 m
0 -3.5 l

gsave
0 setgray
fill
grestore
stroke
grestore
} bind def
363.793 65.72 o
grestore
/DejaVuSans 20.000 selectfont
gsave

351.074 43.5169 translate
0 rotate
0 0 m /one glyphshow
12.7246 0 m /five glyphshow
grestore
2 setlinecap
0.69 setgray
gsave
71.12 65.72 638.08 260.2 rectclip
451.682865 65.72 m
451.682865 325.92 l
stroke
grestore
0 setlinecap
0 setgray
gsave
/o {
gsave
newpath
translate
0.8 setlinewidth
1 setlinejoin

0 setlinecap

0 0 m
0 -3.5 l

gsave
0 setgray
fill
grestore
stroke
grestore
} bind def
451.683 65.72 o
grestore
/DejaVuSans 20.000 selectfont
gsave

438.964 43.5169 translate
0 rotate
0 0 m /two glyphshow
12.7246 0 m /zero glyphshow
grestore
2 setlinecap
0.69 setgray
gsave
71.12 65.72 638.08 260.2 rectclip
539.572672 65.72 m
539.572672 325.92 l
stroke
grestore
0 setlinecap
0 setgray
gsave
/o {
gsave
newpath
translate
0.8 setlinewidth
1 setlinejoin

0 setlinecap

0 0 m
0 -3.5 l

gsave
0 setgray
fill
grestore
stroke
grestore
} bind def
539.573 65.72 o
grestore
/DejaVuSans 20.000 selectfont
gsave

526.854 43.5169 translate
0 rotate
0 0 m /two glyphshow
12.7246 0 m /five glyphshow
grestore
2 setlinecap
0.69 setgray
gsave
71.12 65.72 638.08 260.2 rectclip
627.462479 65.72 m
627.462479 325.92 l
stroke
grestore
0 setlinecap
0 setgray
gsave
/o {
gsave
newpath
translate
0.8 setlinewidth
1 setlinejoin

0 setlinecap

0 0 m
0 -3.5 l

gsave
0 setgray
fill
grestore
stroke
grestore
} bind def
627.462 65.72 o
grestore
/DejaVuSans 20.000 selectfont
gsave

614.744 43.5169 translate
0 rotate
0 0 m /three glyphshow
12.7246 0 m /zero glyphshow
grestore
/DejaVuSans 24.000 selectfont
gsave

353.402 17.1263 translate
0 rotate
0 0 m /E glyphshow
15.1641 0 m /p glyphshow
30.3984 0 m /o glyphshow
45.082 0 m /c glyphshow
58.2773 0 m /h glyphshow
grestore
2 setlinecap
0.69 setgray
gsave
71.12 65.72 638.08 260.2 rectclip
71.12 97.256243 m
709.2 97.256243 l
stroke
grestore
0 setlinecap
0 setgray
gsave
/o {
gsave
newpath
translate
0.8 setlinewidth
1 setlinejoin

0 setlinecap

-0 0 m
-3.5 0 l

gsave
0 setgray
fill
grestore
stroke
grestore
} bind def
71.12 97.2562 o
grestore
/DejaVuSans 20.000 selectfont
gsave

38.6825 89.6547 translate
0 rotate
0 0 m /one glyphshow
12.7246 0 m /five glyphshow
grestore
2 setlinecap
0.69 setgray
gsave
71.12 65.72 638.08 260.2 rectclip
71.12 155.022599 m
709.2 155.022599 l
stroke
grestore
0 setlinecap
0 setgray
gsave
/o {
gsave
newpath
translate
0.8 setlinewidth
1 setlinejoin

0 setlinecap

-0 0 m
-3.5 0 l

gsave
0 setgray
fill
grestore
stroke
grestore
} bind def
71.12 155.023 o
grestore
/DejaVuSans 20.000 selectfont
gsave

38.6825 147.421 translate
0 rotate
0 0 m /two glyphshow
12.7246 0 m /zero glyphshow
grestore
2 setlinecap
0.69 setgray
gsave
71.12 65.72 638.08 260.2 rectclip
71.12 212.788955 m
709.2 212.788955 l
stroke
grestore
0 setlinecap
0 setgray
gsave
/o {
gsave
newpath
translate
0.8 setlinewidth
1 setlinejoin

0 setlinecap

-0 0 m
-3.5 0 l

gsave
0 setgray
fill
grestore
stroke
grestore
} bind def
71.12 212.789 o
grestore
/DejaVuSans 20.000 selectfont
gsave

38.6825 205.187 translate
0 rotate
0 0 m /two glyphshow
12.7246 0 m /five glyphshow
grestore
2 setlinecap
0.69 setgray
gsave
71.12 65.72 638.08 260.2 rectclip
71.12 270.555312 m
709.2 270.555312 l
stroke
grestore
0 setlinecap
0 setgray
gsave
/o {
gsave
newpath
translate
0.8 setlinewidth
1 setlinejoin

0 setlinecap

-0 0 m
-3.5 0 l

gsave
0 setgray
fill
grestore
stroke
grestore
} bind def
71.12 270.555 o
grestore
/DejaVuSans 20.000 selectfont
gsave

38.6825 262.954 translate
0 rotate
0 0 m /three glyphshow
12.7246 0 m /zero glyphshow
grestore
/DejaVuSans 24.000 selectfont
gsave

29.6825 128.101 translate
90 rotate
0 0 m /M glyphshow
20.707 0 m /A glyphshow
37.125 0 m /E glyphshow
52.2891 0 m /space glyphshow
59.918 0 m /bracketleft glyphshow
69.2812 0 m /p glyphshow
84.5156 0 m /i glyphshow
91.1836 0 m /x glyphshow
104.637 0 m /e glyphshow
119.402 0 m /l glyphshow
126.07 0 m /bracketright glyphshow
grestore
1.5 setlinewidth
2 setlinecap
0.122 0.467 0.706 setrgbcolor
gsave
71.12 65.72 638.08 260.2 rectclip
100.123636 314.092727 m
100.432843 228.644999 l
100.60758 215.233576 l
101.170495 193.578751 l
101.710382 183.383742 l
102.463296 174.623438 l
103.247108 168.483757 l
104.042521 163.960448 l
105.40576 158.390643 l
106.517791 155.00248 l
107.465258 152.535272 l
108.174843 150.892943 l
117.619412 134.089214 l
117.695238 134.311735 l
117.852252 133.744217 l
118.05046 133.160083 l
118.29612 133.101269 l
118.513538 132.640251 l
118.758828 132.686197 l
119.043995 132.420419 l
119.135606 132.411891 l
119.190332 132.427206 l
119.677338 132.068767 l
119.766696 132.051667 l
119.999993 131.852174 l
121.33327 130.989372 l
123.157691 130.038271 l
123.925675 129.726768 l
125.275129 129.106077 l
134.693009 126.243255 l
134.737218 126.519698 l
135.042016 126.228623 l
135.205126 125.798059 l
135.245467 125.833075 l
135.812125 125.76527 l
136.05662 125.867738 l
136.250784 125.660334 l
136.266173 125.678514 l
136.352657 125.798897 l
136.859077 125.655265 l
137.072942 125.568223 l
138.193988 125.28226 l
138.671363 125.246077 l
139.148639 125.164102 l
140.060423 125.01159 l
140.233749 124.969083 l
142.69991 124.524901 l
143.023917 124.428383 l
153.211542 123.406392 l
153.443583 123.86439 l
153.452723 124.287087 l
153.667429 123.604122 l
153.739946 123.590283 l
153.969395 123.012893 l
154.146014 123.248393 l
154.155492 123.209807 l
154.437011 122.882152 l
154.687583 123.017851 l
155.151604 122.859676 l
155.318138 123.001588 l
159.681545 122.506833 l
160.697865 122.429464 l
161.969064 122.24835 l
162.06139 122.235326 l
171.361868 121.284666 l
171.490071 122.118292 l
171.491917 122.101369 l
171.944839 121.303177 l
173.168839 121.457473 l
173.262234 121.320166 l
173.293286 121.349166 l
173.534476 121.428099 l
175.272264 121.188567 l
175.642506 121.224684 l
176.09303 121.182463 l
178.639725 120.919153 l
187.647777 120.391498 l
188.107484 120.991079 l
188.265145 120.51803 l
188.372595 120.611242 l
188.623289 120.497845 l
188.717042 120.353067 l
188.721189 120.36543 l
189.076836 120.522944 l
189.358059 120.353398 l
189.666761 120.360692 l
195.746282 119.975082 l
205.978981 120.244011 l
206.173337 119.641742 l
206.211292 119.731429 l
206.444805 119.700336 l
206.673158 119.554412 l
207.019371 119.733676 l
207.245199 119.598573 l
207.491954 119.701041 l
207.645585 119.560671 l
207.769608 119.60179 l
208.598961 119.466621 l
208.939199 119.473606 l
209.824895 119.416929 l
210.138589 119.481032 l
211.403521 119.390882 l
213.209211 119.290221 l
213.460867 119.254523 l
222.845124 118.794982 l
223.132836 119.583787 l
223.44868 119.049477 l
223.653639 119.134779 l
223.680688 119.09053 l
224.021197 118.936145 l
224.025164 118.960429 l
224.207292 119.043329 l
224.419042 118.960495 l
224.714221 119.066643 l
225.848454 118.903377 l
226.457812 118.977132 l
227.132611 118.890112 l
227.382513 118.948155 l
240.471707 118.093506 l
240.570932 118.341082 l
241.328762 118.829667 l
241.589305 118.530945 l
241.903748 118.727155 l
242.193739 118.6021 l
242.672293 118.612897 l
246.619372 118.485286 l
247.962619 118.370875 l
248.595088 118.288768 l
258.12228 117.591589 l
258.140555 118.123541 l
258.408667 118.74529 l
258.495591 118.125701 l
258.576134 118.188305 l
258.602152 118.268847 l
258.666614 118.180505 l
258.703667 118.11931 l
258.915963 118.299345 l
258.976604 118.164242 l
259.155007 118.21541 l
259.165232 118.228654 l
259.18777 118.182223 l
260.397879 118.022241 l
260.500264 118.050844 l
261.235766 118.034537 l
261.4364 118.048332 l
261.646148 117.98976 l
262.063968 117.946591 l
262.302936 117.881651 l
267.007903 114.299306 l
267.091805 118.425877 l
267.127968 118.402474 l
267.177578 118.413955 l
267.358428 117.873497 l
267.383084 117.924313 l
267.57616 117.683634 l
267.626668 117.74073 l
267.799158 117.844233 l
267.867405 117.702673 l
267.92685 117.872263 l
267.957984 117.790576 l
268.093831 117.660166 l
268.200267 117.739981 l
268.852204 117.642471 l
268.894243 117.710518 l
268.977129 117.680042 l
269.863692 117.599368 l
271.244682 117.521118 l
275.698866 116.68747 l
275.792679 118.955493 l
275.861216 118.554612 l
276.004008 118.223387 l
276.3806 118.14831 l
276.583175 117.897539 l
276.632642 117.955868 l
277.075765 118.131959 l
277.160962 118.048817 l
277.335719 118.111157 l
277.839153 118.040245 l
277.962593 118.0982 l
278.145577 118.00783 l
279.638395 117.988945 l
283.972953 117.825437 l
293.550031 118.002365 l
293.682256 118.239319 l
293.702494 118.256066 l
293.953261 117.682599 l
294.184794 117.729954 l
294.38505 117.454591 l
294.615934 117.635772 l
295.462699 117.657015 l
295.613785 117.656728 l
296.010332 117.561951 l
297.146337 117.578236 l
300.662292 117.508271 l
309.078728 118.080813 l
309.118264 118.312281 l
309.388646 117.909945 l
309.53422 117.444476 l
309.569833 117.524423 l
310.042543 117.452343 l
310.247481 117.595666 l
310.427138 117.458183 l
311.319605 117.450933 l
311.701108 117.337822 l
312.121973 117.408954 l
312.159267 117.385177 l
312.545943 117.427927 l
313.018221 117.381255 l
313.197142 117.412832 l
316.791371 117.268011 l
328.962518 115.274205 l
329.15839 117.693815 l
329.264315 117.637403 l
329.39272 117.638086 l
329.578628 117.173785 l
329.722087 117.399258 l
329.729583 117.362634 l
329.868965 117.294168 l
329.95785 117.099501 l
330.161152 117.283458 l
330.619389 117.243992 l
330.680892 117.274446 l
332.371236 117.158293 l
332.754092 117.169289 l
333.182721 117.209902 l
335.045844 117.202299 l
336.290719 117.123058 l
336.798062 117.050823 l
346.161903 117.005341 l
346.298176 118.035815 l
346.790066 117.030616 l
347.713016 117.082952 l
347.847468 117.027244 l
348.115192 117.09884 l
348.254675 116.974336 l
348.527486 117.051881 l
352.001749 116.975878 l
352.602273 117.027663 l
353.050546 116.963913 l
353.357274 116.96616 l
354.08892 116.917593 l
364.273897 117.554833 l
364.385428 117.410497 l
364.555134 116.962767 l
364.67187 117.036037 l
364.939022 116.898686 l
364.999101 116.770612 l
365.043759 116.8075 l
365.420937 116.985354 l
365.699541 116.811863 l
365.712099 116.836632 l
365.863684 116.93888 l
366.024327 116.819179 l
366.624379 116.854085 l
367.166185 116.826958 l
368.042189 116.821736 l
368.354575 116.772749 l
368.76393 116.831806 l
369.831615 116.760828 l
370.227686 116.819995 l
371.35519 116.790709 l
372.223241 116.688968 l
382.089827 117.187756 l
382.439213 117.420677 l
382.647672 116.706046 l
382.69112 116.775658 l
383.277144 116.623234 l
383.536442 116.806178 l
383.765148 116.679096 l
384.021571 116.765323 l
384.18185 116.617725 l
384.31102 116.691546 l
385.249814 116.597805 l
385.515723 116.602675 l
385.882691 116.647783 l
386.68511 116.668519 l
387.13455 116.669554 l
388.112929 116.623256 l
388.765828 116.657214 l
390.328558 116.560299 l
400.330513 116.576606 l
400.368627 116.308228 l
400.651226 116.968166 l
400.955249 116.541987 l
401.154191 116.674204 l
401.180604 116.634274 l
401.632097 116.607567 l
401.687839 116.606884 l
401.891383 116.46777 l
402.173238 116.621692 l
402.77997 116.485795 l
402.897672 116.542296 l
403.271333 116.405121 l
403.912114 116.480198 l
404.577384 116.456972 l
404.756519 116.491348 l
407.443273 116.383239 l
408.234459 116.300515 l
417.227424 116.089542 l
417.318719 116.233636 l
418.046609 116.421604 l
418.305446 116.213913 l
418.639461 116.438704 l
418.924602 116.337492 l
419.602675 116.367064 l
420.220961 116.264354 l
420.570824 116.304372 l
422.115873 116.342891 l
422.862295 116.305341 l
423.687776 116.342076 l
424.059518 116.332071 l
424.988009 116.243354 l
425.113444 116.229339 l
434.79268 115.699546 l
434.811596 116.351397 l
435.180102 116.742097 l
435.355087 116.202962 l
436.155307 116.307214 l
436.19685 116.363495 l
436.213578 116.33282 l
436.571589 116.26821 l
436.749911 116.264949 l
437.568743 116.172662 l
437.698307 116.138594 l
439.17019 116.191899 l
439.404776 116.176232 l
439.496132 116.145932 l
441.528497 116.150956 l
441.97068 116.114398 l
442.812449 116.032556 l
451.695943 112.049594 l
451.70281 116.47773 l
451.80063 116.064222 l
451.919564 115.919797 l
451.816763 116.074579 l
451.919736 115.924094 l
452.1793 114.815766 l
452.183935 116.860167 l
452.238238 115.917263 l
469.183737 117.187183 l
469.211896 116.405385 l
469.291966 116.506421 l
474.752949 116.372419 l
474.93633 116.356443 l
484.455675 116.735222 l
484.47987 116.924402 l
484.697335 116.864442 l
484.901723 116.390775 l
485.389517 116.168585 l
485.645469 116.381961 l
486.039581 116.349392 l
486.097973 116.412988 l
486.46447 116.298951 l
486.468474 116.318497 l
486.739853 116.359638 l
487.226876 116.274425 l
488.383026 116.331168 l
489.644213 116.322507 l
489.708969 116.348797 l
490.221203 116.290665 l
491.866782 116.277157 l
502.841494 116.314354 l
503.211391 116.477135 l
503.222161 116.449237 l
503.399828 116.140798 l
503.442772 116.193795 l
504.023368 116.125901 l
504.285301 116.288285 l
504.491581 116.102146 l
504.50852 116.123632 l
505.636205 116.193795 l
506.072098 116.092472 l
506.819682 116.215258 l
511.798333 116.075615 l
521.301746 114.29697 l
521.516027 116.856134 l
521.631286 116.676363 l
521.805113 116.380374 l
521.987273 115.977334 l
522.148093 116.164442 l
522.156592 116.123477 l
522.312903 116.056157 l
522.413398 115.862592 l
522.64602 116.084958 l
523.157208 116.121913 l
523.223202 116.139982 l
525.822545 116.066756 l
526.14465 116.112195 l
527.095244 116.035663 l
527.60623 116.085046 l
527.870442 116.080727 l
529.674903 115.930595 l
538.930803 115.89353 l
539.078801 116.620568 l
539.081038 116.587117 l
539.50975 116.012878 l
539.579532 115.840732 l
540.449273 116.142142 l
540.686413 115.995514 l
540.959936 116.08628 l
541.064571 115.950472 l
541.066573 115.966646 l
541.372899 116.04342 l
542.409459 115.935002 l
543.995818 115.969621 l
544.958041 115.930595 l
545.546151 115.967748 l
546.006288 115.899502 l
546.321153 115.911864 l
547.064096 115.867462 l
556.87551 116.558757 l
556.981268 116.398664 l
557.140771 115.909969 l
557.518523 115.866426 l
557.579691 115.737074 l
557.623136 115.790071 l
557.996822 115.98249 l
558.281065 115.821318 l
558.293879 115.844015 l
558.44841 115.954725 l
558.613 115.816536 l
559.230968 115.870216 l
560.137871 115.769533 l
561.568989 115.791283 l
563.915654 115.755628 l
564.788953 115.688749 l
574.673563 116.285597 l
574.876249 115.601111 l
574.918187 115.652323 l
575.163768 115.671252 l
575.407602 115.547497 l
575.754326 115.729604 l
575.987632 115.636677 l
576.542368 115.700626 l
577.40598 115.588088 l
577.635414 115.664707 l
577.996056 115.649745 l
578.948098 115.662261 l
579.041232 115.696043 l
580.320246 115.616338 l
581.027372 115.636964 l
582.557225 115.541636 l
591.985569 115.991613 l
592.024082 115.487647 l
592.315182 116.051551 l
592.639459 115.582447 l
592.85521 115.726849 l
592.883014 115.670349 l
593.230441 115.557964 l
593.234737 115.575351 l
593.426077 115.701265 l
593.650806 115.591129 l
593.947966 115.673808 l
594.346164 115.618674 l
594.546549 115.580662 l
595.01236 115.527004 l
595.135384 115.49904 l
595.765001 115.597211 l
596.25043 115.575439 l
597.855268 115.554945 l
598.900153 115.59071 l
600.364858 115.495206 l
609.626313 114.799547 l
609.723646 115.309353 l
610.396805 115.462812 l
610.49297 115.547519 l
610.765752 115.283703 l
611.093448 115.562636 l
611.401993 115.455408 l
611.689503 115.567065 l
611.776433 115.477356 l
611.891068 115.537008 l
613.820654 115.440358 l
615.212339 115.451596 l
615.553865 115.434584 l
616.417396 115.451023 l
616.762283 115.436832 l
617.523661 115.401398 l
617.883575 115.359022 l
627.210096 115.060323 l
627.228394 115.555056 l
627.589832 115.878105 l
627.762492 115.254858 l
628.106668 115.220327 l
628.181254 115.111601 l
628.632234 115.335378 l
628.905257 115.272332 l
629.121639 115.345911 l
629.168356 115.307348 l
635.108261 115.297233 l
635.365047 115.280177 l
644.543235 112.406888 l
644.721687 116.1274 l
644.901224 116.012239 l
645.261046 115.417132 l
645.310231 115.46603 l
645.79074 115.315148 l
646.130282 115.37566 l
646.262688 115.251596 l
646.437132 115.388352 l
646.700513 115.289807 l
646.907464 115.382865 l
648.189362 115.312174 l
648.40421 115.370239 l
648.424229 115.357348 l
648.430202 115.36993 l
649.262968 115.381808 l
652.764419 115.229406 l
661.869574 113.492343 l
662.038583 115.997034 l
662.363947 115.271737 l
662.618402 115.229483 l
662.618402 115.229483 l
stroke
grestore
1 0.498 0.055 setrgbcolor
gsave
71.12 65.72 638.08 260.2 rectclip
117.701598 98.739802 m
135.279559 95.308217 l
152.857521 88.82853 l
170.435482 85.91757 l
188.013444 84.904978 l
205.591405 81.659609 l
223.169366 85.449666 l
240.747328 83.92902 l
258.325289 80.550972 l
275.903251 83.208693 l
293.481212 82.907922 l
311.059174 82.457988 l
328.637135 79.434732 l
346.215096 83.366328 l
363.793058 80.587045 l
381.371019 78.032772 l
398.948981 77.973683 l
416.526942 81.113388 l
434.104904 80.538951 l
451.682865 80.437717 l
469.260826 79.94164 l
486.838788 79.844251 l
504.416749 81.254519 l
521.994711 81.541837 l
539.572672 78.50115 l
557.150634 82.909012 l
574.728595 80.88689 l
592.306556 77.547273 l
609.884518 79.25949 l
627.462479 79.611131 l
645.040441 79.10538 l
662.618402 81.086868 l
680.196364 83.405111 l
stroke
grestore
0.8 setlinewidth
0 setlinejoin
0 setgray
gsave
71.12 65.72 m
71.12 325.92 l
stroke
grestore
gsave
709.2 65.72 m
709.2 325.92 l
stroke
grestore
gsave
71.12 65.72 m
709.2 65.72 l
stroke
grestore
gsave
71.12 325.92 m
709.2 325.92 l
stroke
grestore
gsave
289.66 331.92 translate
0 rotate
/DejaVuSans 20.0 selectfont
0 0.796875 moveto
/five glyphshow
12.7246 0.796875 moveto
/zero glyphshow
25.4492 0.796875 moveto
/zero glyphshow
38.1738 0.796875 moveto
/space glyphshow
/DejaVuSans-Oblique 20.0 selectfont
44.5312 0.796875 moveto
/uni03BC glyphshow
/DejaVuSans 20.0 selectfont
57.2559 0.796875 moveto
/m glyphshow
76.7383 0.796875 moveto
/slash glyphshow
83.4766 0.796875 moveto
/p glyphshow
96.1719 0.796875 moveto
/i glyphshow
101.729 0.796875 moveto
/x glyphshow
113.564 0.796875 moveto
/e glyphshow
125.869 0.796875 moveto
/l glyphshow
131.426 0.796875 moveto
/space glyphshow
137.783 0.796875 moveto
/m glyphshow
157.266 0.796875 moveto
/o glyphshow
169.502 0.796875 moveto
/d glyphshow
182.197 0.796875 moveto
/e glyphshow
194.502 0.796875 moveto
/l glyphshow
grestore
1 setlinewidth
0 setlinecap
0.8 setgray
gsave
507.340625 251.20125 m
695.2 251.20125 l
697.866667 251.20125 699.2 252.534583 699.2 255.20125 c
699.2 311.92 l
699.2 314.586667 697.866667 315.92 695.2 315.92 c
507.340625 315.92 l
504.673958 315.92 503.340625 314.586667 503.340625 311.92 c
503.340625 255.20125 l
503.340625 252.534583 504.673958 251.20125 507.340625 251.20125 c
cl
gsave
1 setgray
fill
grestore
stroke
grestore
1.5 setlinewidth
1 setlinejoin
2 setlinecap
0.122 0.467 0.706 setrgbcolor
gsave
511.340625 299.716875 m
531.340625 299.716875 l
551.340625 299.716875 l
stroke
grestore
0 setgray
/DejaVuSans 20.000 selectfont
gsave

567.341 292.717 translate
0 rotate
0 0 m /T glyphshow
9.2168 0 m /r glyphshow
17.4395 0 m /a glyphshow
29.6953 0 m /i glyphshow
35.252 0 m /n glyphshow
47.9277 0 m /i glyphshow
53.4844 0 m /n glyphshow
66.1602 0 m /g glyphshow
78.8555 0 m /space glyphshow
85.2129 0 m /l glyphshow
90.7695 0 m /o glyphshow
103.006 0 m /s glyphshow
113.426 0 m /s glyphshow
grestore
1 0.498 0.055 setrgbcolor
gsave
511.340625 270.3575 m
531.340625 270.3575 l
551.340625 270.3575 l
stroke
grestore
0 setgray
/DejaVuSans 20.000 selectfont
gsave

567.341 263.358 translate
0 rotate
0 0 m /T glyphshow
8.8418 0 m /e glyphshow
21.1465 0 m /s glyphshow
31.5664 0 m /t glyphshow
39.4082 0 m /space glyphshow
45.7656 0 m /l glyphshow
51.3223 0 m /o glyphshow
63.5586 0 m /s glyphshow
73.9785 0 m /s glyphshow
grestore

end
showpage
